# cat exp/tri3b/decode/scoring/14.tra | utils/int2sym.pl -f 2- exp/tri3b/graph/words.txt | sed s:\<UNK\>::g | compute-wer --text --mode=present ark:exp/tri3b/decode/scoring/test_filt.txt ark,p:- >& exp/tri3b/decode/wer_14 
# Started at Tue Jan 22 17:31:57 -02 2019
#
# Accounting: time=1 threads=1
# Ended (code 0) at Tue Jan 22 17:31:58 -02 2019, elapsed time 1 seconds
