# nnet3-compute-prob exp/nnet3/lstm_sp/36.mdl "ark,bg:nnet3-copy-egs                      ark:exp/nnet3/lstm_sp/egs/train_diagnostic.egs ark:- |                     nnet3-merge-egs --minibatch-size=1:64 ark:-                     ark:- |" 
# Started at Tue Jan 22 12:20:24 -02 2019
#
nnet3-compute-prob exp/nnet3/lstm_sp/36.mdl 'ark,bg:nnet3-copy-egs                      ark:exp/nnet3/lstm_sp/egs/train_diagnostic.egs ark:- |                     nnet3-merge-egs --minibatch-size=1:64 ark:-                     ark:- |' 
WARNING (nnet3-compute-prob[5.5.23-c81f5]:Check():nnet-nnet.cc:789) Node lstm1-forward.W_all is never used to compute any output.
WARNING (nnet3-compute-prob[5.5.23-c81f5]:Check():nnet-nnet.cc:789) Node lstm1-forward.lstm_nonlin is never used to compute any output.
WARNING (nnet3-compute-prob[5.5.23-c81f5]:Check():nnet-nnet.cc:789) Node lstm1-forward.c is never used to compute any output.
WARNING (nnet3-compute-prob[5.5.23-c81f5]:Check():nnet-nnet.cc:789) Node lstm1-forward.m is never used to compute any output.
WARNING (nnet3-compute-prob[5.5.23-c81f5]:Check():nnet-nnet.cc:789) Node lstm1-forward.rp is never used to compute any output.
WARNING (nnet3-compute-prob[5.5.23-c81f5]:Check():nnet-nnet.cc:789) Node lstm1-forward.r is never used to compute any output.
WARNING (nnet3-compute-prob[5.5.23-c81f5]:Check():nnet-nnet.cc:789) Node lstm1-forward.cr_trunc is never used to compute any output.
WARNING (nnet3-compute-prob[5.5.23-c81f5]:Check():nnet-nnet.cc:789) Node lstm1-forward.c_trunc is never used to compute any output.
WARNING (nnet3-compute-prob[5.5.23-c81f5]:Check():nnet-nnet.cc:789) Node lstm1-forward.r_trunc is never used to compute any output.
LOG (nnet3-compute-prob[5.5.23-c81f5]:RemoveOrphanNodes():nnet-nnet.cc:948) Removed 9 orphan nodes.
LOG (nnet3-compute-prob[5.5.23-c81f5]:RemoveOrphanComponents():nnet-nnet.cc:847) Removing 4 orphan components.
LOG (nnet3-compute-prob[5.5.23-c81f5]:Collapse():nnet-utils.cc:1378) Added 0 components, removed 4
nnet3-merge-egs --minibatch-size=1:64 ark:- ark:- 
nnet3-copy-egs ark:exp/nnet3/lstm_sp/egs/train_diagnostic.egs ark:- 
LOG (nnet3-copy-egs[5.5.23-c81f5]:main():nnet3-copy-egs.cc:431) Read 2500 neural-network training examples, wrote 2500, 0 examples had errors.
LOG (nnet3-merge-egs[5.5.23-c81f5]:PrintSpecificStats():nnet-example-utils.cc:1143) Merged specific eg types as follows [format: <eg-size1>={<mb-size1>-><num-minibatches1>,<mbsize2>-><num-minibatches2>.../d=<num-discarded>},<egs-size2>={...},... (note,egs-size == number of input frames including context).
LOG (nnet3-merge-egs[5.5.23-c81f5]:PrintSpecificStats():nnet-example-utils.cc:1173) 16={25->1,d=0},16={21->1,d=0},24={22->1,64->38,d=0}
LOG (nnet3-merge-egs[5.5.23-c81f5]:PrintAggregateStats():nnet-example-utils.cc:1139) Processed 2500 egs of avg. size 23.85 into 41 minibatches, discarding 0% of egs.  Avg minibatch size was 60.98, #distinct types of egs/minibatches was 3/4
LOG (nnet3-compute-prob[5.5.23-c81f5]:PrintTotalStats():nnet-diagnostics.cc:162) Overall log-likelihood for 'output' is -5.83556 per frame, over 9975.5 frames.
LOG (nnet3-compute-prob[5.5.23-c81f5]:PrintTotalStats():nnet-diagnostics.cc:180) Overall accuracy for 'output' is 0.0540825 per frame, over 9975.5 frames.
LOG (nnet3-compute-prob[5.5.23-c81f5]:~CachingOptimizingCompiler():nnet-optimize.cc:710) 0.0105 seconds taken in nnet3 compilation total (breakdown: 0.00296 compilation, 0.00527 optimization, 0.000342 shortcut expansion, 0.00119 checking, 1.62e-05 computing indexes, 0.000666 misc.) + 0 I/O.
# Accounting: time=2 threads=1
# Ended (code 0) at Tue Jan 22 12:20:26 -02 2019, elapsed time 2 seconds
