# nnet3-acc-lda-stats --rand-prune=4.0 exp/nnet3/lstm_sp/init.raw "ark:nnet3-copy-egs  ark:exp/nnet3/lstm_sp/egs/egs.6.ark ark:- |" exp/nnet3/lstm_sp/6.lda_stats 
# Started at Tue Jan 22 12:16:34 -02 2019
#
nnet3-acc-lda-stats --rand-prune=4.0 exp/nnet3/lstm_sp/init.raw 'ark:nnet3-copy-egs  ark:exp/nnet3/lstm_sp/egs/egs.6.ark ark:- |' exp/nnet3/lstm_sp/6.lda_stats 
nnet3-copy-egs ark:exp/nnet3/lstm_sp/egs/egs.6.ark ark:- 
LOG (nnet3-copy-egs[5.5.23-c81f5]:main():nnet3-copy-egs.cc:431) Read 2357 neural-network training examples, wrote 2357, 0 examples had errors.
LOG (nnet3-acc-lda-stats[5.5.23-c81f5]:main():nnet3-acc-lda-stats.cc:185) Processed 2357 examples.
LOG (nnet3-acc-lda-stats[5.5.23-c81f5]:WriteStats():nnet3-acc-lda-stats.cc:59) Accumulated stats, soft frame count = 9452.  Wrote to exp/nnet3/lstm_sp/6.lda_stats
LOG (nnet3-acc-lda-stats[5.5.23-c81f5]:~CachingOptimizingCompiler():nnet-optimize.cc:710) 0.00313 seconds taken in nnet3 compilation total (breakdown: 0.000408 compilation, 0.000455 optimization, 0 shortcut expansion, 0.000154 checking, 9.06e-06 computing indexes, 0.0021 misc.) + 0 I/O.
# Accounting: time=0 threads=1
# Ended (code 0) at Tue Jan 22 12:16:34 -02 2019, elapsed time 0 seconds
