# nnet3-train --use-gpu=no --read-cache=exp/nnet3/lstm_sp/cache.24 --write-cache=exp/nnet3/lstm_sp/cache.25 --print-interval=10 --momentum=0.1 --max-param-change=2.0 --backstitch-training-scale=0.0 --l2-regularize-factor=1.0 --backstitch-training-interval=1 --srand=24 --optimization.min-deriv-time=-10 --optimization.max-deriv-time-relative=10 "nnet3-copy --learning-rate=0.000111827811609 --scale=1.0 exp/nnet3/lstm_sp/24.mdl - |" "ark,bg:nnet3-copy-egs               ark:exp/nnet3/lstm_sp/egs/egs.25.ark ark:- |             nnet3-shuffle-egs --buffer-size=5000             --srand=24 ark:- ark:- |              nnet3-merge-egs --minibatch-size=20 ark:- ark:- |" exp/nnet3/lstm_sp/25.1.raw 
# Started at Tue Jan 22 12:19:18 -02 2019
#
nnet3-train --use-gpu=no --read-cache=exp/nnet3/lstm_sp/cache.24 --write-cache=exp/nnet3/lstm_sp/cache.25 --print-interval=10 --momentum=0.1 --max-param-change=2.0 --backstitch-training-scale=0.0 --l2-regularize-factor=1.0 --backstitch-training-interval=1 --srand=24 --optimization.min-deriv-time=-10 --optimization.max-deriv-time-relative=10 'nnet3-copy --learning-rate=0.000111827811609 --scale=1.0 exp/nnet3/lstm_sp/24.mdl - |' 'ark,bg:nnet3-copy-egs               ark:exp/nnet3/lstm_sp/egs/egs.25.ark ark:- |             nnet3-shuffle-egs --buffer-size=5000             --srand=24 ark:- ark:- |              nnet3-merge-egs --minibatch-size=20 ark:- ark:- |' exp/nnet3/lstm_sp/25.1.raw 
nnet3-copy --learning-rate=0.000111827811609 --scale=1.0 exp/nnet3/lstm_sp/24.mdl - 
WARNING (nnet3-copy[5.5.23-c81f5]:Check():nnet-nnet.cc:789) Node lstm1-forward.W_all is never used to compute any output.
WARNING (nnet3-copy[5.5.23-c81f5]:Check():nnet-nnet.cc:789) Node lstm1-forward.lstm_nonlin is never used to compute any output.
WARNING (nnet3-copy[5.5.23-c81f5]:Check():nnet-nnet.cc:789) Node lstm1-forward.c is never used to compute any output.
WARNING (nnet3-copy[5.5.23-c81f5]:Check():nnet-nnet.cc:789) Node lstm1-forward.m is never used to compute any output.
WARNING (nnet3-copy[5.5.23-c81f5]:Check():nnet-nnet.cc:789) Node lstm1-forward.rp is never used to compute any output.
WARNING (nnet3-copy[5.5.23-c81f5]:Check():nnet-nnet.cc:789) Node lstm1-forward.r is never used to compute any output.
WARNING (nnet3-copy[5.5.23-c81f5]:Check():nnet-nnet.cc:789) Node lstm1-forward.cr_trunc is never used to compute any output.
WARNING (nnet3-copy[5.5.23-c81f5]:Check():nnet-nnet.cc:789) Node lstm1-forward.c_trunc is never used to compute any output.
WARNING (nnet3-copy[5.5.23-c81f5]:Check():nnet-nnet.cc:789) Node lstm1-forward.r_trunc is never used to compute any output.
WARNING (nnet3-train[5.5.23-c81f5]:Check():nnet-nnet.cc:789) Node lstm1-forward.W_all is never used to compute any output.
WARNING (nnet3-train[5.5.23-c81f5]:Check():nnet-nnet.cc:789) Node lstm1-forward.lstm_nonlin is never used to compute any output.
WARNING (nnet3-train[5.5.23-c81f5]:Check():nnet-nnet.cc:789) Node lstm1-forward.c is never used to compute any output.
WARNING (nnet3-train[5.5.23-c81f5]:Check():nnet-nnet.cc:789) Node lstm1-forward.m is never used to compute any output.
WARNING (nnet3-train[5.5.23-c81f5]:Check():nnet-nnet.cc:789) Node lstm1-forward.rp is never used to compute any output.
WARNING (nnet3-train[5.5.23-c81f5]:Check():nnet-nnet.cc:789) Node lstm1-forward.r is never used to compute any output.
WARNING (nnet3-train[5.5.23-c81f5]:Check():nnet-nnet.cc:789) Node lstm1-forward.cr_trunc is never used to compute any output.
WARNING (nnet3-train[5.5.23-c81f5]:Check():nnet-nnet.cc:789) Node lstm1-forward.c_trunc is never used to compute any output.
WARNING (nnet3-train[5.5.23-c81f5]:Check():nnet-nnet.cc:789) Node lstm1-forward.r_trunc is never used to compute any output.
LOG (nnet3-copy[5.5.23-c81f5]:main():nnet3-copy.cc:114) Copied raw neural net from exp/nnet3/lstm_sp/24.mdl to -
WARNING (nnet3-train[5.5.23-c81f5]:Check():nnet-nnet.cc:789) Node lstm1-forward.W_all is never used to compute any output.
WARNING (nnet3-train[5.5.23-c81f5]:Check():nnet-nnet.cc:789) Node lstm1-forward.lstm_nonlin is never used to compute any output.
WARNING (nnet3-train[5.5.23-c81f5]:Check():nnet-nnet.cc:789) Node lstm1-forward.c is never used to compute any output.
WARNING (nnet3-train[5.5.23-c81f5]:Check():nnet-nnet.cc:789) Node lstm1-forward.m is never used to compute any output.
WARNING (nnet3-train[5.5.23-c81f5]:Check():nnet-nnet.cc:789) Node lstm1-forward.rp is never used to compute any output.
WARNING (nnet3-train[5.5.23-c81f5]:Check():nnet-nnet.cc:789) Node lstm1-forward.r is never used to compute any output.
WARNING (nnet3-train[5.5.23-c81f5]:Check():nnet-nnet.cc:789) Node lstm1-forward.cr_trunc is never used to compute any output.
WARNING (nnet3-train[5.5.23-c81f5]:Check():nnet-nnet.cc:789) Node lstm1-forward.c_trunc is never used to compute any output.
WARNING (nnet3-train[5.5.23-c81f5]:Check():nnet-nnet.cc:789) Node lstm1-forward.r_trunc is never used to compute any output.
LOG (nnet3-train[5.5.23-c81f5]:NnetTrainer():nnet-training.cc:50) Read computation cache from exp/nnet3/lstm_sp/cache.24
nnet3-shuffle-egs --buffer-size=5000 --srand=24 ark:- ark:- 
nnet3-copy-egs ark:exp/nnet3/lstm_sp/egs/egs.25.ark ark:- 
nnet3-merge-egs --minibatch-size=20 ark:- ark:- 
WARNING (nnet3-train[5.5.23-c81f5]:ReorthogonalizeXt1():natural-gradient-online.cc:240) Cholesky out of expected range, reorthogonalizing with Gram-Schmidt
WARNING (nnet3-train[5.5.23-c81f5]:ReorthogonalizeXt1():natural-gradient-online.cc:240) Cholesky out of expected range, reorthogonalizing with Gram-Schmidt
LOG (nnet3-train[5.5.23-c81f5]:PrintStatsForThisPhase():nnet-training.cc:309) Average objective function for 'output' for minibatches 0-9 is -6.16311 over 798 frames.
LOG (nnet3-copy-egs[5.5.23-c81f5]:main():nnet3-copy-egs.cc:431) Read 2354 neural-network training examples, wrote 2354, 0 examples had errors.
LOG (nnet3-train[5.5.23-c81f5]:PrintStatsForThisPhase():nnet-training.cc:309) Average objective function for 'output' for minibatches 10-19 is -6.18648 over 799 frames.
LOG (nnet3-train[5.5.23-c81f5]:PrintStatsForThisPhase():nnet-training.cc:309) Average objective function for 'output' for minibatches 20-29 is -6.10586 over 799.5 frames.
LOG (nnet3-train[5.5.23-c81f5]:PrintStatsForThisPhase():nnet-training.cc:309) Average objective function for 'output' for minibatches 30-39 is -6.10453 over 800 frames.
LOG (nnet3-train[5.5.23-c81f5]:PrintStatsForThisPhase():nnet-training.cc:309) Average objective function for 'output' for minibatches 40-49 is -6.14366 over 794.5 frames.
LOG (nnet3-train[5.5.23-c81f5]:PrintStatsForThisPhase():nnet-training.cc:309) Average objective function for 'output' for minibatches 50-59 is -6.09813 over 800 frames.
LOG (nnet3-train[5.5.23-c81f5]:PrintStatsForThisPhase():nnet-training.cc:309) Average objective function for 'output' for minibatches 60-69 is -6.07092 over 799 frames.
LOG (nnet3-train[5.5.23-c81f5]:PrintStatsForThisPhase():nnet-training.cc:309) Average objective function for 'output' for minibatches 70-79 is -6.1229 over 800 frames.
LOG (nnet3-train[5.5.23-c81f5]:PrintStatsForThisPhase():nnet-training.cc:309) Average objective function for 'output' for minibatches 80-89 is -6.10274 over 798 frames.
LOG (nnet3-train[5.5.23-c81f5]:PrintStatsForThisPhase():nnet-training.cc:309) Average objective function for 'output' for minibatches 90-99 is -6.16149 over 798.5 frames.
LOG (nnet3-train[5.5.23-c81f5]:PrintStatsForThisPhase():nnet-training.cc:309) Average objective function for 'output' for minibatches 100-109 is -6.06098 over 797 frames.
LOG (nnet3-shuffle-egs[5.5.23-c81f5]:main():nnet3-shuffle-egs.cc:103) Shuffled order of 2354 neural-network training examples using a buffer (partial randomization)
LOG (nnet3-merge-egs[5.5.23-c81f5]:PrintSpecificStats():nnet-example-utils.cc:1143) Merged specific eg types as follows [format: <eg-size1>={<mb-size1>-><num-minibatches1>,<mbsize2>-><num-minibatches2>.../d=<num-discarded>},<egs-size2>={...},... (note,egs-size == number of input frames including context).
LOG (nnet3-merge-egs[5.5.23-c81f5]:PrintSpecificStats():nnet-example-utils.cc:1173) 16={20->1,d=3},16={,d=19},24={20->115,d=12}
LOG (nnet3-merge-egs[5.5.23-c81f5]:PrintAggregateStats():nnet-example-utils.cc:1139) Processed 2354 egs of avg. size 23.86 into 116 minibatches, discarding 1.444% of egs.  Avg minibatch size was 20, #distinct types of egs/minibatches was 3/2
LOG (nnet3-train[5.5.23-c81f5]:PrintTotalStats():nnet-training.cc:348) Overall average objective function for 'output' is -6.11716 over 9261 frames.
LOG (nnet3-train[5.5.23-c81f5]:PrintTotalStats():nnet-training.cc:355) [this line is to be parsed by a script:] log-prob-per-frame=-6.11716
LOG (nnet3-train[5.5.23-c81f5]:main():nnet3-train.cc:91) Wrote model to exp/nnet3/lstm_sp/25.1.raw
LOG (nnet3-train[5.5.23-c81f5]:~NnetTrainer():nnet-training.cc:365) Wrote computation cache to exp/nnet3/lstm_sp/cache.25
LOG (nnet3-train[5.5.23-c81f5]:~CachingOptimizingCompiler():nnet-optimize.cc:710) 0.000455 seconds taken in nnet3 compilation total (breakdown: 0 compilation, 0 optimization, 0 shortcut expansion, 0 checking, 0 computing indexes, 0.000455 misc.) + 0.0228 I/O.
# Accounting: time=5 threads=1
# Ended (code 0) at Tue Jan 22 12:19:23 -02 2019, elapsed time 5 seconds
