# compute-mfcc-feats --verbose=2 --config=conf/mfcc.conf scp,p:exp/make_mfcc/test/wav_test.3.scp ark:- | copy-feats --compress=true ark:- ark,scp:/home/debatin/Documents/Toolkits/kaldi-trunk/egs/ocsr/mfcc/raw_mfcc_test.3.ark,/home/debatin/Documents/Toolkits/kaldi-trunk/egs/ocsr/mfcc/raw_mfcc_test.3.scp 
# Started at Tue Jan 22 12:00:30 -02 2019
#
copy-feats --compress=true ark:- ark,scp:/home/debatin/Documents/Toolkits/kaldi-trunk/egs/ocsr/mfcc/raw_mfcc_test.3.ark,/home/debatin/Documents/Toolkits/kaldi-trunk/egs/ocsr/mfcc/raw_mfcc_test.3.scp 
compute-mfcc-feats --verbose=2 --config=conf/mfcc.conf scp,p:exp/make_mfcc/test/wav_test.3.scp ark:- 
VLOG[2] (compute-mfcc-feats[5.5.23-c81f5]:main():compute-mfcc-feats.cc:173) Processed features for key LapsBMM034_LapsBM_0661
VLOG[2] (compute-mfcc-feats[5.5.23-c81f5]:main():compute-mfcc-feats.cc:173) Processed features for key LapsBMM034_LapsBM_0662
VLOG[2] (compute-mfcc-feats[5.5.23-c81f5]:main():compute-mfcc-feats.cc:173) Processed features for key LapsBMM034_LapsBM_0663
VLOG[2] (compute-mfcc-feats[5.5.23-c81f5]:main():compute-mfcc-feats.cc:173) Processed features for key LapsBMM034_LapsBM_0664
VLOG[2] (compute-mfcc-feats[5.5.23-c81f5]:main():compute-mfcc-feats.cc:173) Processed features for key LapsBMM034_LapsBM_0665
VLOG[2] (compute-mfcc-feats[5.5.23-c81f5]:main():compute-mfcc-feats.cc:173) Processed features for key LapsBMM034_LapsBM_0666
VLOG[2] (compute-mfcc-feats[5.5.23-c81f5]:main():compute-mfcc-feats.cc:173) Processed features for key LapsBMM034_LapsBM_0667
VLOG[2] (compute-mfcc-feats[5.5.23-c81f5]:main():compute-mfcc-feats.cc:173) Processed features for key LapsBMM034_LapsBM_0668
VLOG[2] (compute-mfcc-feats[5.5.23-c81f5]:main():compute-mfcc-feats.cc:173) Processed features for key LapsBMM034_LapsBM_0669
LOG (compute-mfcc-feats[5.5.23-c81f5]:main():compute-mfcc-feats.cc:172) Processed 10 utterances
VLOG[2] (compute-mfcc-feats[5.5.23-c81f5]:main():compute-mfcc-feats.cc:173) Processed features for key LapsBMM034_LapsBM_0670
VLOG[2] (compute-mfcc-feats[5.5.23-c81f5]:main():compute-mfcc-feats.cc:173) Processed features for key LapsBMM034_LapsBM_0671
VLOG[2] (compute-mfcc-feats[5.5.23-c81f5]:main():compute-mfcc-feats.cc:173) Processed features for key LapsBMM034_LapsBM_0672
VLOG[2] (compute-mfcc-feats[5.5.23-c81f5]:main():compute-mfcc-feats.cc:173) Processed features for key LapsBMM034_LapsBM_0673
VLOG[2] (compute-mfcc-feats[5.5.23-c81f5]:main():compute-mfcc-feats.cc:173) Processed features for key LapsBMM034_LapsBM_0674
VLOG[2] (compute-mfcc-feats[5.5.23-c81f5]:main():compute-mfcc-feats.cc:173) Processed features for key LapsBMM034_LapsBM_0675
VLOG[2] (compute-mfcc-feats[5.5.23-c81f5]:main():compute-mfcc-feats.cc:173) Processed features for key LapsBMM034_LapsBM_0676
VLOG[2] (compute-mfcc-feats[5.5.23-c81f5]:main():compute-mfcc-feats.cc:173) Processed features for key LapsBMM034_LapsBM_0677
VLOG[2] (compute-mfcc-feats[5.5.23-c81f5]:main():compute-mfcc-feats.cc:173) Processed features for key LapsBMM034_LapsBM_0678
VLOG[2] (compute-mfcc-feats[5.5.23-c81f5]:main():compute-mfcc-feats.cc:173) Processed features for key LapsBMM034_LapsBM_0679
LOG (compute-mfcc-feats[5.5.23-c81f5]:main():compute-mfcc-feats.cc:172) Processed 20 utterances
VLOG[2] (compute-mfcc-feats[5.5.23-c81f5]:main():compute-mfcc-feats.cc:173) Processed features for key LapsBMM034_LapsBM_0680
LOG (compute-mfcc-feats[5.5.23-c81f5]:main():compute-mfcc-feats.cc:176)  Done 20 out of 20 utterances.
LOG (copy-feats[5.5.23-c81f5]:main():copy-feats.cc:143) Copied 20 feature matrices.
# Accounting: time=0 threads=1
# Ended (code 0) at Tue Jan 22 12:00:30 -02 2019, elapsed time 0 seconds
