# gmm-est --mix-up=56000 --power=0.25 --write-occs=exp/tri1/27.occs exp/tri1/26.mdl "gmm-sum-accs - exp/tri1/26.*.acc |" exp/tri1/27.mdl 
# Started at Tue Jan 22 19:38:41 -02 2019
#
gmm-est --mix-up=56000 --power=0.25 --write-occs=exp/tri1/27.occs exp/tri1/26.mdl 'gmm-sum-accs - exp/tri1/26.*.acc |' exp/tri1/27.mdl 
gmm-sum-accs - exp/tri1/26.1.acc exp/tri1/26.2.acc exp/tri1/26.3.acc 
LOG (gmm-sum-accs[5.5.23-c81f5]:main():gmm-sum-accs.cc:63) Summed 3 stats, total count 295041, avg like/frame -82.2651
LOG (gmm-sum-accs[5.5.23-c81f5]:main():gmm-sum-accs.cc:66) Total count of stats is 295041
LOG (gmm-sum-accs[5.5.23-c81f5]:main():gmm-sum-accs.cc:67) Written stats to -
LOG (gmm-est[5.5.23-c81f5]:MleUpdate():transition-model.cc:517) TransitionModel::Update, objf change is 0 per frame over 295041 frames. 
LOG (gmm-est[5.5.23-c81f5]:MleUpdate():transition-model.cc:520) 58 probabilities floored, 1396 out of 2719 transition-states skipped due to insuffient data (it is normal to have some skipped.)
LOG (gmm-est[5.5.23-c81f5]:main():gmm-est.cc:102) Transition model update: Overall 0 log-like improvement per frame over 295041 frames.
WARNING (gmm-est[5.5.23-c81f5]:MleDiagGmmUpdate():mle-diag-gmm.cc:359) Too little data - removing Gaussian (weight 0.000756, occupation count 9.993052, vector size 39)
WARNING (gmm-est[5.5.23-c81f5]:MleDiagGmmUpdate():mle-diag-gmm.cc:365) Gaussian has too little data but not removing it because it is the last Gaussian: i = 0, occ = 0, weight = 1
WARNING (gmm-est[5.5.23-c81f5]:MleDiagGmmUpdate():mle-diag-gmm.cc:365) Gaussian has too little data but not removing it because it is the last Gaussian: i = 0, occ = 10, weight = 1
WARNING (gmm-est[5.5.23-c81f5]:MleDiagGmmUpdate():mle-diag-gmm.cc:359) Too little data - removing Gaussian (weight 0.012603, occupation count 9.994014, vector size 39)
WARNING (gmm-est[5.5.23-c81f5]:MleDiagGmmUpdate():mle-diag-gmm.cc:359) Too little data - removing Gaussian (weight 0.009484, occupation count 9.996658, vector size 39)
WARNING (gmm-est[5.5.23-c81f5]:MleDiagGmmUpdate():mle-diag-gmm.cc:359) Too little data - removing Gaussian (weight 0.053209, occupation count 9.364783, vector size 39)
LOG (gmm-est[5.5.23-c81f5]:MleAmDiagGmmUpdate():mle-am-diag-gmm.cc:225) 5 variance elements floored in 5 Gaussians, out of 14464
LOG (gmm-est[5.5.23-c81f5]:MleAmDiagGmmUpdate():mle-am-diag-gmm.cc:229) Removed 4 Gaussians due to counts < --min-gaussian-occupancy=10 and --remove-low-count-gaussians=true
LOG (gmm-est[5.5.23-c81f5]:main():gmm-est.cc:113) GMM update: Overall 0.00537661 objective function improvement per frame over 295041 frames
LOG (gmm-est[5.5.23-c81f5]:main():gmm-est.cc:116) GMM update: Overall avg like per frame = -82.2651 over 295041 frames.
WARNING (gmm-est[5.5.23-c81f5]:GetSplitTargets():model-common.cc:134) Could not split up to 56000 due to min-count = 20 (or no counts at all)
LOG (gmm-est[5.5.23-c81f5]:SplitByCount():am-diag-gmm.cc:116) Split 656 states with target = 56000, power = 0.25, perturb_factor = 0.01 and min_count = 20, split #Gauss from 14464 to 14466
LOG (gmm-est[5.5.23-c81f5]:main():gmm-est.cc:146) Written model to exp/tri1/27.mdl
# Accounting: time=0 threads=1
# Ended (code 0) at Tue Jan 22 19:38:41 -02 2019, elapsed time 0 seconds
