# gunzip -c exp/tri3b/decode.si/lat.2.gz | lattice-to-post --acoustic-scale=0.083333 ark:- ark:- | weight-silence-post 0.01 1:2:3:4:5:6:7:8:9:10 exp/tri3b/final.alimdl ark:- ark:- | gmm-post-to-gpost exp/tri3b/final.alimdl "ark,s,cs:apply-cmvn  --utt2spk=ark:data/test/split3/2/utt2spk scp:data/test/split3/2/cmvn.scp scp:data/test/split3/2/feats.scp ark:- | splice-feats --left-context=2 --right-context=2 ark:- ark:- | transform-feats exp/tri3b/final.mat ark:- ark:- |" ark:- ark:- | gmm-est-fmllr-gpost --fmllr-update-type=full --spk2utt=ark:data/test/split3/2/spk2utt exp/tri3b/final.mdl "ark,s,cs:apply-cmvn  --utt2spk=ark:data/test/split3/2/utt2spk scp:data/test/split3/2/cmvn.scp scp:data/test/split3/2/feats.scp ark:- | splice-feats --left-context=2 --right-context=2 ark:- ark:- | transform-feats exp/tri3b/final.mat ark:- ark:- |" ark,s,cs:- ark:exp/tri3b/decode/pre_trans.2 
# Started at Tue Jan 22 12:09:40 -02 2019
#
lattice-to-post --acoustic-scale=0.083333 ark:- ark:- 
gmm-est-fmllr-gpost --fmllr-update-type=full --spk2utt=ark:data/test/split3/2/spk2utt exp/tri3b/final.mdl 'ark,s,cs:apply-cmvn  --utt2spk=ark:data/test/split3/2/utt2spk scp:data/test/split3/2/cmvn.scp scp:data/test/split3/2/feats.scp ark:- | splice-feats --left-context=2 --right-context=2 ark:- ark:- | transform-feats exp/tri3b/final.mat ark:- ark:- |' ark,s,cs:- ark:exp/tri3b/decode/pre_trans.2 
gmm-post-to-gpost exp/tri3b/final.alimdl 'ark,s,cs:apply-cmvn  --utt2spk=ark:data/test/split3/2/utt2spk scp:data/test/split3/2/cmvn.scp scp:data/test/split3/2/feats.scp ark:- | splice-feats --left-context=2 --right-context=2 ark:- ark:- | transform-feats exp/tri3b/final.mat ark:- ark:- |' ark:- ark:- 
weight-silence-post 0.01 1:2:3:4:5:6:7:8:9:10 exp/tri3b/final.alimdl ark:- ark:- 
splice-feats --left-context=2 --right-context=2 ark:- ark:- 
apply-cmvn --utt2spk=ark:data/test/split3/2/utt2spk scp:data/test/split3/2/cmvn.scp scp:data/test/split3/2/feats.scp ark:- 
transform-feats exp/tri3b/final.mat ark:- ark:- 
transform-feats exp/tri3b/final.mat ark:- ark:- 
apply-cmvn --utt2spk=ark:data/test/split3/2/utt2spk scp:data/test/split3/2/cmvn.scp scp:data/test/split3/2/feats.scp ark:- 
splice-feats --left-context=2 --right-context=2 ark:- ark:- 
LOG (lattice-to-post[5.5.23-c81f5]:main():lattice-to-post.cc:106) Overall average log-like/frame is -4.08458 over 11027 frames.  Average acoustic like/frame is -3.95534
LOG (lattice-to-post[5.5.23-c81f5]:main():lattice-to-post.cc:110) Done 20 lattices.
LOG (weight-silence-post[5.5.23-c81f5]:main():weight-silence-post.cc:95) Done 20 posteriors.
LOG (apply-cmvn[5.5.23-c81f5]:main():apply-cmvn.cc:162) Applied cepstral mean normalization to 20 utterances, errors on 0
LOG (apply-cmvn[5.5.23-c81f5]:main():apply-cmvn.cc:162) Applied cepstral mean normalization to 20 utterances, errors on 0
LOG (transform-feats[5.5.23-c81f5]:main():transform-feats.cc:158) Overall average [pseudo-]logdet is -77.3164 over 11027 frames.
LOG (transform-feats[5.5.23-c81f5]:main():transform-feats.cc:161) Applied transform to 20 utterances; 0 had errors.
LOG (transform-feats[5.5.23-c81f5]:main():transform-feats.cc:158) Overall average [pseudo-]logdet is -77.3164 over 11027 frames.
LOG (transform-feats[5.5.23-c81f5]:main():transform-feats.cc:161) Applied transform to 20 utterances; 0 had errors.
LOG (gmm-post-to-gpost[5.5.23-c81f5]:main():gmm-post-to-gpost.cc:124) Done 20 files, 0 with no posteriors, 0 with other errors.
LOG (gmm-post-to-gpost[5.5.23-c81f5]:main():gmm-post-to-gpost.cc:128) Overall avg like per frame (Gaussian only) = -50.9845 over 7659.44 frames.
LOG (gmm-post-to-gpost[5.5.23-c81f5]:main():gmm-post-to-gpost.cc:131) Done converting post to gpost
LOG (gmm-est-fmllr-gpost[5.5.23-c81f5]:ComputeFmllrMatrixDiagGmmFull():fmllr-diag-gmm.cc:262) fMLLR objf improvement is 4.33432 per frame over 7659.43 frames.
LOG (gmm-est-fmllr-gpost[5.5.23-c81f5]:main():gmm-est-fmllr-gpost.cc:141) For speaker LapsBMM001, auxf-impr from fMLLR is 4.33432, over 7659.43 frames.
LOG (gmm-est-fmllr-gpost[5.5.23-c81f5]:main():gmm-est-fmllr-gpost.cc:186) Done 20 files, 0 with no gposts, 0 with other errors.
LOG (gmm-est-fmllr-gpost[5.5.23-c81f5]:main():gmm-est-fmllr-gpost.cc:188) Overall fMLLR auxf impr per frame is 4.33432 over 7659.43 frames.
# Accounting: time=1 threads=1
# Ended (code 0) at Tue Jan 22 12:09:41 -02 2019, elapsed time 1 seconds
