# ali-to-phones --write-lengths=true exp/tri3b/decode/../final.mdl "ark:gunzip -c exp/tri3b/decode/ali_tmp.1.gz|" ark,t:- | sed -E "s/^[^ ]+ //" | awk 'BEGIN{FS=" ; "; OFS="\n";} {print "begin " $1; if (NF>1) print "end " $NF; for (n=1;n<=NF;n++) print "all " $n; }' | sort | uniq -c | gzip -c > exp/tri3b/decode/phone_stats.1.gz 
# Started at Tue Jan 22 12:09:52 -02 2019
#
ali-to-phones --write-lengths=true exp/tri3b/decode/../final.mdl 'ark:gunzip -c exp/tri3b/decode/ali_tmp.1.gz|' ark,t:- 
LOG (ali-to-phones[5.5.23-c81f5]:main():ali-to-phones.cc:134) Done 20 utterances.
# Accounting: time=0 threads=1
# Ended (code 0) at Tue Jan 22 12:09:52 -02 2019, elapsed time 0 seconds
