# nnet3-get-egs --num-pdfs=768 --frame-subsampling-factor=1 --online-ivectors=scp:exp/nnet3/ivectors_train_sp_hires_comb/ivector_online.scp --online-ivector-period=10 --left-context=3 --right-context=4 --compress=true --num-frames=8 "ark,s,cs:utils/filter_scp.pl --exclude exp/nnet3/tdnn_sp/egs/valid_uttlist data/train_sp_hires_comb/split6/5/feats.scp | apply-cmvn --norm-means=false --norm-vars=false --utt2spk=ark:data/train_sp_hires_comb/split6/5/utt2spk scp:data/train_sp_hires_comb/split6/5/cmvn.scp scp:- ark:- |" "ark,s,cs:filter_scp.pl data/train_sp_hires_comb/split6/5/utt2spk exp/nnet3/tdnn_sp/egs/ali.scp | ali-to-pdf exp/tri3b_ali_train_sp_comb/final.mdl scp:- ark:- | ali-to-post ark:- ark:- |" ark:- | nnet3-copy-egs --random=true --srand=$[5+0] ark:- ark:exp/nnet3/tdnn_sp/egs/egs_orig.5.1.ark ark:exp/nnet3/tdnn_sp/egs/egs_orig.5.2.ark 
# Started at Tue Jan 22 12:13:19 -02 2019
#
nnet3-copy-egs --random=true --srand=5 ark:- ark:exp/nnet3/tdnn_sp/egs/egs_orig.5.1.ark ark:exp/nnet3/tdnn_sp/egs/egs_orig.5.2.ark 
nnet3-get-egs --num-pdfs=768 --frame-subsampling-factor=1 --online-ivectors=scp:exp/nnet3/ivectors_train_sp_hires_comb/ivector_online.scp --online-ivector-period=10 --left-context=3 --right-context=4 --compress=true --num-frames=8 'ark,s,cs:utils/filter_scp.pl --exclude exp/nnet3/tdnn_sp/egs/valid_uttlist data/train_sp_hires_comb/split6/5/feats.scp | apply-cmvn --norm-means=false --norm-vars=false --utt2spk=ark:data/train_sp_hires_comb/split6/5/utt2spk scp:data/train_sp_hires_comb/split6/5/cmvn.scp scp:- ark:- |' 'ark,s,cs:filter_scp.pl data/train_sp_hires_comb/split6/5/utt2spk exp/nnet3/tdnn_sp/egs/ali.scp | ali-to-pdf exp/tri3b_ali_train_sp_comb/final.mdl scp:- ark:- | ali-to-post ark:- ark:- |' ark:- 
apply-cmvn --norm-means=false --norm-vars=false --utt2spk=ark:data/train_sp_hires_comb/split6/5/utt2spk scp:data/train_sp_hires_comb/split6/5/cmvn.scp scp:- ark:- 
ali-to-post ark:- ark:- 
ali-to-pdf exp/tri3b_ali_train_sp_comb/final.mdl scp:- ark:- 
LOG (ali-to-pdf[5.5.23-c81f5]:main():ali-to-pdf.cc:68) Converted 320 alignments to pdf sequences.
LOG (ali-to-post[5.5.23-c81f5]:main():ali-to-post.cc:73) Converted 320 alignments.
LOG (apply-cmvn[5.5.23-c81f5]:main():apply-cmvn.cc:81) Copied 200 utterances.
LOG (nnet3-get-egs[5.5.23-c81f5]:~UtteranceSplitter():nnet-example-utils.cc:357) Split 200 utts, with total length 84087 frames (0.233575 hours assuming 100 frames per second)
LOG (nnet3-get-egs[5.5.23-c81f5]:~UtteranceSplitter():nnet-example-utils.cc:366) Average chunk length was 8 frames; overlap between adjacent chunks was 0.29969% of input length; length of output was 100.134% of input length (minus overlap = 99.8347%).
LOG (nnet3-copy-egs[5.5.23-c81f5]:main():nnet3-copy-egs.cc:431) Read 10525 neural-network training examples, wrote 10525, 0 examples had errors.
# Accounting: time=0 threads=1
# Ended (code 0) at Tue Jan 22 12:13:19 -02 2019, elapsed time 0 seconds
