# ali-to-post "ark:gunzip -c exp/tri3b/ali.2.gz|" ark:- | weight-silence-post 0.0 1:2:3:4:5:6:7:8:9:10 exp/tri3b/2.mdl ark:- ark:- | gmm-est-fmllr --fmllr-update-type=full --spk2utt=ark:data/train/split3/2/spk2utt exp/tri3b/2.mdl "ark,s,cs:apply-cmvn  --utt2spk=ark:data/train/split3/2/utt2spk scp:data/train/split3/2/cmvn.scp scp:data/train/split3/2/feats.scp ark:- | splice-feats --left-context=2 --right-context=2 ark:- ark:- | transform-feats exp/tri2b_ali/final.mat ark:- ark:- | transform-feats --utt2spk=ark:data/train/split3/2/utt2spk ark,s,cs:exp/tri3b/trans.2 ark:- ark:- |" ark:- ark:exp/tri3b/tmp_trans.2 
# Started at Tue Jan 22 12:06:17 -02 2019
#
ali-to-post 'ark:gunzip -c exp/tri3b/ali.2.gz|' ark:- 
weight-silence-post 0.0 1:2:3:4:5:6:7:8:9:10 exp/tri3b/2.mdl ark:- ark:- 
gmm-est-fmllr --fmllr-update-type=full --spk2utt=ark:data/train/split3/2/spk2utt exp/tri3b/2.mdl 'ark,s,cs:apply-cmvn  --utt2spk=ark:data/train/split3/2/utt2spk scp:data/train/split3/2/cmvn.scp scp:data/train/split3/2/feats.scp ark:- | splice-feats --left-context=2 --right-context=2 ark:- ark:- | transform-feats exp/tri2b_ali/final.mat ark:- ark:- | transform-feats --utt2spk=ark:data/train/split3/2/utt2spk ark,s,cs:exp/tri3b/trans.2 ark:- ark:- |' ark:- ark:exp/tri3b/tmp_trans.2 
transform-feats --utt2spk=ark:data/train/split3/2/utt2spk ark,s,cs:exp/tri3b/trans.2 ark:- ark:- 
apply-cmvn --utt2spk=ark:data/train/split3/2/utt2spk scp:data/train/split3/2/cmvn.scp scp:data/train/split3/2/feats.scp ark:- 
splice-feats --left-context=2 --right-context=2 ark:- ark:- 
transform-feats exp/tri2b_ali/final.mat ark:- ark:- 
LOG (gmm-est-fmllr[5.5.23-c81f5]:ComputeFmllrMatrixDiagGmmFull():fmllr-diag-gmm.cc:262) fMLLR objf improvement is 1.51298 per frame over 6427 frames.
LOG (gmm-est-fmllr[5.5.23-c81f5]:main():gmm-est-fmllr.cc:143) For speaker LapsBMM005, auxf-impr from fMLLR is 1.51298, over 6427 frames.
LOG (gmm-est-fmllr[5.5.23-c81f5]:ComputeFmllrMatrixDiagGmmFull():fmllr-diag-gmm.cc:262) fMLLR objf improvement is 1.11015 per frame over 6479 frames.
LOG (gmm-est-fmllr[5.5.23-c81f5]:main():gmm-est-fmllr.cc:143) For speaker LapsBMM007, auxf-impr from fMLLR is 1.11015, over 6479 frames.
LOG (gmm-est-fmllr[5.5.23-c81f5]:ComputeFmllrMatrixDiagGmmFull():fmllr-diag-gmm.cc:262) fMLLR objf improvement is 1.6113 per frame over 7973 frames.
LOG (gmm-est-fmllr[5.5.23-c81f5]:main():gmm-est-fmllr.cc:143) For speaker LapsBMM008, auxf-impr from fMLLR is 1.6113, over 7973 frames.
LOG (gmm-est-fmllr[5.5.23-c81f5]:ComputeFmllrMatrixDiagGmmFull():fmllr-diag-gmm.cc:262) fMLLR objf improvement is 1.14014 per frame over 6510 frames.
LOG (gmm-est-fmllr[5.5.23-c81f5]:main():gmm-est-fmllr.cc:143) For speaker LapsBMM009, auxf-impr from fMLLR is 1.14014, over 6510 frames.
LOG (gmm-est-fmllr[5.5.23-c81f5]:ComputeFmllrMatrixDiagGmmFull():fmllr-diag-gmm.cc:262) fMLLR objf improvement is 1.56026 per frame over 6295 frames.
LOG (gmm-est-fmllr[5.5.23-c81f5]:main():gmm-est-fmllr.cc:143) For speaker LapsBMM010, auxf-impr from fMLLR is 1.56026, over 6295 frames.
LOG (gmm-est-fmllr[5.5.23-c81f5]:ComputeFmllrMatrixDiagGmmFull():fmllr-diag-gmm.cc:262) fMLLR objf improvement is 1.42665 per frame over 7070 frames.
LOG (gmm-est-fmllr[5.5.23-c81f5]:main():gmm-est-fmllr.cc:143) For speaker LapsBMM011, auxf-impr from fMLLR is 1.42665, over 7070 frames.
LOG (gmm-est-fmllr[5.5.23-c81f5]:ComputeFmllrMatrixDiagGmmFull():fmllr-diag-gmm.cc:262) fMLLR objf improvement is 1.49771 per frame over 6598 frames.
LOG (gmm-est-fmllr[5.5.23-c81f5]:main():gmm-est-fmllr.cc:143) For speaker LapsBMM016, auxf-impr from fMLLR is 1.49771, over 6598 frames.
LOG (gmm-est-fmllr[5.5.23-c81f5]:ComputeFmllrMatrixDiagGmmFull():fmllr-diag-gmm.cc:262) fMLLR objf improvement is 1.4262 per frame over 6111 frames.
LOG (gmm-est-fmllr[5.5.23-c81f5]:main():gmm-est-fmllr.cc:143) For speaker LapsBMM017, auxf-impr from fMLLR is 1.4262, over 6111 frames.
LOG (gmm-est-fmllr[5.5.23-c81f5]:ComputeFmllrMatrixDiagGmmFull():fmllr-diag-gmm.cc:262) fMLLR objf improvement is 1.47276 per frame over 7229 frames.
LOG (gmm-est-fmllr[5.5.23-c81f5]:main():gmm-est-fmllr.cc:143) For speaker LapsBMM018, auxf-impr from fMLLR is 1.47276, over 7229 frames.
LOG (gmm-est-fmllr[5.5.23-c81f5]:ComputeFmllrMatrixDiagGmmFull():fmllr-diag-gmm.cc:262) fMLLR objf improvement is 0.959096 per frame over 7271 frames.
LOG (gmm-est-fmllr[5.5.23-c81f5]:main():gmm-est-fmllr.cc:143) For speaker LapsBMM020, auxf-impr from fMLLR is 0.959096, over 7271 frames.
LOG (ali-to-post[5.5.23-c81f5]:main():ali-to-post.cc:73) Converted 220 alignments.
LOG (weight-silence-post[5.5.23-c81f5]:main():weight-silence-post.cc:95) Done 220 posteriors.
LOG (apply-cmvn[5.5.23-c81f5]:main():apply-cmvn.cc:162) Applied cepstral mean normalization to 220 utterances, errors on 0
LOG (transform-feats[5.5.23-c81f5]:main():transform-feats.cc:158) Overall average [pseudo-]logdet is -77.3164 over 102323 frames.
LOG (transform-feats[5.5.23-c81f5]:main():transform-feats.cc:161) Applied transform to 220 utterances; 0 had errors.
LOG (transform-feats[5.5.23-c81f5]:main():transform-feats.cc:158) Overall average logdet is 0.938318 over 102323 frames.
LOG (transform-feats[5.5.23-c81f5]:main():transform-feats.cc:161) Applied transform to 220 utterances; 0 had errors.
LOG (gmm-est-fmllr[5.5.23-c81f5]:ComputeFmllrMatrixDiagGmmFull():fmllr-diag-gmm.cc:262) fMLLR objf improvement is 2.40273 per frame over 6590 frames.
LOG (gmm-est-fmllr[5.5.23-c81f5]:main():gmm-est-fmllr.cc:143) For speaker LapsBMM021, auxf-impr from fMLLR is 2.40273, over 6590 frames.
LOG (gmm-est-fmllr[5.5.23-c81f5]:main():gmm-est-fmllr.cc:188) Done 220 files, 0 with no posts, 0 with other errors.
LOG (gmm-est-fmllr[5.5.23-c81f5]:main():gmm-est-fmllr.cc:190) Overall fMLLR auxf impr per frame is 1.464 over 74553 frames.
# Accounting: time=4 threads=1
# Ended (code 0) at Tue Jan 22 12:06:21 -02 2019, elapsed time 4 seconds
