# gmm-est --power=0.2 --write-occs=exp/tri3b/31.occs --mix-up=20000 exp/tri3b/30.mdl "gmm-sum-accs - exp/tri3b/30.*.acc |" exp/tri3b/31.mdl 
# Started at Tue Jan 22 12:08:38 -02 2019
#
gmm-est --power=0.2 --write-occs=exp/tri3b/31.occs --mix-up=20000 exp/tri3b/30.mdl 'gmm-sum-accs - exp/tri3b/30.*.acc |' exp/tri3b/31.mdl 
gmm-sum-accs - exp/tri3b/30.1.acc exp/tri3b/30.2.acc exp/tri3b/30.3.acc 
LOG (gmm-sum-accs[5.5.23-c81f5]:main():gmm-sum-accs.cc:63) Summed 3 stats, total count 295041, avg like/frame -43.981
LOG (gmm-sum-accs[5.5.23-c81f5]:main():gmm-sum-accs.cc:66) Total count of stats is 295041
LOG (gmm-sum-accs[5.5.23-c81f5]:main():gmm-sum-accs.cc:67) Written stats to -
LOG (gmm-est[5.5.23-c81f5]:MleUpdate():transition-model.cc:517) TransitionModel::Update, objf change is 3.32954e-05 per frame over 295041 frames. 
LOG (gmm-est[5.5.23-c81f5]:MleUpdate():transition-model.cc:520) 180 probabilities floored, 1797 out of 3430 transition-states skipped due to insuffient data (it is normal to have some skipped.)
LOG (gmm-est[5.5.23-c81f5]:main():gmm-est.cc:102) Transition model update: Overall 3.32954e-05 log-like improvement per frame over 295041 frames.
WARNING (gmm-est[5.5.23-c81f5]:MleDiagGmmUpdate():mle-diag-gmm.cc:359) Too little data - removing Gaussian (weight 0.000709, occupation count 9.988482, vector size 40)
WARNING (gmm-est[5.5.23-c81f5]:MleDiagGmmUpdate():mle-diag-gmm.cc:359) Too little data - removing Gaussian (weight 0.000661, occupation count 9.309999, vector size 40)
WARNING (gmm-est[5.5.23-c81f5]:MleDiagGmmUpdate():mle-diag-gmm.cc:359) Too little data - removing Gaussian (weight 0.000710, occupation count 9.995817, vector size 40)
WARNING (gmm-est[5.5.23-c81f5]:MleDiagGmmUpdate():mle-diag-gmm.cc:359) Too little data - removing Gaussian (weight 0.000710, occupation count 9.999996, vector size 40)
WARNING (gmm-est[5.5.23-c81f5]:MleDiagGmmUpdate():mle-diag-gmm.cc:365) Gaussian has too little data but not removing it because it is the last Gaussian: i = 0, occ = 0, weight = 1
WARNING (gmm-est[5.5.23-c81f5]:MleDiagGmmUpdate():mle-diag-gmm.cc:359) Too little data - removing Gaussian (weight 0.000227, occupation count 9.263788, vector size 40)
WARNING (gmm-est[5.5.23-c81f5]:MleDiagGmmUpdate():mle-diag-gmm.cc:359) Too little data - removing Gaussian (weight 0.000235, occupation count 9.560506, vector size 40)
WARNING (gmm-est[5.5.23-c81f5]:MleDiagGmmUpdate():mle-diag-gmm.cc:359) Too little data - removing Gaussian (weight 0.000231, occupation count 9.389569, vector size 40)
WARNING (gmm-est[5.5.23-c81f5]:MleDiagGmmUpdate():mle-diag-gmm.cc:359) Too little data - removing Gaussian (weight 0.000227, occupation count 9.230298, vector size 40)
WARNING (gmm-est[5.5.23-c81f5]:MleDiagGmmUpdate():mle-diag-gmm.cc:359) Too little data - removing Gaussian (weight 0.000241, occupation count 9.807653, vector size 40)
WARNING (gmm-est[5.5.23-c81f5]:MleDiagGmmUpdate():mle-diag-gmm.cc:359) Too little data - removing Gaussian (weight 0.000233, occupation count 9.482307, vector size 40)
WARNING (gmm-est[5.5.23-c81f5]:MleDiagGmmUpdate():mle-diag-gmm.cc:359) Too little data - removing Gaussian (weight 0.000245, occupation count 9.989947, vector size 40)
WARNING (gmm-est[5.5.23-c81f5]:MleDiagGmmUpdate():mle-diag-gmm.cc:359) Too little data - removing Gaussian (weight 0.000245, occupation count 9.963305, vector size 40)
WARNING (gmm-est[5.5.23-c81f5]:MleDiagGmmUpdate():mle-diag-gmm.cc:359) Too little data - removing Gaussian (weight 0.000243, occupation count 9.911282, vector size 40)
WARNING (gmm-est[5.5.23-c81f5]:MleDiagGmmUpdate():mle-diag-gmm.cc:359) Too little data - removing Gaussian (weight 0.000244, occupation count 9.923965, vector size 40)
WARNING (gmm-est[5.5.23-c81f5]:MleDiagGmmUpdate():mle-diag-gmm.cc:359) Too little data - removing Gaussian (weight 0.000244, occupation count 9.926980, vector size 40)
WARNING (gmm-est[5.5.23-c81f5]:MleDiagGmmUpdate():mle-diag-gmm.cc:359) Too little data - removing Gaussian (weight 0.022922, occupation count 9.971128, vector size 40)
WARNING (gmm-est[5.5.23-c81f5]:MleDiagGmmUpdate():mle-diag-gmm.cc:359) Too little data - removing Gaussian (weight 0.013721, occupation count 9.234509, vector size 40)
WARNING (gmm-est[5.5.23-c81f5]:MleDiagGmmUpdate():mle-diag-gmm.cc:359) Too little data - removing Gaussian (weight 0.029850, occupation count 9.999877, vector size 40)
WARNING (gmm-est[5.5.23-c81f5]:MleDiagGmmUpdate():mle-diag-gmm.cc:365) Gaussian has too little data but not removing it because it is the last Gaussian: i = 0, occ = 9, weight = 1
WARNING (gmm-est[5.5.23-c81f5]:MleDiagGmmUpdate():mle-diag-gmm.cc:365) Gaussian has too little data but not removing it because it is the last Gaussian: i = 0, occ = 8, weight = 1
WARNING (gmm-est[5.5.23-c81f5]:MleDiagGmmUpdate():mle-diag-gmm.cc:359) Too little data - removing Gaussian (weight 0.014945, occupation count 9.998295, vector size 40)
WARNING (gmm-est[5.5.23-c81f5]:MleDiagGmmUpdate():mle-diag-gmm.cc:359) Too little data - removing Gaussian (weight 0.012023, occupation count 9.991175, vector size 40)
WARNING (gmm-est[5.5.23-c81f5]:MleDiagGmmUpdate():mle-diag-gmm.cc:359) Too little data - removing Gaussian (weight 0.022521, occupation count 9.999194, vector size 40)
LOG (gmm-est[5.5.23-c81f5]:MleAmDiagGmmUpdate():mle-am-diag-gmm.cc:225) 0 variance elements floored in 0 Gaussians, out of 14386
LOG (gmm-est[5.5.23-c81f5]:MleAmDiagGmmUpdate():mle-am-diag-gmm.cc:229) Removed 21 Gaussians due to counts < --min-gaussian-occupancy=10 and --remove-low-count-gaussians=true
LOG (gmm-est[5.5.23-c81f5]:main():gmm-est.cc:113) GMM update: Overall 0.040186 objective function improvement per frame over 295041 frames
LOG (gmm-est[5.5.23-c81f5]:main():gmm-est.cc:116) GMM update: Overall avg like per frame = -43.981 over 295041 frames.
WARNING (gmm-est[5.5.23-c81f5]:GetSplitTargets():model-common.cc:134) Could not split up to 20000 due to min-count = 20 (or no counts at all)
LOG (gmm-est[5.5.23-c81f5]:SplitByCount():am-diag-gmm.cc:116) Split 768 states with target = 20000, power = 0.2, perturb_factor = 0.01 and min_count = 20, split #Gauss from 14386 to 14422
LOG (gmm-est[5.5.23-c81f5]:main():gmm-est.cc:146) Written model to exp/tri3b/31.mdl
# Accounting: time=0 threads=1
# Ended (code 0) at Tue Jan 22 12:08:38 -02 2019, elapsed time 0 seconds
