# ali-to-phones --per-frame=true exp/nnet3/tdnn_sp/decode_test/../final.mdl "ark:gunzip -c exp/nnet3/tdnn_sp/decode_test/ali_tmp.1.gz|" ark,t:- | paste /dev/stdin <( gunzip -c exp/nnet3/tdnn_sp/decode_test/depth_tmp.1.gz ) | awk '{ half=NF/2; for (n=2; n<=half; n++) { m=n+half; count[$n " " $m]++;}} END{for(k in count) print k, count[k]; }' | gzip -c > exp/nnet3/tdnn_sp/decode_test/depth_stats_tmp.1.gz 
# Started at Sun Jan 20 15:17:16 -02 2019
#
ali-to-phones --per-frame=true exp/nnet3/tdnn_sp/decode_test/../final.mdl 'ark:gunzip -c exp/nnet3/tdnn_sp/decode_test/ali_tmp.1.gz|' ark,t:- 
LOG (ali-to-phones[5.5.23-c81f5]:main():ali-to-phones.cc:134) Done 20 utterances.
# Accounting: time=0 threads=1
# Ended (code 0) at Sun Jan 20 15:17:16 -02 2019, elapsed time 0 seconds
