# nnet3-shuffle-egs --srand=$[7+0] "ark:cat  exp/nnet3/lstm_sp/egs/egs_orig.1.7.ark exp/nnet3/lstm_sp/egs/egs_orig.2.7.ark exp/nnet3/lstm_sp/egs/egs_orig.3.7.ark|" ark:exp/nnet3/lstm_sp/egs/egs.7.ark 
# Started at Sun Jan 13 11:09:30 -02 2019
#
nnet3-shuffle-egs --srand=7 'ark:cat  exp/nnet3/lstm_sp/egs/egs_orig.1.7.ark exp/nnet3/lstm_sp/egs/egs_orig.2.7.ark exp/nnet3/lstm_sp/egs/egs_orig.3.7.ark|' ark:exp/nnet3/lstm_sp/egs/egs.7.ark 
LOG (nnet3-shuffle-egs[5.5.23-c81f5]:main():nnet3-shuffle-egs.cc:103) Shuffled order of 15066 neural-network training examples 
# Accounting: time=4 threads=1
# Ended (code 0) at Sun Jan 13 11:09:35 -02 2019, elapsed time 4 seconds
