# nnet3-shuffle-egs --srand=$[19+0] "ark:cat  exp/nnet3/lstm_sp/egs/egs_orig.1.19.ark exp/nnet3/lstm_sp/egs/egs_orig.2.19.ark exp/nnet3/lstm_sp/egs/egs_orig.3.19.ark|" ark:exp/nnet3/lstm_sp/egs/egs.19.ark 
# Started at Sun Jan 13 11:09:57 -02 2019
#
nnet3-shuffle-egs --srand=19 'ark:cat  exp/nnet3/lstm_sp/egs/egs_orig.1.19.ark exp/nnet3/lstm_sp/egs/egs_orig.2.19.ark exp/nnet3/lstm_sp/egs/egs_orig.3.19.ark|' ark:exp/nnet3/lstm_sp/egs/egs.19.ark 
LOG (nnet3-shuffle-egs[5.5.23-c81f5]:main():nnet3-shuffle-egs.cc:103) Shuffled order of 14920 neural-network training examples 
# Accounting: time=4 threads=1
# Ended (code 0) at Sun Jan 13 11:10:01 -02 2019, elapsed time 4 seconds
