# nnet3-shuffle-egs --srand=$[4+0] "ark:cat  exp/nnet3/lstm_sp/egs/egs_orig.1.4.ark exp/nnet3/lstm_sp/egs/egs_orig.2.4.ark exp/nnet3/lstm_sp/egs/egs_orig.3.4.ark|" ark:exp/nnet3/lstm_sp/egs/egs.4.ark 
# Started at Sun Jan 13 11:09:27 -02 2019
#
nnet3-shuffle-egs --srand=4 'ark:cat  exp/nnet3/lstm_sp/egs/egs_orig.1.4.ark exp/nnet3/lstm_sp/egs/egs_orig.2.4.ark exp/nnet3/lstm_sp/egs/egs_orig.3.4.ark|' ark:exp/nnet3/lstm_sp/egs/egs.4.ark 
LOG (nnet3-shuffle-egs[5.5.23-c81f5]:main():nnet3-shuffle-egs.cc:103) Shuffled order of 14823 neural-network training examples 
# Accounting: time=3 threads=1
# Ended (code 0) at Sun Jan 13 11:09:30 -02 2019, elapsed time 3 seconds
