# nnet3-average exp/nnet3/tdnn_sp/10.1.raw - | nnet3-am-copy --set-raw-nnet=- exp/nnet3/tdnn_sp/9.mdl exp/nnet3/tdnn_sp/10.mdl 
# Started at Wed Jan  9 18:20:04 -02 2019
#
nnet3-average exp/nnet3/tdnn_sp/10.1.raw - 
nnet3-am-copy --set-raw-nnet=- exp/nnet3/tdnn_sp/9.mdl exp/nnet3/tdnn_sp/10.mdl 
LOG (nnet3-average[5.5.23-c81f5]:main():nnet3-average.cc:164) Averaged parameters of 1 neural nets, and wrote to -
LOG (nnet3-am-copy[5.5.23-c81f5]:main():nnet3-am-copy.cc:158) Copied neural net from exp/nnet3/tdnn_sp/9.mdl to exp/nnet3/tdnn_sp/10.mdl
# Accounting: time=0 threads=1
# Ended (code 0) at Wed Jan  9 18:20:04 -02 2019, elapsed time 0 seconds
