# nnet3-compute-prob exp/nnet3/tdnn_sp/40.mdl "ark,bg:nnet3-copy-egs                      ark:exp/nnet3/tdnn_sp/egs/train_diagnostic.egs ark:- |                     nnet3-merge-egs --minibatch-size=1:64 ark:-                     ark:- |" 
# Started at Thu Jan 10 05:43:19 -02 2019
#
nnet3-compute-prob exp/nnet3/tdnn_sp/40.mdl 'ark,bg:nnet3-copy-egs                      ark:exp/nnet3/tdnn_sp/egs/train_diagnostic.egs ark:- |                     nnet3-merge-egs --minibatch-size=1:64 ark:-                     ark:- |' 
LOG (nnet3-compute-prob[5.5.23-c81f5]:RemoveOrphanNodes():nnet-nnet.cc:948) Removed 1 orphan nodes.
LOG (nnet3-compute-prob[5.5.23-c81f5]:RemoveOrphanComponents():nnet-nnet.cc:847) Removing 2 orphan components.
LOG (nnet3-compute-prob[5.5.23-c81f5]:Collapse():nnet-utils.cc:1378) Added 1 components, removed 2
nnet3-merge-egs --minibatch-size=1:64 ark:- ark:- 
nnet3-copy-egs ark:exp/nnet3/tdnn_sp/egs/train_diagnostic.egs ark:- 
LOG (nnet3-copy-egs[5.5.23-c81f5]:main():nnet3-copy-egs.cc:431) Read 1250 neural-network training examples, wrote 1250, 0 examples had errors.
LOG (nnet3-merge-egs[5.5.23-c81f5]:PrintSpecificStats():nnet-example-utils.cc:1143) Merged specific eg types as follows [format: <eg-size1>={<mb-size1>-><num-minibatches1>,<mbsize2>-><num-minibatches2>.../d=<num-discarded>},<egs-size2>={...},... (note,egs-size == number of input frames including context).
LOG (nnet3-merge-egs[5.5.23-c81f5]:PrintSpecificStats():nnet-example-utils.cc:1173) 36={34->1,64->19,d=0}
LOG (nnet3-merge-egs[5.5.23-c81f5]:PrintAggregateStats():nnet-example-utils.cc:1139) Processed 1250 egs of avg. size 36 into 20 minibatches, discarding 0% of egs.  Avg minibatch size was 62.5, #distinct types of egs/minibatches was 1/2
LOG (nnet3-compute-prob[5.5.23-c81f5]:PrintTotalStats():nnet-diagnostics.cc:162) Overall log-likelihood for 'output' is -0.314484 per frame, over 9993.5 frames.
LOG (nnet3-compute-prob[5.5.23-c81f5]:PrintTotalStats():nnet-diagnostics.cc:180) Overall accuracy for 'output' is 0.886026 per frame, over 9993.5 frames.
LOG (nnet3-compute-prob[5.5.23-c81f5]:~CachingOptimizingCompiler():nnet-optimize.cc:710) 0.00569 seconds taken in nnet3 compilation total (breakdown: 0.00348 compilation, 0.00116 optimization, 0.000253 shortcut expansion, 0.000225 checking, 4.1e-05 computing indexes, 0.000529 misc.) + 0 I/O.
# Accounting: time=28 threads=1
# Ended (code 0) at Thu Jan 10 05:43:47 -02 2019, elapsed time 28 seconds
