# gmm-global-est --remove-low-count-gaussians=true --min-gaussian-weight=0.0001 exp/nnet3/diag_ubm/3.dubm "gmm-global-sum-accs - exp/nnet3/diag_ubm/3.*.acc|" exp/nnet3/diag_ubm/4.dubm 
# Started at Tue Jan 22 12:10:52 -02 2019
#
gmm-global-est --remove-low-count-gaussians=true --min-gaussian-weight=0.0001 exp/nnet3/diag_ubm/3.dubm 'gmm-global-sum-accs - exp/nnet3/diag_ubm/3.*.acc|' exp/nnet3/diag_ubm/4.dubm 
gmm-global-sum-accs - exp/nnet3/diag_ubm/3.1.acc exp/nnet3/diag_ubm/3.2.acc exp/nnet3/diag_ubm/3.3.acc 
LOG (gmm-global-sum-accs[5.5.23-c81f5]:main():gmm-global-sum-accs.cc:59) Written stats to -
LOG (gmm-global-est[5.5.23-c81f5]:main():gmm-global-est.cc:80) Overall objective function improvement is 0.00621282 per frame over 111463 frames.
LOG (gmm-global-est[5.5.23-c81f5]:main():gmm-global-est.cc:90) Written model to exp/nnet3/diag_ubm/4.dubm
# Accounting: time=0 threads=1
# Ended (code 0) at Tue Jan 22 12:10:52 -02 2019, elapsed time 0 seconds
