# nnet3-shuffle-egs --srand=$[2+0] "ark:cat  exp/nnet3/lstm_sp/egs/egs_orig.1.2.ark exp/nnet3/lstm_sp/egs/egs_orig.2.2.ark exp/nnet3/lstm_sp/egs/egs_orig.3.2.ark|" ark:exp/nnet3/lstm_sp/egs/egs.2.ark 
# Started at Tue Jan 22 12:16:32 -02 2019
#
nnet3-shuffle-egs --srand=2 'ark:cat  exp/nnet3/lstm_sp/egs/egs_orig.1.2.ark exp/nnet3/lstm_sp/egs/egs_orig.2.2.ark exp/nnet3/lstm_sp/egs/egs_orig.3.2.ark|' ark:exp/nnet3/lstm_sp/egs/egs.2.ark 
LOG (nnet3-shuffle-egs[5.5.23-c81f5]:main():nnet3-shuffle-egs.cc:103) Shuffled order of 2223 neural-network training examples 
# Accounting: time=0 threads=1
# Ended (code 0) at Tue Jan 22 12:16:32 -02 2019, elapsed time 0 seconds
