<eps> 0
sil 1
sil_B 2
sil_E 3
sil_I 4
sil_S 5
spn 6
spn_B 7
spn_E 8
spn_I 9
spn_S 10
a_B 11
a_E 12
a_I 13
a_S 14
aa_B 15
aa_E 16
aa_I 17
aa_S 18
b_B 19
b_E 20
b_I 21
b_S 22
d_B 23
d_E 24
d_I 25
d_S 26
dz_B 27
dz_E 28
dz_I 29
dz_S 30
e_B 31
e_E 32
e_I 33
e_S 34
ee_B 35
ee_E 36
ee_I 37
ee_S 38
em_B 39
em_E 40
em_I 41
em_S 42
f_B 43
f_E 44
f_I 45
f_S 46
g_B 47
g_E 48
g_I 49
g_S 50
i_B 51
i_E 52
i_I 53
i_S 54
ii_B 55
ii_E 56
ii_I 57
ii_S 58
j_B 59
j_E 60
j_I 61
j_S 62
jj_B 63
jj_E 64
jj_I 65
jj_S 66
jm_B 67
jm_E 68
jm_I 69
jm_S 70
k_B 71
k_E 72
k_I 73
k_S 74
l_B 75
l_E 76
l_I 77
l_S 78
lm_B 79
lm_E 80
lm_I 81
lm_S 82
m_B 83
m_E 84
m_I 85
m_S 86
n_B 87
n_E 88
n_I 89
n_S 90
o_B 91
o_E 92
o_I 93
o_S 94
om_B 95
om_E 96
om_I 97
om_S 98
oo_B 99
oo_E 100
oo_I 101
oo_S 102
p_B 103
p_E 104
p_I 105
p_S 106
r_B 107
r_E 108
r_I 109
r_S 110
rm_B 111
rm_E 112
rm_I 113
rm_S 114
s_B 115
s_E 116
s_I 117
s_S 118
sm_B 119
sm_E 120
sm_I 121
sm_S 122
t_B 123
t_E 124
t_I 125
t_S 126
ts_B 127
ts_E 128
ts_I 129
ts_S 130
u_B 131
u_E 132
u_I 133
u_S 134
uu_B 135
uu_E 136
uu_I 137
uu_S 138
v_B 139
v_E 140
v_I 141
v_S 142
w_B 143
w_E 144
w_I 145
w_S 146
ww_B 147
ww_E 148
ww_I 149
ww_S 150
xm_B 151
xm_E 152
xm_I 153
xm_S 154
z_B 155
z_E 156
z_I 157
z_S 158
zm_B 159
zm_E 160
zm_I 161
zm_S 162
#0 163
#1 164
#2 165
#3 166
#4 167
