# cat exp/nnet3/tdnn_sp/decode_test/scoring/12.tra | utils/int2sym.pl -f 2- exp/tri3b/graph/words.txt | sed s:\<UNK\>::g | compute-wer --text --mode=present ark:exp/nnet3/tdnn_sp/decode_test/scoring/test_filt.txt ark,p:- >& exp/nnet3/tdnn_sp/decode_test/wer_12 
# Started at Sun Jan 20 15:17:17 -02 2019
#
# Accounting: time=0 threads=1
# Ended (code 0) at Sun Jan 20 15:17:17 -02 2019, elapsed time 0 seconds
