# gmm-acc-stats-ali exp/tri3b/1.mdl "ark,s,cs:apply-cmvn  --utt2spk=ark:data/train/split3/1/utt2spk scp:data/train/split3/1/cmvn.scp scp:data/train/split3/1/feats.scp ark:- | splice-feats --left-context=2 --right-context=2 ark:- ark:- | transform-feats exp/tri2b_ali/final.mat ark:- ark:- | transform-feats --utt2spk=ark:data/train/split3/1/utt2spk ark,s,cs:exp/tri3b/trans.1 ark:- ark:- |" "ark,s,cs:gunzip -c exp/tri3b/ali.1.gz|" exp/tri3b/1.1.acc 
# Started at Tue Jan 22 17:28:06 -02 2019
#
gmm-acc-stats-ali exp/tri3b/1.mdl 'ark,s,cs:apply-cmvn  --utt2spk=ark:data/train/split3/1/utt2spk scp:data/train/split3/1/cmvn.scp scp:data/train/split3/1/feats.scp ark:- | splice-feats --left-context=2 --right-context=2 ark:- ark:- | transform-feats exp/tri2b_ali/final.mat ark:- ark:- | transform-feats --utt2spk=ark:data/train/split3/1/utt2spk ark,s,cs:exp/tri3b/trans.1 ark:- ark:- |' 'ark,s,cs:gunzip -c exp/tri3b/ali.1.gz|' exp/tri3b/1.1.acc 
splice-feats --left-context=2 --right-context=2 ark:- ark:- 
apply-cmvn --utt2spk=ark:data/train/split3/1/utt2spk scp:data/train/split3/1/cmvn.scp scp:data/train/split3/1/feats.scp ark:- 
transform-feats --utt2spk=ark:data/train/split3/1/utt2spk ark,s,cs:exp/tri3b/trans.1 ark:- ark:- 
transform-feats exp/tri2b_ali/final.mat ark:- ark:- 
LOG (gmm-acc-stats-ali[5.5.23-c81f5]:main():gmm-acc-stats-ali.cc:105) Processed 50 utterances; for utterance LapsBMF013_LapsBM_0250 avg. like is -51.2688 over 527 frames.
LOG (gmm-acc-stats-ali[5.5.23-c81f5]:main():gmm-acc-stats-ali.cc:105) Processed 100 utterances; for utterance LapsBMF015_LapsBM_0300 avg. like is -51.8856 over 459 frames.
LOG (gmm-acc-stats-ali[5.5.23-c81f5]:main():gmm-acc-stats-ali.cc:105) Processed 150 utterances; for utterance LapsBMF026_LapsBM_0510 avg. like is -46.7221 over 476 frames.
LOG (gmm-acc-stats-ali[5.5.23-c81f5]:main():gmm-acc-stats-ali.cc:105) Processed 200 utterances; for utterance LapsBMM002_LapsBM_0040 avg. like is -47.2794 over 476 frames.
LOG (apply-cmvn[5.5.23-c81f5]:main():apply-cmvn.cc:162) Applied cepstral mean normalization to 220 utterances, errors on 0
LOG (transform-feats[5.5.23-c81f5]:main():transform-feats.cc:158) Overall average [pseudo-]logdet is -77.3164 over 104871 frames.
LOG (transform-feats[5.5.23-c81f5]:main():transform-feats.cc:161) Applied transform to 220 utterances; 0 had errors.
LOG (transform-feats[5.5.23-c81f5]:main():transform-feats.cc:158) Overall average logdet is 1.43217 over 104871 frames.
LOG (transform-feats[5.5.23-c81f5]:main():transform-feats.cc:161) Applied transform to 220 utterances; 0 had errors.
LOG (gmm-acc-stats-ali[5.5.23-c81f5]:main():gmm-acc-stats-ali.cc:112) Done 220 files, 0 with errors.
LOG (gmm-acc-stats-ali[5.5.23-c81f5]:main():gmm-acc-stats-ali.cc:115) Overall avg like per frame (Gaussian only) = -50.815 over 104871 frames.
LOG (gmm-acc-stats-ali[5.5.23-c81f5]:main():gmm-acc-stats-ali.cc:123) Written accs.
# Accounting: time=0 threads=1
# Ended (code 0) at Tue Jan 22 17:28:06 -02 2019, elapsed time 0 seconds
