# gmm-acc-stats-ali exp/tri3b/3.mdl "ark,s,cs:apply-cmvn  --utt2spk=ark:data/train/split3/2/utt2spk scp:data/train/split3/2/cmvn.scp scp:data/train/split3/2/feats.scp ark:- | splice-feats --left-context=2 --right-context=2 ark:- ark:- | transform-feats exp/tri2b_ali/final.mat ark:- ark:- | transform-feats --utt2spk=ark:data/train/split3/2/utt2spk ark:exp/tri3b/trans.2 ark:- ark:- |" "ark,s,cs:gunzip -c exp/tri3b/ali.2.gz|" exp/tri3b/3.2.acc 
# Started at Tue Jan 22 17:28:11 -02 2019
#
gmm-acc-stats-ali exp/tri3b/3.mdl 'ark,s,cs:apply-cmvn  --utt2spk=ark:data/train/split3/2/utt2spk scp:data/train/split3/2/cmvn.scp scp:data/train/split3/2/feats.scp ark:- | splice-feats --left-context=2 --right-context=2 ark:- ark:- | transform-feats exp/tri2b_ali/final.mat ark:- ark:- | transform-feats --utt2spk=ark:data/train/split3/2/utt2spk ark:exp/tri3b/trans.2 ark:- ark:- |' 'ark,s,cs:gunzip -c exp/tri3b/ali.2.gz|' exp/tri3b/3.2.acc 
splice-feats --left-context=2 --right-context=2 ark:- ark:- 
transform-feats --utt2spk=ark:data/train/split3/2/utt2spk ark:exp/tri3b/trans.2 ark:- ark:- 
transform-feats exp/tri2b_ali/final.mat ark:- ark:- 
apply-cmvn --utt2spk=ark:data/train/split3/2/utt2spk scp:data/train/split3/2/cmvn.scp scp:data/train/split3/2/feats.scp ark:- 
LOG (gmm-acc-stats-ali[5.5.23-c81f5]:main():gmm-acc-stats-ali.cc:105) Processed 50 utterances; for utterance LapsBMM008_LapsBM_0150 avg. like is -51.6548 over 459 frames.
LOG (gmm-acc-stats-ali[5.5.23-c81f5]:main():gmm-acc-stats-ali.cc:105) Processed 100 utterances; for utterance LapsBMM010_LapsBM_0200 avg. like is -53.0781 over 442 frames.
LOG (gmm-acc-stats-ali[5.5.23-c81f5]:main():gmm-acc-stats-ali.cc:105) Processed 150 utterances; for utterance LapsBMM017_LapsBM_0330 avg. like is -53.6905 over 425 frames.
LOG (gmm-acc-stats-ali[5.5.23-c81f5]:main():gmm-acc-stats-ali.cc:105) Processed 200 utterances; for utterance LapsBMM020_LapsBM_0400 avg. like is -49.1791 over 510 frames.
LOG (apply-cmvn[5.5.23-c81f5]:main():apply-cmvn.cc:162) Applied cepstral mean normalization to 220 utterances, errors on 0
LOG (transform-feats[5.5.23-c81f5]:main():transform-feats.cc:158) Overall average [pseudo-]logdet is -77.3164 over 102323 frames.
LOG (transform-feats[5.5.23-c81f5]:main():transform-feats.cc:161) Applied transform to 220 utterances; 0 had errors.
LOG (transform-feats[5.5.23-c81f5]:main():transform-feats.cc:158) Overall average logdet is 1.60622 over 102323 frames.
LOG (transform-feats[5.5.23-c81f5]:main():transform-feats.cc:161) Applied transform to 220 utterances; 0 had errors.
LOG (gmm-acc-stats-ali[5.5.23-c81f5]:main():gmm-acc-stats-ali.cc:112) Done 220 files, 0 with errors.
LOG (gmm-acc-stats-ali[5.5.23-c81f5]:main():gmm-acc-stats-ali.cc:115) Overall avg like per frame (Gaussian only) = -51.2787 over 102323 frames.
LOG (gmm-acc-stats-ali[5.5.23-c81f5]:main():gmm-acc-stats-ali.cc:123) Written accs.
# Accounting: time=0 threads=1
# Ended (code 0) at Tue Jan 22 17:28:11 -02 2019, elapsed time 0 seconds
