(B[m[1m 1670 debatin   20   0  611736  87696  48924 R  93,3   0,5   0:14.64 ocsr-desktop                                                                                                 (B[m[39;49m[K
(B[m[1m 1670 debatin   20   0  611736  87696  48924 R 100,0   0,5   0:15.30 ocsr-desktop                                                                                                 (B[m[39;49m[K
(B[m[1m 1670 debatin   20   0  611736  87696  48924 R 100,0   0,5   0:15.97 ocsr-desktop                                                                                                 (B[m[39;49m[K
(B[m[1m 1670 debatin   20   0  611736  87696  48924 R  93,3   0,5   0:16.62 ocsr-desktop                                                                                                 (B[m[39;49m[K
(B[m[1m 1670 debatin   20   0  611736  87696  48924 R 100,0   0,5   0:17.29 ocsr-desktop                                                                                                 (B[m[39;49m[K
(B[m[1m 1670 debatin   20   0  611736  87696  48924 R  93,8   0,5   0:17.95 ocsr-desktop                                                                                                 (B[m[39;49m[K
(B[m[1m 1670 debatin   20   0  611736  87696  48924 R 100,0   0,5   0:18.62 ocsr-desktop                                                                                                 (B[m[39;49m[K
(B[m[1m 1670 debatin   20   0  611736  87696  48924 R 106,7   0,5   0:19.28 ocsr-desktop                                                                                                 (B[m[39;49m[K
(B[m[1m 1670 debatin   20   0  611736  87696  48924 R 100,0   0,5   0:19.93 ocsr-desktop                                                                                                 (B[m[39;49m[K
(B[m[1m 1670 debatin   20   0  611736  87696  48924 R  93,8   0,5   0:20.60 ocsr-desktop                                                                                                 (B[m[39;49m[K
(B[m[1m 1670 debatin   20   0  611736  87696  48924 R 100,0   0,5   0:21.26 ocsr-desktop                                                                                                 (B[m[39;49m[K
(B[m[1m 1670 debatin   20   0  611736  87696  48924 R 100,0   0,5   0:21.92 ocsr-desktop                                                                                                 (B[m[39;49m[K
(B[m[1m 1670 debatin   20   0  611736  87696  48924 R 106,7   0,5   0:22.59 ocsr-desktop                                                                                                 (B[m[39;49m[K
(B[m[1m 1670 debatin   20   0  611736  87696  48924 R  93,8   0,5   0:23.24 ocsr-desktop                                                                                                 (B[m[39;49m[K
(B[m[1m 1670 debatin   20   0  611736  87696  48924 R 100,0   0,5   0:23.91 ocsr-desktop                                                                                                 (B[m[39;49m[K
(B[m[1m 1670 debatin   20   0  611736  87696  48924 R 100,0   0,5   0:24.57 ocsr-desktop                                                                                                 (B[m[39;49m[K
(B[m[1m 1670 debatin   20   0  611736  87696  48924 R 106,7   0,5   0:25.23 ocsr-desktop                                                                                                 (B[m[39;49m[K
(B[m[1m 1670 debatin   20   0  611736  87696  48924 R  93,8   0,5   0:25.89 ocsr-desktop                                                                                                 (B[m[39;49m[K
(B[m[1m 1670 debatin   20   0  611736  87696  48924 R 100,0   0,5   0:26.56 ocsr-desktop                                                                                                 (B[m[39;49m[K
(B[m[1m 1670 debatin   20   0  611736  87696  48924 R 100,0   0,5   0:27.22 ocsr-desktop                                                                                                 (B[m[39;49m[K
(B[m[1m 1670 debatin   20   0  611736  87696  48924 R  93,8   0,5   0:27.88 ocsr-desktop                                                                                                 (B[m[39;49m[K
(B[m[1m 1670 debatin   20   0  611736  87696  48924 R 100,0   0,5   0:28.55 ocsr-desktop                                                                                                 (B[m[39;49m[K
(B[m[1m 1670 debatin   20   0  611736  87696  48924 R 100,0   0,5   0:29.20 ocsr-desktop                                                                                                 (B[m[39;49m[K
(B[m[1m 1670 debatin   20   0  611736  87696  48924 R 100,0   0,5   0:29.87 ocsr-desktop                                                                                                 (B[m[39;49m[K
(B[m[1m 1670 debatin   20   0  611736  87696  48924 R  93,8   0,5   0:30.53 ocsr-desktop                                                                                                 (B[m[39;49m[K
(B[m[1m 1670 debatin   20   0  611736  87696  48924 R 106,7   0,5   0:31.20 ocsr-desktop                                                                                                 (B[m[39;49m[K
(B[m[1m 1670 debatin   20   0  611736  87696  48924 R 106,7   0,5   0:31.86 ocsr-desktop                                                                                                 (B[m[39;49m[K
(B[m[1m 1670 debatin   20   0  611736  87696  48924 R 100,0   0,5   0:32.53 ocsr-desktop                                                                                                 (B[m[39;49m[K
(B[m[1m 1670 debatin   20   0  611736  87696  48924 R 106,7   0,5   0:33.19 ocsr-desktop                                                                                                 (B[m[39;49m[K
(B[m[1m 1670 debatin   20   0  611736  87696  48924 R  93,3   0,5   0:33.84 ocsr-desktop                                                                                                 (B[m[39;49m[K
(B[m[1m 1670 debatin   20   0  611736  87696  48924 R  93,8   0,5   0:34.50 ocsr-desktop                                                                                                 (B[m[39;49m[K
(B[m[1m 1670 debatin   20   0  611736  87696  48924 R 100,0   0,5   0:35.17 ocsr-desktop                                                                                                 (B[m[39;49m[K
(B[m[1m 1670 debatin   20   0  611736  87696  48924 R 100,0   0,5   0:35.84 ocsr-desktop                                                                                                 (B[m[39;49m[K
(B[m[1m 1670 debatin   20   0  611736  87696  48924 R  93,8   0,5   0:36.50 ocsr-desktop                                                                                                 (B[m[39;49m[K
(B[m[1m 1670 debatin   20   0  611736  87696  48924 R  93,8   0,5   0:37.16 ocsr-desktop                                                                                                 (B[m[39;49m[K
(B[m[1m 1670 debatin   20   0  611736  87696  48924 R 100,0   0,5   0:37.82 ocsr-desktop                                                                                                 (B[m[39;49m[K
(B[m[1m 1670 debatin   20   0  611736  87696  48924 R 100,0   0,5   0:38.48 ocsr-desktop                                                                                                 (B[m[39;49m[K
(B[m[1m 1670 debatin   20   0  611736  87696  48924 R 100,0   0,5   0:39.14 ocsr-desktop                                                                                                 (B[m[39;49m[K
(B[m[1m 1670 debatin   20   0  611736  87696  48924 R  93,8   0,5   0:39.81 ocsr-desktop                                                                                                 (B[m[39;49m[K
(B[m[1m 1670 debatin   20   0  611736  87696  48924 R 100,0   0,5   0:40.47 ocsr-desktop                                                                                                 (B[m[39;49m[K
(B[m[1m 1670 debatin   20   0  611736  87696  48924 R 100,0   0,5   0:41.13 ocsr-desktop                                                                                                 (B[m[39;49m[K
(B[m[1m 1670 debatin   20   0  611736  87696  48924 R 100,0   0,5   0:41.79 ocsr-desktop                                                                                                 (B[m[39;49m[K
(B[m[1m 1670 debatin   20   0  611736  87696  48924 R  93,8   0,5   0:42.46 ocsr-desktop                                                                                                 (B[m[39;49m[K
(B[m[1m 1670 debatin   20   0  611736  87696  48924 R 106,7   0,5   0:43.12 ocsr-desktop                                                                                                 (B[m[39;49m[K
(B[m[1m 1670 debatin   20   0  611736  87696  48924 R 100,0   0,5   0:43.78 ocsr-desktop                                                                                                 (B[m[39;49m[K
(B[m[1m 1670 debatin   20   0  611736  87696  48924 R  93,8   0,5   0:44.44 ocsr-desktop                                                                                                 (B[m[39;49m[K
(B[m[1m 1670 debatin   20   0  611736  87696  48924 R  93,8   0,5   0:45.10 ocsr-desktop                                                                                                 (B[m[39;49m[K
(B[m[1m 1670 debatin   20   0  611736  87696  48924 R 100,0   0,5   0:45.77 ocsr-desktop                                                                                                 (B[m[39;49m[K
(B[m[1m 1670 debatin   20   0  611736  87696  48924 R 100,0   0,5   0:46.43 ocsr-desktop                                                                                                 (B[m[39;49m[K
(B[m[1m 1670 debatin   20   0  611736  87696  48924 R  93,8   0,5   0:47.09 ocsr-desktop                                                                                                 (B[m[39;49m[K
(B[m[1m 1670 debatin   20   0  611736  87696  48924 R  93,8   0,5   0:47.75 ocsr-desktop                                                                                                 (B[m[39;49m[K
(B[m[1m 1670 debatin   20   0  611736  87696  48924 R 100,0   0,5   0:48.41 ocsr-desktop                                                                                                 (B[m[39;49m[K
(B[m[1m 1670 debatin   20   0  611736  87696  48924 R  93,8   0,5   0:49.07 ocsr-desktop                                                                                                 (B[m[39;49m[K
(B[m[1m 1670 debatin   20   0  611736  87696  48924 R  93,8   0,5   0:49.74 ocsr-desktop                                                                                                 (B[m[39;49m[K
(B[m[1m 1670 debatin   20   0  611736  87696  48924 R 100,0   0,5   0:50.40 ocsr-desktop                                                                                                 (B[m[39;49m[K
(B[m[1m 1670 debatin   20   0  611736  87696  48924 R 100,0   0,5   0:51.07 ocsr-desktop                                                                                                 (B[m[39;49m[K
(B[m[1m 1670 debatin   20   0  611736  87696  48924 R 100,0   0,5   0:51.73 ocsr-desktop                                                                                                 (B[m[39;49m[K
(B[m[1m 1670 debatin   20   0  611736  87696  48924 R 100,0   0,5   0:52.39 ocsr-desktop                                                                                                 (B[m[39;49m[K
(B[m[1m 1670 debatin   20   0  611736  87696  48924 R 100,0   0,5   0:53.05 ocsr-desktop                                                                                                 (B[m[39;49m[K
(B[m[1m 1670 debatin   20   0  611736  87696  48924 R  87,5   0,5   0:53.71 ocsr-desktop                                                                                                 (B[m[39;49m[K
(B[m[1m 1670 debatin   20   0  611736  87696  48924 R  93,8   0,5   0:54.37 ocsr-desktop                                                                                                 (B[m[39;49m[K
(B[m[1m 1670 debatin   20   0  611736  87696  48924 R 106,7   0,5   0:55.04 ocsr-desktop                                                                                                 (B[m[39;49m[K
(B[m[1m 1670 debatin   20   0  611736  87696  48924 R 106,7   0,5   0:55.70 ocsr-desktop                                                                                                 (B[m[39;49m[K
(B[m[1m 1670 debatin   20   0  611736  87696  48924 R 100,0   0,5   0:56.36 ocsr-desktop                                                                                                 (B[m[39;49m[K
(B[m[1m 1670 debatin   20   0  611736  87696  48924 R 106,7   0,5   0:57.03 ocsr-desktop                                                                                                 (B[m[39;49m[K
(B[m[1m 1670 debatin   20   0  611736  87696  48924 R 106,7   0,5   0:57.69 ocsr-desktop                                                                                                 (B[m[39;49m[K
(B[m[1m 1670 debatin   20   0  611736  87696  48924 R  93,8   0,5   0:58.35 ocsr-desktop                                                                                                 (B[m[39;49m[K
(B[m[1m 1670 debatin   20   0  611736  87696  48924 R 100,0   0,5   0:59.01 ocsr-desktop                                                                                                 (B[m[39;49m[K
(B[m[1m 1670 debatin   20   0  611736  87696  48924 R 100,0   0,5   0:59.67 ocsr-desktop                                                                                                 (B[m[39;49m[K
(B[m[1m 1670 debatin   20   0  611736  87696  48924 R 100,0   0,5   1:00.33 ocsr-desktop                                                                                                 (B[m[39;49m[K
(B[m[1m 1670 debatin   20   0  611736  87696  48924 R  93,8   0,5   1:01.00 ocsr-desktop                                                                                                 (B[m[39;49m[K
(B[m[1m 1670 debatin   20   0  611736  87696  48924 R 106,7   0,5   1:01.66 ocsr-desktop                                                                                                 (B[m[39;49m[K
(B[m[1m 1670 debatin   20   0  611736  87696  48924 R 106,7   0,5   1:02.32 ocsr-desktop                                                                                                 (B[m[39;49m[K
(B[m[1m 1670 debatin   20   0  611736  87696  48924 R 100,0   0,5   1:02.99 ocsr-desktop                                                                                                 (B[m[39;49m[K
(B[m[1m 1670 debatin   20   0  611736  87696  48924 R  93,8   0,5   1:03.64 ocsr-desktop                                                                                                 (B[m[39;49m[K
(B[m[1m 1670 debatin   20   0  611736  87696  48924 R 100,0   0,5   1:04.31 ocsr-desktop                                                                                                 (B[m[39;49m[K
(B[m[1m 1670 debatin   20   0  611736  87696  48924 R  93,8   0,5   1:04.97 ocsr-desktop                                                                                                 (B[m[39;49m[K
(B[m[1m 1670 debatin   20   0  611736  87696  48924 R 100,0   0,5   1:05.63 ocsr-desktop                                                                                                 (B[m[39;49m[K
(B[m[1m 1670 debatin   20   0  611736  87696  48924 R 106,7   0,5   1:06.30 ocsr-desktop                                                                                                 (B[m[39;49m[K
(B[m[1m 1670 debatin   20   0  611736  87696  48924 R 100,0   0,5   1:06.95 ocsr-desktop                                                                                                 (B[m[39;49m[K
(B[m[1m 1670 debatin   20   0  611736  87696  48924 R 100,0   0,5   1:07.62 ocsr-desktop                                                                                                 (B[m[39;49m[K
(B[m[1m 1670 debatin   20   0  611736  87696  48924 R 100,0   0,5   1:08.28 ocsr-desktop                                                                                                 (B[m[39;49m[K
(B[m[1m 1670 debatin   20   0  611736  87696  48924 R  93,8   0,5   1:08.94 ocsr-desktop                                                                                                 (B[m[39;49m[K
(B[m[1m 1670 debatin   20   0  611736  87696  48924 R 106,7   0,5   1:09.61 ocsr-desktop                                                                                                 (B[m[39;49m[K
(B[m[1m 1670 debatin   20   0  611736  87696  48924 R 106,7   0,5   1:10.27 ocsr-desktop                                                                                                 (B[m[39;49m[K
(B[m[1m 1670 debatin   20   0  611736  87696  48924 R  93,8   0,5   1:10.93 ocsr-desktop                                                                                                 (B[m[39;49m[K
(B[m[1m 1670 debatin   20   0  611736  87696  48924 R 100,0   0,5   1:11.59 ocsr-desktop                                                                                                 (B[m[39;49m[K
(B[m[1m 1670 debatin   20   0  611736  87696  48924 R 100,0   0,5   1:12.26 ocsr-desktop                                                                                                 (B[m[39;49m[K
(B[m[1m 1670 debatin   20   0  611736  87696  48924 R 100,0   0,5   1:12.92 ocsr-desktop                                                                                                 (B[m[39;49m[K
(B[m[1m 1670 debatin   20   0  611736  87696  48924 R 106,7   0,5   1:13.58 ocsr-desktop                                                                                                 (B[m[39;49m[K
(B[m[1m 1670 debatin   20   0  611736  87696  48924 R 100,0   0,5   1:14.24 ocsr-desktop                                                                                                 (B[m[39;49m[K
(B[m[1m 1670 debatin   20   0  611736  87696  48924 R  93,3   0,5   1:14.90 ocsr-desktop                                                                                                 (B[m[39;49m[K
(B[m[1m 1670 debatin   20   0  611736  87696  48924 R 100,0   0,5   1:15.56 ocsr-desktop                                                                                                 (B[m[39;49m[K
(B[m[1m 1670 debatin   20   0  611736  87696  48924 R 100,0   0,5   1:16.22 ocsr-desktop                                                                                                 (B[m[39;49m[K
(B[m[1m 1670 debatin   20   0  611736  87696  48924 R  93,8   0,5   1:16.88 ocsr-desktop                                                                                                 (B[m[39;49m[K
(B[m[1m 1670 debatin   20   0  611736  87696  48924 R  93,8   0,5   1:17.55 ocsr-desktop                                                                                                 (B[m[39;49m[K
(B[m[1m 1670 debatin   20   0  611736  87696  48924 R 100,0   0,5   1:18.21 ocsr-desktop                                                                                                 (B[m[39;49m[K
(B[m[1m 1670 debatin   20   0  611736  87696  48924 R 100,0   0,5   1:18.87 ocsr-desktop                                                                                                 (B[m[39;49m[K
(B[m[1m 1670 debatin   20   0  611736  87696  48924 R  93,8   0,5   1:19.53 ocsr-desktop                                                                                                 (B[m[39;49m[K
(B[m[1m 1670 debatin   20   0  611736  87696  48924 R  93,8   0,5   1:20.19 ocsr-desktop                                                                                                 (B[m[39;49m[K
(B[m[1m 1670 debatin   20   0  611736  87696  48924 R 100,0   0,5   1:20.86 ocsr-desktop                                                                                                 (B[m[39;49m[K
(B[m[1m 1670 debatin   20   0  611736  87696  48924 R 100,0   0,5   1:21.52 ocsr-desktop                                                                                                 (B[m[39;49m[K
(B[m[1m 1670 debatin   20   0  611736  87696  48924 R  93,8   0,5   1:22.18 ocsr-desktop                                                                                                 (B[m[39;49m[K
(B[m[1m 1670 debatin   20   0  611736  87696  48924 R  93,8   0,5   1:22.85 ocsr-desktop                                                                                                 (B[m[39;49m[K
(B[m[1m 1670 debatin   20   0  611736  87696  48924 R 100,0   0,5   1:23.51 ocsr-desktop                                                                                                 (B[m[39;49m[K
(B[m[1m 1670 debatin   20   0  611736  87696  48924 R 100,0   0,5   1:24.17 ocsr-desktop                                                                                                 (B[m[39;49m[K
(B[m[1m 1670 debatin   20   0  611736  87696  48924 R  93,8   0,5   1:24.83 ocsr-desktop                                                                                                 (B[m[39;49m[K
(B[m[1m 1670 debatin   20   0  611736  87696  48924 R 100,0   0,5   1:25.49 ocsr-desktop                                                                                                 (B[m[39;49m[K
(B[m[1m 1670 debatin   20   0  611736  87696  48924 R 100,0   0,5   1:26.16 ocsr-desktop                                                                                                 (B[m[39;49m[K
(B[m[1m 1670 debatin   20   0  611736  87696  48924 R  93,8   0,5   1:26.82 ocsr-desktop                                                                                                 (B[m[39;49m[K
(B[m[1m 1670 debatin   20   0  611736  87696  48924 R  93,8   0,5   1:27.48 ocsr-desktop                                                                                                 (B[m[39;49m[K
(B[m[1m 1670 debatin   20   0  611736  87696  48924 R 106,7   0,5   1:28.15 ocsr-desktop                                                                                                 (B[m[39;49m[K
(B[m[1m 1670 debatin   20   0  611736  87696  48924 R 100,0   0,5   1:28.81 ocsr-desktop                                                                                                 (B[m[39;49m[K
(B[m[1m 1670 debatin   20   0  611736  87696  48924 R 100,0   0,5   1:29.47 ocsr-desktop                                                                                                 (B[m[39;49m[K
(B[m[1m 1670 debatin   20   0  611736  87696  48924 R 100,0   0,5   1:30.14 ocsr-desktop                                                                                                 (B[m[39;49m[K
(B[m[1m 1670 debatin   20   0  611736  87696  48924 R 106,7   0,5   1:30.80 ocsr-desktop                                                                                                 (B[m[39;49m[K
(B[m[1m 1670 debatin   20   0  611736  87696  48924 R 106,7   0,5   1:31.46 ocsr-desktop                                                                                                 (B[m[39;49m[K
(B[m[1m 1670 debatin   20   0  611736  87696  48924 R  93,8   0,5   1:32.11 ocsr-desktop                                                                                                 (B[m[39;49m[K
(B[m[1m 1670 debatin   20   0  611736  87696  48924 R  93,8   0,5   1:32.78 ocsr-desktop                                                                                                 (B[m[39;49m[K
(B[m[1m 1670 debatin   20   0  611736  87696  48924 R 106,7   0,5   1:33.44 ocsr-desktop                                                                                                 (B[m[39;49m[K
(B[m[1m 1670 debatin   20   0  611736  87696  48924 R 100,0   0,5   1:34.10 ocsr-desktop                                                                                                 (B[m[39;49m[K
(B[m[1m 1670 debatin   20   0  611736  87696  48924 R  93,8   0,5   1:34.76 ocsr-desktop                                                                                                 (B[m[39;49m[K
(B[m[1m 1670 debatin   20   0  611736  87696  48924 R  93,8   0,5   1:35.43 ocsr-desktop                                                                                                 (B[m[39;49m[K
(B[m[1m 1670 debatin   20   0  611736  87696  48924 R 100,0   0,5   1:36.09 ocsr-desktop                                                                                                 (B[m[39;49m[K
(B[m[1m 1670 debatin   20   0  611736  87696  48924 R 100,0   0,5   1:36.75 ocsr-desktop                                                                                                 (B[m[39;49m[K
(B[m[1m 1670 debatin   20   0  611736  87696  48924 R  93,8   0,5   1:37.41 ocsr-desktop                                                                                                 (B[m[39;49m[K
(B[m[1m 1670 debatin   20   0  611736  87696  48924 R 100,0   0,5   1:38.07 ocsr-desktop                                                                                                 (B[m[39;49m[K
(B[m[1m 1670 debatin   20   0  611736  87696  48924 R 100,0   0,5   1:38.74 ocsr-desktop                                                                                                 (B[m[39;49m[K
(B[m[1m 1670 debatin   20   0  611736  87696  48924 R 100,0   0,5   1:39.40 ocsr-desktop                                                                                                 (B[m[39;49m[K
(B[m[1m 1670 debatin   20   0  611736  87696  48924 R 100,0   0,5   1:40.06 ocsr-desktop                                                                                                 (B[m[39;49m[K
(B[m[1m 1670 debatin   20   0  611736  87696  48924 R  93,8   0,5   1:40.72 ocsr-desktop                                                                                                 (B[m[39;49m[K
(B[m[1m 1670 debatin   20   0  611736  87696  48924 R 100,0   0,5   1:41.39 ocsr-desktop                                                                                                 (B[m[39;49m[K
(B[m[1m 1670 debatin   20   0  611736  87696  48924 R 100,0   0,5   1:42.05 ocsr-desktop                                                                                                 (B[m[39;49m[K
(B[m[1m 1670 debatin   20   0  611736  87696  48924 R  93,8   0,5   1:42.70 ocsr-desktop                                                                                                 (B[m[39;49m[K
(B[m[1m 1670 debatin   20   0  611736  87696  48924 R 106,7   0,5   1:43.38 ocsr-desktop                                                                                                 (B[m[39;49m[K
(B[m[1m 1670 debatin   20   0  611736  87696  48924 R 106,7   0,5   1:44.04 ocsr-desktop                                                                                                 (B[m[39;49m[K
(B[m[1m 1670 debatin   20   0  611736  87696  48924 R 106,7   0,5   1:44.70 ocsr-desktop                                                                                                 (B[m[39;49m[K
(B[m[1m 1670 debatin   20   0  611736  87696  48924 R  93,8   0,5   1:45.36 ocsr-desktop                                                                                                 (B[m[39;49m[K
(B[m[1m 1670 debatin   20   0  611736  87696  48924 R 100,0   0,5   1:46.02 ocsr-desktop                                                                                                 (B[m[39;49m[K
(B[m[1m 1670 debatin   20   0  611736  87696  48924 R 100,0   0,5   1:46.68 ocsr-desktop                                                                                                 (B[m[39;49m[K
(B[m[1m 1670 debatin   20   0  611736  87696  48924 R 100,0   0,5   1:47.34 ocsr-desktop                                                                                                 (B[m[39;49m[K
(B[m[1m 1670 debatin   20   0  611736  87696  48924 R 100,0   0,5   1:48.01 ocsr-desktop                                                                                                 (B[m[39;49m[K
(B[m[1m 1670 debatin   20   0  611736  87696  48924 R 100,0   0,5   1:48.67 ocsr-desktop                                                                                                 (B[m[39;49m[K
(B[m[1m 1670 debatin   20   0  611736  87696  48924 R 100,0   0,5   1:49.33 ocsr-desktop                                                                                                 (B[m[39;49m[K
(B[m[1m 1670 debatin   20   0  611736  87696  48924 R 106,7   0,5   1:50.00 ocsr-desktop                                                                                                 (B[m[39;49m[K
(B[m[1m 1670 debatin   20   0  611736  87696  48924 R  93,8   0,5   1:50.65 ocsr-desktop                                                                                                 (B[m[39;49m[K
(B[m[1m 1670 debatin   20   0  611736  87696  48924 R 100,0   0,5   1:51.32 ocsr-desktop                                                                                                 (B[m[39;49m[K
(B[m[1m 1670 debatin   20   0  611736  87696  48924 R 106,7   0,5   1:51.98 ocsr-desktop                                                                                                 (B[m[39;49m[K
(B[m[1m 1670 debatin   20   0  611736  87696  48924 R 100,0   0,5   1:52.65 ocsr-desktop                                                                                                 (B[m[39;49m[K
(B[m[1m 1670 debatin   20   0  611736  87696  48924 R  93,8   0,5   1:53.30 ocsr-desktop                                                                                                 (B[m[39;49m[K
(B[m[1m 1670 debatin   20   0  611736  87696  48924 R 100,0   0,5   1:53.96 ocsr-desktop                                                                                                 (B[m[39;49m[K
(B[m[1m 1670 debatin   20   0  611736  87696  48924 R 106,7   0,5   1:54.63 ocsr-desktop                                                                                                 (B[m[39;49m[K
(B[m[1m 1670 debatin   20   0  611736  87696  48924 R 106,7   0,5   1:55.30 ocsr-desktop                                                                                                 (B[m[39;49m[K
(B[m[1m 1670 debatin   20   0  611736  87696  48924 R  93,8   0,5   1:55.95 ocsr-desktop                                                                                                 (B[m[39;49m[K
(B[m[1m 1670 debatin   20   0  611736  87696  48924 R 100,0   0,5   1:56.61 ocsr-desktop                                                                                                 (B[m[39;49m[K
(B[m[1m 1670 debatin   20   0  611736  87696  48924 R 100,0   0,5   1:57.27 ocsr-desktop                                                                                                 (B[m[39;49m[K
(B[m[1m 1670 debatin   20   0  611736  87696  48924 R 100,0   0,5   1:57.94 ocsr-desktop                                                                                                 (B[m[39;49m[K
(B[m[1m 1670 debatin   20   0  611736  87696  48924 R  93,8   0,5   1:58.60 ocsr-desktop                                                                                                 (B[m[39;49m[K
(B[m[1m 1670 debatin   20   0  611736  87696  48924 R 106,7   0,5   1:59.26 ocsr-desktop                                                                                                 (B[m[39;49m[K
(B[m[1m 1670 debatin   20   0  611736  87696  48924 R 106,7   0,5   1:59.93 ocsr-desktop                                                                                                 (B[m[39;49m[K
(B[m[1m 1670 debatin   20   0  611736  87696  48924 R 100,0   0,5   2:00.59 ocsr-desktop                                                                                                 (B[m[39;49m[K
(B[m[1m 1670 debatin   20   0  611736  87696  48924 R 100,0   0,5   2:01.25 ocsr-desktop                                                                                                 (B[m[39;49m[K
(B[m[1m 1670 debatin   20   0  611736  87696  48924 R 100,0   0,5   2:01.91 ocsr-desktop                                                                                                 (B[m[39;49m[K
(B[m[1m 1670 debatin   20   0  611736  87696  48924 R 100,0   0,5   2:02.57 ocsr-desktop                                                                                                 (B[m[39;49m[K
(B[m[1m 1670 debatin   20   0  611736  87696  48924 R 100,0   0,5   2:03.24 ocsr-desktop                                                                                                 (B[m[39;49m[K
(B[m[1m 1670 debatin   20   0  611736  87696  48924 R 100,0   0,5   2:03.90 ocsr-desktop                                                                                                 (B[m[39;49m[K
(B[m[1m 1670 debatin   20   0  611736  87696  48924 R 100,0   0,5   2:04.56 ocsr-desktop                                                                                                 (B[m[39;49m[K
(B[m[1m 1670 debatin   20   0  611736  87696  48924 R 100,0   0,5   2:05.22 ocsr-desktop                                                                                                 (B[m[39;49m[K
(B[m[1m 1670 debatin   20   0  611736  87696  48924 R 100,0   0,5   2:05.88 ocsr-desktop                                                                                                 (B[m[39;49m[K
(B[m[1m 1670 debatin   20   0  611736  87696  48924 R  93,8   0,5   2:06.55 ocsr-desktop                                                                                                 (B[m[39;49m[K
(B[m[1m 1670 debatin   20   0  611736  87696  48924 R 100,0   0,5   2:07.21 ocsr-desktop                                                                                                 (B[m[39;49m[K
(B[m[1m 1670 debatin   20   0  611736  87696  48924 R 100,0   0,5   2:07.87 ocsr-desktop                                                                                                 (B[m[39;49m[K
(B[m[1m 1670 debatin   20   0  611736  87696  48924 R 100,0   0,5   2:08.53 ocsr-desktop                                                                                                 (B[m[39;49m[K
(B[m[1m 1670 debatin   20   0  611736  87696  48924 R  93,8   0,5   2:09.19 ocsr-desktop                                                                                                 (B[m[39;49m[K
(B[m[1m 1670 debatin   20   0  611736  87696  48924 R 100,0   0,5   2:09.86 ocsr-desktop                                                                                                 (B[m[39;49m[K
(B[m[1m 1670 debatin   20   0  611736  87696  48924 R 100,0   0,5   2:10.52 ocsr-desktop                                                                                                 (B[m[39;49m[K
(B[m[1m 1670 debatin   20   0  611736  87696  48924 R 100,0   0,5   2:11.18 ocsr-desktop                                                                                                 (B[m[39;49m[K
(B[m[1m 1670 debatin   20   0  611736  87696  48924 R  93,8   0,5   2:11.84 ocsr-desktop                                                                                                 (B[m[39;49m[K
(B[m[1m 1670 debatin   20   0  611736  87696  48924 R 100,0   0,5   2:12.50 ocsr-desktop                                                                                                 (B[m[39;49m[K
(B[m[1m 1670 debatin   20   0  611736  87696  48924 R 106,7   0,5   2:13.17 ocsr-desktop                                                                                                 (B[m[39;49m[K
(B[m[1m 1670 debatin   20   0  611736  87696  48924 R 106,7   0,5   2:13.84 ocsr-desktop                                                                                                 (B[m[39;49m[K
(B[m[1m 1670 debatin   20   0  611736  87696  48924 R  93,8   0,5   2:14.50 ocsr-desktop                                                                                                 (B[m[39;49m[K
(B[m[1m 1670 debatin   20   0  611736  87696  48924 R 100,0   0,5   2:15.16 ocsr-desktop                                                                                                 (B[m[39;49m[K
(B[m[1m 1670 debatin   20   0  611736  87696  48924 R 100,0   0,5   2:15.82 ocsr-desktop                                                                                                 (B[m[39;49m[K
(B[m[1m 1670 debatin   20   0  611736  87696  48924 R 100,0   0,5   2:16.48 ocsr-desktop                                                                                                 (B[m[39;49m[K
(B[m[1m 1670 debatin   20   0  611736  87696  48924 R  93,8   0,5   2:17.14 ocsr-desktop                                                                                                 (B[m[39;49m[K
(B[m[1m 1670 debatin   20   0  611736  87696  48924 R  93,8   0,5   2:17.80 ocsr-desktop                                                                                                 (B[m[39;49m[K
(B[m[1m 1670 debatin   20   0  611736  87696  48924 R 100,0   0,5   2:18.46 ocsr-desktop                                                                                                 (B[m[39;49m[K
(B[m[1m 1670 debatin   20   0  611736  87696  48924 R 100,0   0,5   2:19.12 ocsr-desktop                                                                                                 (B[m[39;49m[K
(B[m[1m 1670 debatin   20   0  611736  87696  48924 R  93,8   0,5   2:19.79 ocsr-desktop                                                                                                 (B[m[39;49m[K
(B[m[1m 1670 debatin   20   0  611736  87696  48924 R 106,7   0,5   2:20.46 ocsr-desktop                                                                                                 (B[m[39;49m[K
(B[m[1m 1670 debatin   20   0  611736  87696  48924 R 100,0   0,5   2:21.11 ocsr-desktop                                                                                                 (B[m[39;49m[K
(B[m[1m 1670 debatin   20   0  611736  87696  48924 R 100,0   0,5   2:21.78 ocsr-desktop                                                                                                 (B[m[39;49m[K
(B[m[1m 1670 debatin   20   0  611736  87696  48924 R 100,0   0,5   2:22.44 ocsr-desktop                                                                                                 (B[m[39;49m[K
(B[m[1m 1670 debatin   20   0  611736  87696  48924 R 106,7   0,5   2:23.11 ocsr-desktop                                                                                                 (B[m[39;49m[K
(B[m[1m 1670 debatin   20   0  611736  87696  48924 R 106,7   0,5   2:23.77 ocsr-desktop                                                                                                 (B[m[39;49m[K
(B[m[1m 1670 debatin   20   0  611736  87696  48924 R  93,8   0,5   2:24.42 ocsr-desktop                                                                                                 (B[m[39;49m[K
(B[m[1m 1670 debatin   20   0  611736  87696  48924 R 100,0   0,5   2:25.09 ocsr-desktop                                                                                                 (B[m[39;49m[K
(B[m[1m 1670 debatin   20   0  611736  87696  48924 R 100,0   0,5   2:25.75 ocsr-desktop                                                                                                 (B[m[39;49m[K
(B[m[1m 1670 debatin   20   0  611736  87696  48924 R 100,0   0,5   2:26.41 ocsr-desktop                                                                                                 (B[m[39;49m[K
(B[m[1m 1670 debatin   20   0  611736  87696  48924 R 100,0   0,5   2:27.07 ocsr-desktop                                                                                                 (B[m[39;49m[K
(B[m[1m 1670 debatin   20   0  611736  87696  48924 R 100,0   0,5   2:27.74 ocsr-desktop                                                                                                 (B[m[39;49m[K
(B[m[1m 1670 debatin   20   0  611736  87696  48924 R 100,0   0,5   2:28.40 ocsr-desktop                                                                                                 (B[m[39;49m[K
(B[m[1m 1670 debatin   20   0  611736  87696  48924 R 100,0   0,5   2:29.05 ocsr-desktop                                                                                                 (B[m[39;49m[K
(B[m[1m 1670 debatin   20   0  611736  87696  48924 R 100,0   0,5   2:29.71 ocsr-desktop                                                                                                 (B[m[39;49m[K
(B[m[1m 1670 debatin   20   0  611736  87696  48924 R 100,0   0,5   2:30.38 ocsr-desktop                                                                                                 (B[m[39;49m[K
(B[m[1m 1670 debatin   20   0  611736  87696  48924 R  93,8   0,5   2:31.04 ocsr-desktop                                                                                                 (B[m[39;49m[K
(B[m[1m 1670 debatin   20   0  611736  87696  48924 R 100,0   0,5   2:31.70 ocsr-desktop                                                                                                 (B[m[39;49m[K
(B[m[1m 1670 debatin   20   0  611736  87696  48924 R 100,0   0,5   2:32.36 ocsr-desktop                                                                                                 (B[m[39;49m[K
(B[m[1m 1670 debatin   20   0  611736  87696  48924 R 100,0   0,5   2:33.03 ocsr-desktop                                                                                                 (B[m[39;49m[K
(B[m[1m 1670 debatin   20   0  611736  87696  48924 R  93,8   0,5   2:33.68 ocsr-desktop                                                                                                 (B[m[39;49m[K
(B[m[1m 1670 debatin   20   0  611736  87696  48924 R 100,0   0,5   2:34.35 ocsr-desktop                                                                                                 (B[m[39;49m[K
(B[m[1m 1670 debatin   20   0  611736  87696  48924 R 100,0   0,5   2:35.01 ocsr-desktop                                                                                                 (B[m[39;49m[K
(B[m[1m 1670 debatin   20   0  611736  87696  48924 R 100,0   0,5   2:35.67 ocsr-desktop                                                                                                 (B[m[39;49m[K
(B[m[1m 1670 debatin   20   0  611736  87696  48924 R  93,8   0,5   2:36.33 ocsr-desktop                                                                                                 (B[m[39;49m[K
(B[m[1m 1670 debatin   20   0  611736  87696  48924 R 106,7   0,5   2:37.00 ocsr-desktop                                                                                                 (B[m[39;49m[K
(B[m[1m 1670 debatin   20   0  611736  87696  48924 R 106,7   0,5   2:37.66 ocsr-desktop                                                                                                 (B[m[39;49m[K
(B[m[1m 1670 debatin   20   0  611736  87696  48924 R 106,7   0,5   2:38.32 ocsr-desktop                                                                                                 (B[m[39;49m[K
(B[m[1m 1670 debatin   20   0  611736  87696  48924 R  93,8   0,5   2:38.98 ocsr-desktop                                                                                                 (B[m[39;49m[K
(B[m[1m 1670 debatin   20   0  611736  87696  48924 R 100,0   0,5   2:39.64 ocsr-desktop                                                                                                 (B[m[39;49m[K
(B[m[1m 1670 debatin   20   0  611736  87696  48924 R 100,0   0,5   2:40.30 ocsr-desktop                                                                                                 (B[m[39;49m[K
(B[m[1m 1670 debatin   20   0  611736  87696  48924 R  93,8   0,5   2:40.96 ocsr-desktop                                                                                                 (B[m[39;49m[K
(B[m[1m 1670 debatin   20   0  611736  87696  48924 R  93,8   0,5   2:41.63 ocsr-desktop                                                                                                 (B[m[39;49m[K
(B[m[1m 1670 debatin   20   0  611736  87696  48924 R 100,0   0,5   2:42.29 ocsr-desktop                                                                                                 (B[m[39;49m[K
(B[m[1m 1670 debatin   20   0  611736  87696  48924 R  86,7   0,5   2:42.93 ocsr-desktop                                                                                                 (B[m[39;49m[K
