# lattice-best-path --lm-scale=11 --word-symbol-table=exp/tri3b/graph/words.txt "ark:gunzip -c exp/nnet3/tdnn_sp/decode_test/lat.*.gz|" ark,t:exp/nnet3/tdnn_sp/decode_test/scoring/11.tra 
# Started at Thu Jan 10 18:46:59 -02 2019
#
lattice-best-path --lm-scale=11 --word-symbol-table=exp/tri3b/graph/words.txt 'ark:gunzip -c exp/nnet3/tdnn_sp/decode_test/lat.*.gz|' ark,t:exp/nnet3/tdnn_sp/decode_test/scoring/11.tra 
LOG (lattice-best-path[5.5.23-c81f5]:main():lattice-best-path.cc:99) For utterance ConstituicaoM001_art001a, best cost 4073.47 + -175196 = -171123 over 2755 frames.
ConstituicaoM001_art001a título um um dos princípios fundamentais artigo primeiro a república federativa do brasil formada pela união indissolúvel dos estados e municípios e do distrito federal constitui s se e em estado democrático de direito e tem como fundamentos dois pontos inciso um as soberania inciso dois a cidadania e 
LOG (lattice-best-path[5.5.23-c81f5]:main():lattice-best-path.cc:99) For utterance ConstituicaoM001_art001b, best cost 3931.38 + -170665 = -166733 over 2666 frames.
ConstituicaoM001_art001b inciso três a dignidade da pessoa humana inciso quatro os valores sociais do trabalho e da livre iniciativa inciso cinco o pluralismo político parágrafo único todo o poder emana do por ou for que o exército o meio de representantes eleitos ou diretamente nos termos desta constituição 
LOG (lattice-best-path[5.5.23-c81f5]:main():lattice-best-path.cc:99) For utterance ConstituicaoM001_art002, best cost 2097.26 + -64837.6 = -62740.4 over 962 frames.
ConstituicaoM001_art002 artigo segundo são poderes da união independentes e a m onde c os entre si o legislativo o executivo e um judiciário 
LOG (lattice-best-path[5.5.23-c81f5]:main():lattice-best-path.cc:99) For utterance ConstituicaoM001_art003, best cost 5869.67 + -244231 = -238361 over 3684 frames.
ConstituicaoM001_art003 artigo terceiro constituem objetivos fundamentais da república federativa do brasil dois pontos inciso um construir uma sociedade livre justa e solidária inciso dois garantir o desenvolvimento nacional inciso três erradicar a pobreza e a marginalização e reduzir as desigualdades sociais e regionais inciso quatro promover o bem de todos sem preconceitos de origem l a a sa sete sua cor idade e quaisquer outras formas de discriminação 
LOG (lattice-best-path[5.5.23-c81f5]:main():lattice-best-path.cc:99) For utterance ConstituicaoM001_art004a, best cost 3498.02 + -145169 = -141671 over 2309 frames.
ConstituicaoM001_art004a artigo quarto a república federativa do brasil rege se na suas relações internacionais pelo seguintes princípios inciso um independência nacional inciso dois prevalência dos direitos humanos inciso três a alto determinação dos povos inciso quatro não um intervenção 
LOG (lattice-best-path[5.5.23-c81f5]:main():lattice-best-path.cc:99) For utterance ConstituicaoM001_art004b, best cost 3407.38 + -135014 = -131607 over 2220 frames.
ConstituicaoM001_art004b inciso cinco igualdade entre os estados inciso seis defesa da paz inciso sete solução pacífica dos conflitos inciso oito repúdio ao terrorismo e ao r a cisão no inciso nove cooperação entre os povos para o progresso da humanidade 
LOG (lattice-best-path[5.5.23-c81f5]:main():lattice-best-path.cc:99) For utterance ConstituicaoM001_art004c, best cost 3937.1 + -133142 = -129205 over 1918 frames.
ConstituicaoM001_art004c inciso dez concessão de asilo político parágrafo único a república federativa do brasil dos cada a integração econômica política social e cultural dos povos da médica latina visando à formação de uma comunidade latino m ele r em na de n ações 
LOG (lattice-best-path[5.5.23-c81f5]:main():lattice-best-path.cc:99) For utterance ConstituicaoM001_art005a, best cost 5390.5 + -205294 = -199904 over 2983 frames.
ConstituicaoM001_art005a título dois dos direitos e garantias fundamentais capítulo um dos direitos e deveres individuais e coletivos artigo quinto todo são iguais perante a lei sem distinção de qualquer natureza garantindo se aos brasileiros e aos estrangeiros residentes no país a inviolabilidade do direito à vida ali b etapa ad e à igualdade à segurança e a propriedade nos termo seguintes dois pontos 
LOG (lattice-best-path[5.5.23-c81f5]:main():lattice-best-path.cc:99) For utterance ConstituicaoM001_art005a1, best cost 5151.23 + -173343 = -168192 over 2771 frames.
ConstituicaoM001_art005a1 alínea c de trabalhos forçados ad gm e a d de banimento alínea e cruéis inciso quarenta e oito a pena será cumprida em estabelecimentos distintos de acordo com a natureza do delito a idade e os sete sub o apenado inciso quarenta e nove é assegurado aos presos o respeito à integridade física em moral 
LOG (lattice-best-path[5.5.23-c81f5]:main():lattice-best-path.cc:99) For utterance ConstituicaoM001_art005b, best cost 4798.34 + -180033 = -175234 over 2624 frames.
ConstituicaoM001_art005b artigo alterado pela emenda constitucional número quarenta e cinco de dois mil e quatro inciso um ouro os e mulheres são iguais em direitos e obrigações nos termos desta constituição inciso dois mini e um será obrigado fazer ou deixar de fazer alguma coisa se não em virtude de lei inciso três mini em será submetido a tortura nem a tratamento desumano ou degradante 
LOG (lattice-best-path[5.5.23-c81f5]:main():lattice-best-path.cc:99) For utterance ConstituicaoM001_art005b1, best cost 6049.51 + -235978 = -229929 over 3306 frames.
ConstituicaoM001_art005b1 inciso cinquenta a às presidiárias serão asseguradas condições para que possam permanecer com seus filhos durante o período de amamentação inciso cinquenta e um nenhum brasileiro será extraditado salvo naturalizado em caso de crime comum um praticado antes da naturalização ou de comprovado envolvimento em c a a f e c o ilícito de entorpecentes e drogas afins na forma da lei inciso cinquenta e dois não será concedida extradição de estrangeiro por crime político ou de opinião 
LOG (lattice-best-path[5.5.23-c81f5]:main():lattice-best-path.cc:99) For utterance ConstituicaoM001_art005c, best cost 6099.56 + -219295 = -213196 over 3168 frames.
ConstituicaoM001_art005c inciso quatro é livre a manifestação do pensamento sendo vedado o a m um n e mato inciso cinco e é assegurado direito de resposta proporcional ao agravo além da indenização por dano material moral ou à imagem inciso serra e s é inviolável a liberdade de consciência e de crença sendo assegurado o livre exercício dos cultos religiosos e garantida na forma da lei a proteção aos locais de culto e suas liturgias 
LOG (lattice-best-path[5.5.23-c81f5]:main():lattice-best-path.cc:99) For utterance ConstituicaoM001_art005c1, best cost 5494.97 + -200702 = -195207 over 2894 frames.
ConstituicaoM001_art005c1 inciso cinquenta e três ninguém será processado nem sentenciado se não pela autoridade competente inciso cinquenta e quatro mini em será privado da liberdade ou de seus bens sem o devido processo legal c em se zona cinquenta e cinco aos litigantes em processo judicial ou administrativo e aos acusados em geral são assegurados o contraditório e a ampla defesa com os meios e recursos a ela inerentes 
LOG (lattice-best-path[5.5.23-c81f5]:main():lattice-best-path.cc:99) For utterance ConstituicaoM001_art005d, best cost 5141.4 + -209822 = -204681 over 2897 frames.
ConstituicaoM001_art005d inciso sete e a é assegurada nos termos da lei a prestação de assistência religiosa nas entidade civis e militares de internação coletiva inciso oito mini em será privado de direitos por motivo de crença religiosa ou de convicção filosófica ou política salvo se as invocar para eximir se de obrigação legal a todos imposta e recusar se a cumprir prestação alternativa fixada em lei 
LOG (lattice-best-path[5.5.23-c81f5]:main():lattice-best-path.cc:99) For utterance ConstituicaoM001_art005d1, best cost 4864.07 + -173859 = -168995 over 2563 frames.
ConstituicaoM001_art005d1 inciso cinquenta e seis são inadmissíveis no processo as provas obtidas por meios ilícitos inciso cinquenta e sete ninguém será considerado c o pai do até o transitem julgado de sentença penal condenatória g inciso cinquenta e oito os civil e meio e e identificado não será submetido à identificação criminal salvo nas hipóteses previstas em lei 
LOG (lattice-best-path[5.5.23-c81f5]:main():lattice-best-path.cc:99) For utterance ConstituicaoM001_art005e, best cost 4339.36 + -179132 = -174792 over 2473 frames.
ConstituicaoM001_art005e inciso nove é livre a expressão da atividade intelectual artística científica e de comunicação independentemente de censura ou licença inciso dez são invioláveis a intimidade havida privada a orla e à imagem das pessoas assegurado o direito a indenização pelo da no material ou moral decorrente de sua violação 
LOG (lattice-best-path[5.5.23-c81f5]:main():lattice-best-path.cc:99) For utterance ConstituicaoM001_art005e1, best cost 3947.59 + -144397 = -140449 over 2140 frames.
ConstituicaoM001_art005e1 inciso cinquenta e nove e será admitida ação privada nos crimes de ação pública se é sa no for intentada no prazo legal inciso sessenta e um a lei só poderá restringir a a publicidade dos atos processuais quando a defesa da intimidade ou interesse social o exigirem 
LOG (lattice-best-path[5.5.23-c81f5]:main():lattice-best-path.cc:99) For utterance ConstituicaoM001_art005f, best cost 7799.36 + -258090 = -250291 over 3680 frames.
ConstituicaoM001_art005f inciso onze e à casa é as hino inviolável do em de vida do ninguém em nela podendo penetrar cinco as ente m entre do morador salvo em caso de flagrante delito ou desastre ou para a prestar socorro o ou durante o dia por determinação judicial inciso doze é inviolável se j hino da correspondência e das comunicações telegráficas de dados e das comunicações telefônicas salvo no último caso por ordem judicial nas hipóteses e na forma que a lei estabelecer para fins de investigação criminal ou instrução processual penal 
LOG (lattice-best-path[5.5.23-c81f5]:main():lattice-best-path.cc:99) For utterance ConstituicaoM001_art005f1, best cost 5320.92 + -198594 = -193273 over 2770 frames.
ConstituicaoM001_art005f1 inciso sessenta e um mini em será preso senão em flagrante delito ou por ordem escrita e fundamentada de autoridade judiciária competente salvo nos casos de transgressão militar ou crime propriamente militar definidos em lei inciso sessenta e dois a prisão de qualquer pessoa e o local onde cinco ão trinta serão comunicados imediatamente ao juiz competente e à família do preso ou à pessoa por ele indicada 
LOG (lattice-best-path[5.5.23-c81f5]:main():lattice-best-path.cc:99) For utterance ConstituicaoM001_art005g, best cost 3377.29 + -142212 = -138835 over 2022 frames.
ConstituicaoM001_art005g inciso treze é livre o exercício de qualquer trabalho ofício ou profissão atendidas as qualificações profissionais que a lei estabelecer inciso catorze é assegurado a todos ou acesso à informação e resguardado sigilo da fonte quando necessário ao exercício profissional 
LOG (lattice-best-path[5.5.23-c81f5]:main():lattice-best-path.cc:99) For utterance ConstituicaoM001_art005g1, best cost 4719.5 + -198013 = -193293 over 2712 frames.
ConstituicaoM001_art005g1 inciso sessenta e três o preso será informado de seus direitos entre os quais o de permanecer calado sendo lhe assegurada a assistência da família e de advogado inciso sessenta e quatro o preso tem direito à identificação dos responsáveis por sua prisão ou por seu interrogatório policial inciso sessenta e cinco a prisão ilegal será imediatamente relaxada pela autoridade judiciária 
LOG (lattice-best-path[5.5.23-c81f5]:main():lattice-best-path.cc:99) For utterance ConstituicaoM001_art005h, best cost 2328.13 + -87129 = -84800.9 over 1253 frames.
ConstituicaoM001_art005h inciso quinze é livre a locomoção no território nacional em tempo de paz podendo qualquer pessoa nos termos da lei nele entrar permanecer ou deles a erro o seus bens 
LOG (lattice-best-path[5.5.23-c81f5]:main():lattice-best-path.cc:99) For utterance ConstituicaoM001_art005h1, best cost 4680.09 + -159270 = -154590 over 2296 frames.
ConstituicaoM001_art005h1 inciso sessenta e seis mini em exceder levado à prisão ou nela mantido quando a lei admitir a liberdade provisória com ou sem fiança inciso sessenta e sete não haverá prisão civil por de vida salvo a do responsável pelo inadimplemento voluntário e e inescusável de obrigação alimentícia e a do depositário f e ão 
LOG (lattice-best-path[5.5.23-c81f5]:main():lattice-best-path.cc:99) For utterance ConstituicaoM001_art005i, best cost 4812.04 + -194608 = -189796 over 2704 frames.
ConstituicaoM001_art005i inciso dezesseis todos podem reunir se pacificamente sem armas em locais a der dos ao público independentemente de autorização desde que não frustrem outra reunião anteriormente convocada para o mesmo local sendo a pelas exigido prévia aviso à autoridade competente inciso dezessete é plena liberdade de associação para fins lícitos vedada a ad e caráter paramilitar 
LOG (lattice-best-path[5.5.23-c81f5]:main():lattice-best-path.cc:99) For utterance ConstituicaoM001_art005i1, best cost 6687.08 + -251804 = -245117 over 3391 frames.
ConstituicaoM001_art005i1 inciso sessenta e oito conceder se á habeas corpus sempre que ao em seu f lei la ou se achar ameaçado de sofrer violência ou coação em sua liberdade de locomoção por ilegalidade ou abuso de poder inciso sessenta e nove conceder se á mandado de segurança para a proteger direito líquido s certo não a para a do por habeas corpus ou á habeas data quando o responsável pela ilegalidade ou abuso de poder for autoridade pública ou agente de pessoa jurídica no exercício de atribuições do poder público 
LOG (lattice-best-path[5.5.23-c81f5]:main():lattice-best-path.cc:99) For utterance ConstituicaoM001_art005j, best cost 4740.56 + -175107 = -170367 over 2494 frames.
ConstituicaoM001_art005j inciso dezoito a criação de associações e e na forma da lei a de cooperativas independem de autorização sendo vedada a interferência estatal em seu funcionamento inciso dezenove as associações só poderão ser compulsória m ente de seu vida ou ter suas atividade suspensas por decisão judicial exigindo se no primeiro caso o trânsito em julgado 
LOG (lattice-best-path[5.5.23-c81f5]:main():lattice-best-path.cc:99) For utterance ConstituicaoM001_art005j1, best cost 4103.14 + -172889 = -168786 over 2360 frames.
ConstituicaoM001_art005j1 inciso setenta o mandado de segurança coletivo pode sem inter tratado por dois pontos alínea a partido político com representação no congresso nacional alínea b organização sindical entidade de classe e ou associação legalmente constituída e em funcionamento há há pelo menos um ano em defesa dos interesses de seus membros ou associados 
LOG (lattice-best-path[5.5.23-c81f5]:main():lattice-best-path.cc:99) For utterance ConstituicaoM001_art005k, best cost 4606.88 + -192204 = -187597 over 2846 frames.
ConstituicaoM001_art005k inciso vinte mini em poderá ser compelido a associar se ou a permanecer associado inciso vinte e um um as entidades associativas quando expressamente autorizadas têm legitimidade para a representar seus filiados os judicial ou extrajudicialmente inciso vinte e dois é garantido direito de propriedade inciso vinte e três a propriedade atenderá sua função social 
LOG (lattice-best-path[5.5.23-c81f5]:main():lattice-best-path.cc:99) For utterance ConstituicaoM001_art005k1, best cost 4066 + -159818 = -155752 over 2261 frames.
ConstituicaoM001_art005k1 inciso setenta e um conceder se á n mandado de injunção sempre que a falta de norma regulamentadora torne o f e a afro o exercício dos direitos e liberdades constitucionais e das prerrogativas inerentes à nacionalidade à soberania e à cidadania inciso setenta e dois conceder se á habeas data dois pontos 
LOG (lattice-best-path[5.5.23-c81f5]:main():lattice-best-path.cc:99) For utterance ConstituicaoM001_art005l, best cost 4761.7 + -215358 = -210596 over 2966 frames.
ConstituicaoM001_art005l inciso vinte e quatro a lei estabelecerá o procedimento para desapropriação por necessidade ou utilidade pública ou por interesses social mediante justa e prévia indenização em dinheiro ressalvados os casos previstos nesta constituição inciso vinte e cinco no caso de iminente perigo público autoridade competente poderá os a r de propriedade particular assegurada ao proprietário indenização ulterior se houver dano 
LOG (lattice-best-path[5.5.23-c81f5]:main():lattice-best-path.cc:99) For utterance ConstituicaoM001_art005l1, best cost 3771.59 + -156245 = -152473 over 2130 frames.
ConstituicaoM001_art005l1 alínea a para assegurar o conhecimento de informações relativas à pessoa do impetrante constantes de registros ou bancos de dados de entidades governamentais ou de caráter público alínea b para a retificação de dados quando não se prefira fazê lo por processo sigiloso judicial ou administrativo 
LOG (lattice-best-path[5.5.23-c81f5]:main():lattice-best-path.cc:99) For utterance ConstituicaoM001_art005m, best cost 3506.02 + -128403 = -124897 over 1799 frames.
ConstituicaoM001_art005m inciso vinte e seis a pequena propriedade rural assim definida em lei desde que trabalhada pela família não será objeto de p em ão ora para a pagamento de débitos decorrentes de sua atividade produtiva dispondo a lei sobre os meios de financiar o seu desenvolvimento 
LOG (lattice-best-path[5.5.23-c81f5]:main():lattice-best-path.cc:99) For utterance ConstituicaoM001_art005m1, best cost 4547.64 + -187491 = -182943 over 2477 frames.
ConstituicaoM001_art005m1 inciso setenta e três qualquer cidadão é parte legítima para a propor ação popular que vise a anular ato lesivo ao patrimônio público ou de entidade de que o estado participe à moralidade administrativa a um meio ambiente e ao patrimônio histórico e cultural ficando o autor salvo comprovada má fé isento de custas judiciais e do ônus da sucumbência 
LOG (lattice-best-path[5.5.23-c81f5]:main():lattice-best-path.cc:99) For utterance ConstituicaoM001_art005n, best cost 4968.33 + -209420 = -204452 over 2948 frames.
ConstituicaoM001_art005n inciso vinte e sete aos autores pertence o direito exclusivo de utilização publicação ou reprodução de suas obras transmissível aos herdeiros pelo tempo que a lei fixar inciso vinte e oito são assegurados nos termos da lei dois pontos alínea a a proteção à s participações individuais em obras coletivas e à reprodução da imagem voz humanas inclusive nas atividades desportivas 
LOG (lattice-best-path[5.5.23-c81f5]:main():lattice-best-path.cc:99) For utterance ConstituicaoM001_art005n1, best cost 5681.78 + -219918 = -214236 over 3174 frames.
ConstituicaoM001_art005n1 inciso setenta e quatro o estado prestará assistência jurídica integral e gratuita aos que comprovarem insuficiência de recursos inciso setenta e cinco o estado indenizará o condenado por erro judiciário assim como que ficar preso além do tempo fixado na sentença inciso setenta e seis são gratuito j para os reconhecidamente p obras na forma da lei dois pontos alínea a o registro civil de nascimento alínea b a certidão de óbito 
LOG (lattice-best-path[5.5.23-c81f5]:main():lattice-best-path.cc:99) For utterance ConstituicaoM001_art005o, best cost 2781.94 + -102524 = -99741.6 over 1453 frames.
ConstituicaoM001_art005o alínea b c o direito de fiscalização do o aproveitamento econômico das obras que criarem ou de que participarem aos criadores aos interno etnias e as respectivas representações sindicais e associativas 
LOG (lattice-best-path[5.5.23-c81f5]:main():lattice-best-path.cc:99) For utterance ConstituicaoM001_art005o1, best cost 3872.63 + -166742 = -162870 over 2295 frames.
ConstituicaoM001_art005o1 inciso setenta e sete são gratuitas as ações de habeas corpus e habeas data e na forma da lei os atos necessários ao exercício da cidadania inciso setenta e oito a todos no âmbito judicial e administrativo são assegurados a razoável duração do processo e os meios que garantam a celeridade de sua tramitação 
LOG (lattice-best-path[5.5.23-c81f5]:main():lattice-best-path.cc:99) For utterance ConstituicaoM001_art005p, best cost 5224.25 + -190567 = -185343 over 2703 frames.
ConstituicaoM001_art005p inciso vinte e nove a lei assegurará aos autores de inventos industriais privilégio temporário para sua utilização bem como proteção à s criações industriais à propriedade das marcas aos nomes de empresas e a outros signos de cinco e o vice tendo em vista ou interesses social e o desenvolvimento tecnológico e econômico do país inciso trinta é garantido direito de herança 
LOG (lattice-best-path[5.5.23-c81f5]:main():lattice-best-path.cc:99) For utterance ConstituicaoM001_art005p1, best cost 3705.06 + -170232 = -166527 over 2383 frames.
ConstituicaoM001_art005p1 parágrafo primeiro as normas definidoras dos direitos e garantias fundamentais têm aplicação imediata parágrafo segundo os direitos e garantias expressos nesta constituição não excluem ou outros decorrentes do regime e dos princípios por ela adotados ou dos tratados internacionais em que a república federativa do brasil seja parte 
LOG (lattice-best-path[5.5.23-c81f5]:main():lattice-best-path.cc:99) For utterance ConstituicaoM001_art005q, best cost 4286.68 + -161946 = -157659 over 2235 frames.
ConstituicaoM001_art005q inciso trinta e um a sucessão de bens de estrangeiros situados no país será regulada pela lei brasileira em benefício do cônjuge ou dos filhos brasileiros sempre que não g lhe seja mais favorável a lei e pessoal do de cujos inciso trinta e dois o estado promoverá na forma da lei a defesa do consumidor 
LOG (lattice-best-path[5.5.23-c81f5]:main():lattice-best-path.cc:99) For utterance ConstituicaoM001_art005q1, best cost 4434.77 + -190129 = -185694 over 2551 frames.
ConstituicaoM001_art005q1 parágrafo terceiro os tratados e convenções internacionais sobre direitos humanos que forem aprovados em cada casa do congresso nacional em dois turnos por três quintos dos votos dos respectivos membros serão equivalentes às emendas constitucionais parágrafo quarto o brasil se sub m étnica a jurisdição de tribunal penal internacional a cuja criação tenha manifestado adesão 
LOG (lattice-best-path[5.5.23-c81f5]:main():lattice-best-path.cc:99) For utterance ConstituicaoM001_art005r, best cost 3879.46 + -154771 = -150891 over 2068 frames.
ConstituicaoM001_art005r inciso trinta e três todos têm direito a receber dos órgãos públicos informações de seu interesse particular ou de interesse coletivo ou geral que serão prestadas no prazo da lei sob pena de responsabilidade ressalvadas a c elas cujo sigilo seja imprescindível à segurança da sociedade e do estado 
LOG (lattice-best-path[5.5.23-c81f5]:main():lattice-best-path.cc:99) For utterance ConstituicaoM001_art005s, best cost 6592.13 + -238129 = -231537 over 3441 frames.
ConstituicaoM001_art005s inciso trinta e quatro a sanção a todos assegurados independentemente do pagamento de taxas dois pontos alínea a o direito de petição aos poderes públicos em defesa de direitos ou contra ilegalidade ou abuso de poder alínea b ao b itens ão de certidões em repartições públicas para defesa de direitos e esclarecimento de situações de interesse pessoal inciso trinta e cinco a lei não excluirá n da apreciação do poder judiciário lesão ou a nem a a sa a direito 
LOG (lattice-best-path[5.5.23-c81f5]:main():lattice-best-path.cc:99) For utterance ConstituicaoM001_art005t, best cost 4507.23 + -181414 = -176907 over 2672 frames.
ConstituicaoM001_art005t inciso trinta e seis a lei não prejudicará l direito adquirido o ato jurídico perfeito e já coisa julgada inciso trinta e sete não haverá juízo ou tribunal de exceção inciso trinta e oito é reconhecida a instituição do júri com a organização que lhe der a lei assegurados dois pontos alínea a e a plenitude de defesa 
LOG (lattice-best-path[5.5.23-c81f5]:main():lattice-best-path.cc:99) For utterance ConstituicaoM001_art005u, best cost 5152.35 + -183534 = -178381 over 2785 frames.
ConstituicaoM001_art005u alínea b o sigilo das votações alínea c a soberania dos veredictos alínea d b a competência para o julgamento dos crimes dolosos contra vida inciso trinta e nove e não a crimes sem lei anterior que o defina mil pena cinco prévia cominação legal inciso quarenta a lei penal não retroagirá salvo para beneficiar o real 
LOG (lattice-best-path[5.5.23-c81f5]:main():lattice-best-path.cc:99) For utterance ConstituicaoM001_art005v, best cost 2563.99 + -131178 = -128614 over 1844 frames.
ConstituicaoM001_art005v inciso quarenta e um a lei punirá qualquer discriminação atentatória dos direitos e liberdades fundamentais inciso quarenta e dois a prática do racismo constitui crime inafiançável e imprescritível sujeito à pena de reclusão nos termos da lei 
LOG (lattice-best-path[5.5.23-c81f5]:main():lattice-best-path.cc:99) For utterance ConstituicaoM001_art005w, best cost 4686.74 + -154302 = -149616 over 2195 frames.
ConstituicaoM001_art005w inciso quarenta e três a lei considerará crimes inafiançáveis e insuscetíveis de graça ou anistia a a prática da tortura o tráfico e lhes lo de entorpecentes e drogas afins o terrorismo e os definidos como crimes e de um ambos por eles respondendo os mandantes os executores e os que p podendo evitá los se omitirem 
LOG (lattice-best-path[5.5.23-c81f5]:main():lattice-best-path.cc:99) For utterance ConstituicaoM001_art005x, best cost 2226.75 + -88898.1 = -86671.3 over 1256 frames.
ConstituicaoM001_art005x inciso quarenta e quatro constitui crime inafiançável e imprescritível a ação de c o lo por armados civis ou militares contra a ordem constitucional e o estado democrático 
LOG (lattice-best-path[5.5.23-c81f5]:main():lattice-best-path.cc:99) For utterance ConstituicaoM001_art005y, best cost 5751.05 + -232421 = -226670 over 3303 frames.
ConstituicaoM001_art005y inciso quarenta e cinco nenhuma pena passará da pessoa do condenado podendo a obrigação de reparar o dano e a decretação do perdimento de bens sempre nos termos da lei estendidas ao sucessores e contra eles executadas até o limite do valor do patrimônio transferido inciso quarenta e seis a lei regulará a individualização da p pena e adotará entre outras as seguintes dois pontos alínea a privação ou restrição da liberdade 
LOG (lattice-best-path[5.5.23-c81f5]:main():lattice-best-path.cc:99) For utterance ConstituicaoM001_art005z, best cost 4445.29 + -203415 = -198970 over 3061 frames.
ConstituicaoM001_art005z alínea b perda de bens alínea c multa alínea d prestação social alternativa alínea e suspensão ou interdição de direitos inciso quarenta e sete não haverá penas dois pontos alínea a de morte salvo em caso de guerra declarada nos termos do artigo oitenta e quatro inciso dezenove b alínea b de caráter perpétuo 
LOG (lattice-best-path[5.5.23-c81f5]:main():lattice-best-path.cc:99) For utterance ConstituicaoM001_art006, best cost 4178.99 + -178509 = -174330 over 2516 frames.
ConstituicaoM001_art006 capítulo dois dos direitos sociais artigo sexto são direitos sociais a educação a saúde o trabalho a moradia o lazer à segurança a previdência social a proteção à maternidade e à infância à assistência aos desamparados na forma desta constituição artigo alterado pela emenda constitucional número vinte e seis e de dois mil 
LOG (lattice-best-path[5.5.23-c81f5]:main():lattice-best-path.cc:99) For utterance ConstituicaoM001_art007a, best cost 4768.13 + -248832 = -244064 over 3275 frames.
ConstituicaoM001_art007a artigo sétimo são direitos os trabalhadores urbanos e rurais além de outros que visem à melhoria de sua condição social dois pontos artigo alterado pelas emendas constitucionais número vinte de mil novecentos e noventa e oito número vinte e oito de dois mil e número cinquenta e três de dois mil e seis inciso um relação de emprego protegida contra despedida arbitrária ou sem justa causa nos termos de lei complementar que preverá indenização compensatória dentre outros direitos 
LOG (lattice-best-path[5.5.23-c81f5]:main():lattice-best-path.cc:99) For utterance ConstituicaoM001_art007b, best cost 6451.85 + -269067 = -262615 over 3901 frames.
ConstituicaoM001_art007b inciso dois seguro desemprego em caso de desemprego involuntário inciso três fundo de garantia do tempo de serviço inciso quatro salário mínimo fixado em lei nacionalmente unificado capaz de atender a suas necessidades vitais básicas e as de sua família com moradia alimentação e do c ação saúde lazer vestuário e j e lhe transporte e previdência social com reajustes periódicos que lhe preservem o poder aquisitivo sendo vedadas sua vinculação para a qualquer fim um 
LOG (lattice-best-path[5.5.23-c81f5]:main():lattice-best-path.cc:99) For utterance ConstituicaoM001_art007c, best cost 4042.12 + -163778 = -159735 over 2578 frames.
ConstituicaoM001_art007c inciso cinco piso salarial proporcional à extensão e a complexidade do trabalho inciso seis irredutibilidade do salário salvo disposto em convenção ou acordo coletivo inciso sete garantia de salário n um c em f era e oral mínimo para os que percebem remuneração variável 
LOG (lattice-best-path[5.5.23-c81f5]:main():lattice-best-path.cc:99) For utterance ConstituicaoM001_art007d, best cost 3584.47 + -161732 = -158148 over 2607 frames.
ConstituicaoM001_art007d inciso oito décimo terceiro salário com base na remuneração integral ou no valor da aposentadoria inciso nove remuneração do trabalho noturno superior a do de o um r no inciso dez proteção do salário na forma da lei constituindo crime sua retenção dolosa 
LOG (lattice-best-path[5.5.23-c81f5]:main():lattice-best-path.cc:99) For utterance ConstituicaoM001_art007e, best cost 3149.81 + -148052 = -144902 over 2273 frames.
ConstituicaoM001_art007e inciso onze participação os lucros ou resultados desvinculada da remuneração e excepcionalmente participação na gestão da empresa conforme definido em lei inciso doze salário família pago em razão do dependente do trabalhador de baixa renda nos termos da lei 
LOG (lattice-best-path[5.5.23-c81f5]:main():lattice-best-path.cc:99) For utterance ConstituicaoM001_art007f, best cost 4491.84 + -194620 = -190128 over 2757 frames.
ConstituicaoM001_art007f inciso treze duração do trabalho normal não superior a oito horas diárias s e quarenta e quatro semanais facultada a compensação de horários e à redução da jornada mediante acordo ou convenção coletiva de trabalho inciso catorze jornada de seis horas para o trabalho a realizado em turnos ininterruptos de revezamento salvo negociação coletiva 
LOG (lattice-best-path[5.5.23-c81f5]:main():lattice-best-path.cc:99) For utterance ConstituicaoM001_art007g, best cost 3857.7 + -176268 = -172410 over 2678 frames.
ConstituicaoM001_art007g inciso quinze repouso semanal remunerado preferencialmente aos domingos c c inciso dezesseis remuneração do serviço extraordinário superior no mínimo em cinquenta por cento a do normal inciso dezessete gozo de férias anuais remuneradas com pelo menos um terço a mais do que o salário normal 
LOG (lattice-best-path[5.5.23-c81f5]:main():lattice-best-path.cc:99) For utterance ConstituicaoM001_art007h, best cost 3391.07 + -167640 = -164248 over 2521 frames.
ConstituicaoM001_art007h inciso dezoito licença à gestante sem prejuízo do emprego e do salário com a duração de cento e vinte dias inciso dezenove licença paternidade nos termos fixados em lei inciso vinte proteção do mercado de trabalho da mulher mediante incentivos específicos nos termos da lei 
LOG (lattice-best-path[5.5.23-c81f5]:main():lattice-best-path.cc:99) For utterance ConstituicaoM001_art007i, best cost 4189.67 + -183226 = -179036 over 2753 frames.
ConstituicaoM001_art007i inciso vinte e um aviso prévio proporcional ao tempo de serviço sendo no mínimo de trinta dias nos termos da lei inciso vinte e dois redução dos riscos inerentes ao trabalho por meio de normas de saúde e higiene e segurança inciso vinte e três adicional de remuneração para as atividades penosas insalubres ou perigoso na forma da lei 
LOG (lattice-best-path[5.5.23-c81f5]:main():lattice-best-path.cc:99) For utterance ConstituicaoM001_art007j, best cost 3921.15 + -182083 = -178162 over 2694 frames.
ConstituicaoM001_art007j inciso vinte e quatro aposentadoria inciso vinte e cinco assistência gratuita aos filhos e dependentes desde o nascimento até cinco anos de idade em creches e pré escola às inciso vinte e seis reconhecimento das convenções e acordos coletivos de trabalho inciso vinte e sete proteção em face da automação na forma da lei 
LOG (lattice-best-path[5.5.23-c81f5]:main():lattice-best-path.cc:99) For utterance ConstituicaoM001_art007k, best cost 6280.08 + -238676 = -232396 over 3293 frames.
ConstituicaoM001_art007k inciso vinte e oito seguro contra se dentre s de trabalho a cargo do empregador sem excluir a indenização a c e estes tal obrigado quando incorrer em dolo ou c o p a inciso vinte e nove a são quanto aos créditos resultantes das relações de trabalho com prazo prescricional de cinco anos para os trabalhadores urbanos e rurais até o limite de dois anos após a extinção do contrato de trabalho alínea a revogada alínea b revogada 
LOG (lattice-best-path[5.5.23-c81f5]:main():lattice-best-path.cc:99) For utterance ConstituicaoM001_art007l, best cost 4034.65 + -168962 = -164927 over 2478 frames.
ConstituicaoM001_art007l inciso trinta proibição de diferença de salários de exercício de funções e de critério de admissão por motivo de sete sua idade cor ou estado civil inciso trinta e um proibição de qualquer discriminação no tocante a salário e critérios de admissão do trabalhador portador de deficiência 
LOG (lattice-best-path[5.5.23-c81f5]:main():lattice-best-path.cc:99) For utterance ConstituicaoM001_dt076a, best cost 4127.31 + -188886 = -184758 over 2497 frames.
ConstituicaoM001_dt076a artigo setenta e seis é desvinculado de órgão fundo ou despesa até trinta e um de dezembro de dois mil e onze vinte por cento da arrecadação da união de impostos contribuições sociais e de intervenção no domínio econômico já instituídos ou que vierem ser criados até a referida data seus adicionais e respectivos acréscimos legais abre parênteses 
LOG (lattice-best-path[5.5.23-c81f5]:main():lattice-best-path.cc:99) For utterance ConstituicaoM001_dt076b, best cost 4397.52 + -207020 = -202622 over 2837 frames.
ConstituicaoM001_dt076b artigo incluído pela emenda constitucional número vinte e sete de dois mil e alterado pelas emendas constitucionais números quarenta e dois de dois mil e três e cinquenta e seis de dois mil e sete fecha parênteses parágrafo primeiro o disposto no caput deste artigo a não reduzirá base de cálculo das transferências a estados distrito federal e municípios na forma dos artigos cento e cinquenta e três parágrafo quinto cento e cinquenta e sete inciso um 
LOG (lattice-best-path[5.5.23-c81f5]:main():lattice-best-path.cc:99) For utterance ConstituicaoM001_dt076c, best cost 3408.15 + -124896 = -121488 over 1834 frames.
ConstituicaoM001_dt076c cento e cinquenta e oito incisos c lo e dois e cento e cinquenta e nove inciso um alíneas a impede inciso dois da constituição bem como a base de cálculo das destinações a que se refere o artigo cento e cinquenta e nove inciso um alínea ser a constituição parágrafo segundo 
LOG (lattice-best-path[5.5.23-c81f5]:main():lattice-best-path.cc:99) For utterance ConstituicaoM001_dt076d, best cost 2184.15 + -98673 = -96488.8 over 1325 frames.
ConstituicaoM001_dt076d excetua se da desvinculação de que trata o caput deste artigo a arrecadação da contribuição social do salário educação a que se refere o artigo duzentos e doze parágrafo quinto da constituição c 
LOG (lattice-best-path[5.5.23-c81f5]:main():lattice-best-path.cc:99) For utterance ConstituicaoM001_dt077a, best cost 3404.13 + -166763 = -163359 over 2336 frames.
ConstituicaoM001_dt077a artigo setenta e sete até o exercício financeiro de dois mil e quatro os recursos mínimos aplicados nas ações e serviços públicos de saúde serão equivalentes dois pontos artigo alterado pela emenda constitucional número vinte e nove de dois mil e inciso um no caso da união dois pontos alínea a no ano dois mil 
LOG (lattice-best-path[5.5.23-c81f5]:main():lattice-best-path.cc:99) For utterance ConstituicaoM001_dt077b, best cost 4478.77 + -181162 = -176684 over 2502 frames.
ConstituicaoM001_dt077b o montante empenhado em ações e serviços públicos de saúde no exercício financeiro de mil novecentos e noventa e nove acrescido d e no mínimo cinco por cento alínea b c do ano dois mil e um ao a ano dois mil e quatro o valor apurado no ano anterior corrigido pela variação nominal do produto interno bruto e b e inciso dois no caso dos estados e do distrito federal 
LOG (lattice-best-path[5.5.23-c81f5]:main():lattice-best-path.cc:99) For utterance ConstituicaoM001_dt077c, best cost 3550.33 + -172827 = -169277 over 2368 frames.
ConstituicaoM001_dt077c doze por cento do produto da arrecadação dos impostos a que se refere o artigo cento e cinquenta e cinco e dos recursos de que tratam os artigos cento e cinquenta e sete e cento e cinquenta e nove inciso um alínea a e inciso dois deduzidas parcelas que forem transferidas aos respectivos municípios e e inciso três no caso dos municípios e do distrito federal 
LOG (lattice-best-path[5.5.23-c81f5]:main():lattice-best-path.cc:99) For utterance ConstituicaoM001_dt077d, best cost 3614.93 + -174137 = -170522 over 2345 frames.
ConstituicaoM001_dt077d quinze por cento do produto da arrecadação dos impostos a que se refere o artigo cento e cinquenta e seis e dos recursos de que trata os artigos cento e cinquenta e oito e cento e cinquenta e nove inciso um alínea b e parágrafo terceiro parágrafo primeiro os estados o distrito federal e os municípios que apliquem percentuais inferiores aos fixados nos incisos dois e três 
LOG (lattice-best-path[5.5.23-c81f5]:main():lattice-best-path.cc:99) For utterance ConstituicaoM001_dt077e, best cost 4789.31 + -187740 = -182951 over 2593 frames.
ConstituicaoM001_dt077e deverão elevá los gradualmente até l exercício financeiro de dois mil e quatro reduzida a diferença à à razão de pelo menos um quinto por ano sendo que a partir de dois mil aplicação será de pelo menos sete por cento parágrafo segundo dos recursos da união apurados nos termos deste artigo quinze por cento no mínimo serão aplicados nos municípios segundo critério populacional 
LOG (lattice-best-path[5.5.23-c81f5]:main():lattice-best-path.cc:99) For utterance ConstituicaoM001_dt077f, best cost 3748.89 + -170116 = -166367 over 2208 frames.
ConstituicaoM001_dt077f em ações e serviços básicos de saúde na forma da lei parágrafo terceiro os recursos dos estados do distrito federal e dos municípios destinados às ações e serviços públicos de saúde e os transferidos pela união para mesma finalidade serão aplicados por meio de fundo de saúde será acompanhado e fiscalizado por conselho de saúde 
LOG (lattice-best-path[5.5.23-c81f5]:main():lattice-best-path.cc:99) For utterance ConstituicaoM001_dt077g, best cost 3462.07 + -167409 = -163947 over 2283 frames.
ConstituicaoM001_dt077g sem prejuízo do disposto no artigo setenta e quatro da constituição federal parágrafo quarto na ausência da lei complementar a que se refere o artigo cento e noventa e oito parágrafo terceiro a partir do exercício financeiro de dois mil e cinco aplicar se á a à união aos estados ao distrito federal e aos municípios o disposto neste artigo 
LOG (lattice-best-path[5.5.23-c81f5]:main():lattice-best-path.cc:99) For utterance ConstituicaoM001_dt078a, best cost 5287.38 + -228750 = -223462 over 2958 frames.
ConstituicaoM001_dt078a artigo setenta e oito ressalvados os créditos definidos em lei como de pequeno valor os de natureza alimentícia os de que trata o artigo trinta e três deste a o das disposições constitucionais transitórias e suas complementações e os que já tiverem os seus respectivos recursos liberados ou depositados em juízo os precatórios pendentes na data de promulgação desta emenda e os que decorram de ações iniciais ajuizadas até trinta e um de dezembro de mil novecentos e noventa e nove 
LOG (lattice-best-path[5.5.23-c81f5]:main():lattice-best-path.cc:99) For utterance ConstituicaoM001_dt078b, best cost 4310.6 + -206467 = -202156 over 2766 frames.
ConstituicaoM001_dt078b serão liquidados pelo seu valor real em moeda corrente acrescido de juros legais em prestações anuais iguais e sucessivas no prazo máximo de dez anos permitida cessão dos créditos artigo alterado pela emenda constitucional número trinta de dois mil parágrafo primeiro é permitida a decomposição de parcelas a critério do credor parágrafo segundo as prestações anuais a que se refere o caput deste artigo 
LOG (lattice-best-path[5.5.23-c81f5]:main():lattice-best-path.cc:99) For utterance ConstituicaoM001_dt078c, best cost 3764.79 + -164770 = -161005 over 2165 frames.
ConstituicaoM001_dt078c terão se não liquidadas até o final do exercício a que se referem poder liberatório do pagamento de tributos da entidade devedora parágrafo terceiro o prazo referido no caput deste artigo fica reduzido para a dois anos nos casos de precatórios judiciais originários de desapropriação de imóvel residencial do credor 
LOG (lattice-best-path[5.5.23-c81f5]:main():lattice-best-path.cc:99) For utterance ConstituicaoM001_dt078d, best cost 5864.82 + -187958 = -182093 over 2740 frames.
ConstituicaoM001_dt078d desde que comprovadamente único a à época da imissão na posse parágrafo quarto o presidente do tribunal competente deverá vencido prazo ou em caso de comissão um no orçamento ou preterição ao direito de precedência a equilíbrio ante do credor requisitar ou determinar os sequestro de recursos financeiros da entidades e c o dada suficientes à a sa atos f ação da prestação 
LOG (lattice-best-path[5.5.23-c81f5]:main():lattice-best-path.cc:99) For utterance ConstituicaoM001_dt079a, best cost 5279.15 + -204356 = -199077 over 2868 frames.
ConstituicaoM001_dt079a artigo setenta e nove e em sub que o hino para vigorar até o ano de dois mil e dez no âmbito do poder executivo federal o fundo de combate e erradicação da pobreza a ser regulado por lei complementar com o objetivo de viabilizar a todos os brasileiros acesso a níveis dignos de subsistência cujos recursos serão aplicados em ações suplementares de nutrição habitação educação saúde reforço de renda familiar 
LOG (lattice-best-path[5.5.23-c81f5]:main():lattice-best-path.cc:99) For utterance ConstituicaoM001_dt079b, best cost 3796.67 + -176326 = -172529 over 2365 frames.
ConstituicaoM001_dt079b e outros programas de relevante interesses social voltados para melhoria da qualidade de vida artigo alterado pela emenda constitucional número trinta e um de dois mil parágrafo único o fundo previsto neste artigo terá conselho consultivo e de acompanhamento que conte com a participação de representantes da sociedade civil nos termos da lei 
LOG (lattice-best-path[5.5.23-c81f5]:main():lattice-best-path.cc:99) For utterance ConstituicaoM001_dt080a, best cost 4556.64 + -210107 = -205551 over 2854 frames.
ConstituicaoM001_dt080a artigo oitenta compõem o fundo de combate e erradicação da pobreza dois pontos artigo alterado pela emenda constitucional número trinta e um de dois mil inciso um a parcela do produto da arrecadação correspondente a uma adicional de oito centésimos por cento aplicada dezoito de junho de dois mil ad der sete de junho de dois mil e dois na alíquota da contribuição social de que trata o artigo setenta e cinco 
LOG (lattice-best-path[5.5.23-c81f5]:main():lattice-best-path.cc:99) For utterance ConstituicaoM001_dt080b, best cost 5945.23 + -263495 = -257549 over 3682 frames.
ConstituicaoM001_dt080b do ato das disposições constitucionais transitórias inciso dois a parcela do produto da arrecadação correspondente a uma adicional de cinco pontos percentuais na alíquota do imposto sobre produtos industrializados e p em e e ou do imposto que vier a substituído incidentes sobre produto supérfluos e aplicável até extinção do fundo inciso três o produto da arrecadação do imposto de que trata o artigo cento e cinquenta e três inciso sétimo da constituição inciso quatro dotações orçamentárias inciso cinco 
LOG (lattice-best-path[5.5.23-c81f5]:main():lattice-best-path.cc:99) For utterance ConstituicaoM001_dt080c, best cost 4191.16 + -190914 = -186723 over 2530 frames.
ConstituicaoM001_dt080c doações de qualquer natureza de pessoas físicas ou jurídicas do país ou do exterior inciso seis outras receitas a serem definidas na regulamentação do referido fundo parágrafo primeiro aos recursos integrantes do fundo de que trata este artigo não se aplica ou disposto nos artigos cento e cinquenta e nove e cento e sessenta e sete inciso quatro da constituição 
LOG (lattice-best-path[5.5.23-c81f5]:main():lattice-best-path.cc:99) For utterance ConstituicaoM001_dt080d, best cost 5337.04 + -228813 = -223476 over 3091 frames.
ConstituicaoM001_dt080d assim como qualquer desvinculação de recursos orçamentários c parágrafo segundo a arrecadação decorrente do disposto no inciso um um deste artigo no período compreendido entre dezoito de junho de dois mil e o início da vigência da lei complementar a que se refere o artigo setenta e nove será integralmente repassada ao fundo preservados seu valor real em que turnos públicos federais progressivamente resgatáveis após dezoito de junho de dois mil e dois na forma da lei 
LOG (lattice-best-path[5.5.23-c81f5]:main():lattice-best-path.cc:99) For utterance ConstituicaoM001_dt081a, best cost 3832.07 + -173306 = -169474 over 2310 frames.
ConstituicaoM001_dt081a artigo oitenta e um é instituído fundo constituído pelos recursos recebidos pela união em decorrência da desestatização de sociedades de economia mista ou empresas públicas por ela controladas direta ou indiretamente quando a operação envolver a alienação do respectivo controle acionário a pessoa ou entidade não integrante da administração pública 
LOG (lattice-best-path[5.5.23-c81f5]:main():lattice-best-path.cc:99) For utterance ConstituicaoM001_dt081b, best cost 4143.31 + -197001 = -192857 over 2627 frames.
ConstituicaoM001_dt081b ou de participação societária remanescente após a alienação cujos rendimentos gerados a partir dê dezoito de junho de dois mil e dois reverterão ao fundo de combate e erradicação da pobreza artigo alterado pela emenda constitucional número trinta e um de dois mil parágrafo primeiro caso o montante anual previsto nos rendimentos transferidos ao fundo de combate e erradicação da pobreza na forma deste artigo 
LOG (lattice-best-path[5.5.23-c81f5]:main():lattice-best-path.cc:99) For utterance ConstituicaoM001_dt081c, best cost 4105.09 + -196917 = -192811 over 2671 frames.
ConstituicaoM001_dt081c não alcance o valor de quatro bilhões de reais far se á à complementação na forma do artigo oitenta inciso quatro do ato das disposições constitucionais transitórias parágrafo segundo sem prejuízo do disposto no parágrafo primeiro o poder executivo poderá destinar ao fundo a que se refere este artigo outras receitas decorrentes da alienação de bens da união parágrafo terceiro 
LOG (lattice-best-path[5.5.23-c81f5]:main():lattice-best-path.cc:99) For utterance ConstituicaoM001_dt081d, best cost 3370.88 + -157878 = -154507 over 2086 frames.
ConstituicaoM001_dt081d a constituição do fundo a que se refere o caput a transferência de recursos ao fundo de combate e erradicação da pobreza e as demais disposições referentes ao parágrafo primeiro deste artigo serão disciplinadas em lei não se aplicando o disposto no artigo cento e sessenta e cinco parágrafo nono inciso dois da constituição 
LOG (lattice-best-path[5.5.23-c81f5]:main():lattice-best-path.cc:99) For utterance ConstituicaoM001_dt082a, best cost 4644.94 + -199562 = -194917 over 2645 frames.
ConstituicaoM001_dt082a artigo oitenta e dois os estados o distrito federal e os municípios devem instituir fundos de combate á a pobreza com os recursos de que trata este artigo e outros que vierem a destinar devendo os referidos fundos ser r geridos por entidades que contem com a participação da sociedade civil artigo alterado pela emenda constitucional número trinta e um de dois mil e emenda constitucional número quarenta e dois de dois mil e três 
LOG (lattice-best-path[5.5.23-c81f5]:main():lattice-best-path.cc:99) For utterance ConstituicaoM001_dt082b, best cost 4808.09 + -188994 = -184186 over 2642 frames.
ConstituicaoM001_dt082b parágrafo primeiro para o financiamento dos fundos estaduais edite trinta ao poderá ser criado adicional de até dois pontos percentuais na alíquota do imposto sobre circulação de mercadorias e serviços e semi essa e sobre os produtos e serviço supérfluos e nas condições definidas na lei complementar de que trata o artigo cento e cinquenta e cinco parágrafo segundo inciso doze da constituição não se aplicando sobre este percentual 
LOG (lattice-best-path[5.5.23-c81f5]:main():lattice-best-path.cc:99) For utterance ConstituicaoM001_dt082c, best cost 3565.45 + -137760 = -134194 over 1883 frames.
ConstituicaoM001_dt082c o disposto no artigo cento e cinquenta e oito inciso quatro da constituição parágrafo segundo para o financiamento dos f um dos municipais poderá ser criado adicional de até meio ponto percentual na alíquota do imposto sob serviços ou do imposto que vier a substituído sob serviços supérfluos 
LOG (lattice-best-path[5.5.23-c81f5]:main():lattice-best-path.cc:99) For utterance ConstituicaoM001_dt083, best cost 3319.79 + -137782 = -134462 over 1949 frames.
ConstituicaoM001_dt083 artigo oitenta e três lei federal definirá os produtos e serviço superar f lo a que se referem os artigos oitenta inciso dois e oitenta e dois parágrafo segundo artigo alterado pela emenda constitucional número trinta e um de dois mil e emenda constitucional número quarenta e dois de dois mil e três 
LOG (lattice-best-path[5.5.23-c81f5]:main():lattice-best-path.cc:99) For utterance ConstituicaoM001_dt084a, best cost 3699.31 + -198169 = -194470 over 2543 frames.
ConstituicaoM001_dt084a artigo oitenta e quatro a contribuição provisória sobre movimentação ou transmissão de valores e de créditos e direitos de natureza financeira prevista nos artigos setenta e quatro setenta e cinco e oitenta inciso um deste ato das disposições constitucionais transitórias será cobrada até trinta e um de dezembro de dois mil e quatro artigo alterado pela emenda constitucional número trinta e sete de dois mil e dois 
LOG (lattice-best-path[5.5.23-c81f5]:main():lattice-best-path.cc:99) For utterance ConstituicaoM001_dt084b, best cost 3855.18 + -206891 = -203035 over 2691 frames.
ConstituicaoM001_dt084b e emenda constitucional número quarenta e dois de dois mil e três parágrafo primeiro fica prorrogada até a data referida no caput deste artigo a vigência da lei número nove mil trezentos e onze de vinte e quatro de outubro de mil novecentos e noventa e seis e suas alterações parágrafo segundo do produto da arrecadação da contribuição social de que trata este artigo será destinada a parcela correspondente à alíquota de dois pontos 
LOG (lattice-best-path[5.5.23-c81f5]:main():lattice-best-path.cc:99) For utterance ConstituicaoM001_dt084c, best cost 3398.28 + -171166 = -167768 over 2313 frames.
ConstituicaoM001_dt084c inciso um vinte e centésimos por cento ao fundo nacional de saúde para financiamento das ações e serviços de saúde inciso dois dez centésimos por cento ao custeio da previdência social inciso três oito centésimos por cento ao fundo de combate e erradicação da pobreza de que tratam os artigos oitenta e oitenta e um 
LOG (lattice-best-path[5.5.23-c81f5]:main():lattice-best-path.cc:99) For utterance ConstituicaoM001_dt084d, best cost 2783.73 + -146080 = -143297 over 2043 frames.
ConstituicaoM001_dt084d deste ato das disposições constitucionais transitórias parágrafo terceiro a alíquota da contribuição de que trata este artigo será de dois pontos inciso um trinta e oito centésimos por cento nos exercícios financeiros de dois mil e dois e dois mil e três inciso dois revogado 
LOG (lattice-best-path[5.5.23-c81f5]:main():lattice-best-path.cc:99) For utterance ConstituicaoM001_dt085a, best cost 5842.32 + -208032 = -202189 over 2971 frames.
ConstituicaoM001_dt085a artigo oitenta e cinco a contribuição a que se refere o artigo oitenta e quatro deste ato das disposições constitucionais transitórias não incidirá a partir do três já as e m o dia da data de publicação desta emenda constitucional nos massa m entre os dois pontos artigo alterado pela emenda constitucional número trinta e sete de dois mil e dois inciso um c em contas correntes de dê posto especialmente abertas e exclusivamente que lhes a las para operações de 
LOG (lattice-best-path[5.5.23-c81f5]:main():lattice-best-path.cc:99) For utterance ConstituicaoM001_dt085b, best cost 4814.9 + -184865 = -180050 over 2567 frames.
ConstituicaoM001_dt085b dois pontos alínea a câmaras e prestadoras de serviços de compensação e de liquidação de que trata o parágrafo único do artigo segundo da lei número dez mil duzentos e catorze de vinte e sete de março de dois mil e um alínea b companhias securitizadoras de que trata lei número nove mil quinhentos e catorze de vinte de novembro de mil novecentos e e noventa e sete alínea ser 
LOG (lattice-best-path[5.5.23-c81f5]:main():lattice-best-path.cc:99) For utterance ConstituicaoM001_dt085c, best cost 4817 + -186328 = -181511 over 2559 frames.
ConstituicaoM001_dt085c sociedades anônimas que tenham por objeto exclusivo a aquisição de créditos oriundos de operações praticadas no mercado financeiro inciso dois em contas correntes de depósito relativos a dois pontos alínea a operações de compra e venda de ações realizadas em recintos ou sistemas de negociação de p outras de valores e no mercado de balcão l organizado 
LOG (lattice-best-path[5.5.23-c81f5]:main():lattice-best-path.cc:99) For utterance ConstituicaoM001_dt085d, best cost 4965.31 + -196682 = -191716 over 2690 frames.
ConstituicaoM001_dt085d alínea b contratos referenciados em ações ou índices de ações em suas diversas modalidades negociados em gozo j de valores de mercadorias e de futuros inciso três em contas de investidores estrangeiros relativos a entradas no país e remessas para o exterior de recursos financeiros empregados exclusivamente em operações e contratos referidos no inciso dois deste artigo parágrafo primeiro 
LOG (lattice-best-path[5.5.23-c81f5]:main():lattice-best-path.cc:99) For utterance ConstituicaoM001_dt085e, best cost 3746.54 + -168826 = -165080 over 2216 frames.
ConstituicaoM001_dt085e o poder executivo disciplinará l disposto neste artigo no prazo de trinta dias da data de publicação desta emenda constitucional parágrafo segundo o disposto no inciso primeiro deste artigo aplica se somente a às operações relacionadas em ato do poder executivo dentre aquelas que constituam o objeto social das referidas entidades 
LOG (lattice-best-path[5.5.23-c81f5]:main():lattice-best-path.cc:99) For utterance ConstituicaoM001_dt085f, best cost 3253.6 + -152322 = -149068 over 2084 frames.
ConstituicaoM001_dt085f parágrafo terceiro o disposto no inciso dois deste artigo aplica se somente a operações e contratos efetuados por intermédio de instituições financeiras sociedades corretoras de títulos e valores mobiliários sociedades distribuidoras dê c títulos e valores mobiliários e sociedades corretoras de mercadorias 
LOG (lattice-best-path[5.5.23-c81f5]:main():lattice-best-path.cc:99) For utterance ConstituicaoM001_dt086a, best cost 4003.25 + -212188 = -208185 over 2835 frames.
ConstituicaoM001_dt086a artigo oitenta e seis serão pagos conforme disposto no artigo cem da constituição federal não se lhes aplicando a regras de parcelamento estabelecida no caput do artigo setenta e oito deste ato das disposições constitucionais transitórias os débitos da fazenda federal estadual distrital ou municipal oriundos de sentenças transitadas em julgado que preencham cumulativamente as seguintes condições dois pontos 
LOG (lattice-best-path[5.5.23-c81f5]:main():lattice-best-path.cc:99) For utterance ConstituicaoM001_dt086b, best cost 4477.01 + -203473 = -198996 over 2800 frames.
ConstituicaoM001_dt086b artigo alterado pela emenda constitucional número trinta e sete de dois mil e dois e inciso o um ter sido objeto de emissão de precatórios judiciários inciso dois ter sido definidos como de pequeno valor pela lei de que trata o terceiro parágrafo do artigo cem da constituição federal ou pelo artigo oitenta e sete deste ato das disposições constitucionais transitórias inciso três estar total ou parcialmente 
LOG (lattice-best-path[5.5.23-c81f5]:main():lattice-best-path.cc:99) For utterance ConstituicaoM001_dt086c, best cost 4596.73 + -211177 = -206580 over 2726 frames.
ConstituicaoM001_dt086c pendentes de pagamento na data da publicação dez da emenda constitucional parágrafo primeiro os débitos a que se refere o caput deste artigo ou os respectivos saldos serão pagos na ordem cronológica de apresentação dos respectivos precatórios com precedência sobre e os de maior valor parágrafo segundo os débitos a que se refere o caput deste artigo se ainda não tiverem sido objeto de pagamento parcial 
LOG (lattice-best-path[5.5.23-c81f5]:main():lattice-best-path.cc:99) For utterance ConstituicaoM001_dt086d, best cost 3924.47 + -174761 = -170837 over 2378 frames.
ConstituicaoM001_dt086d nos termos do artigo setenta e oito deste ato das disposições constitucionais transitórias poderão ser pagos em duas parcelas anuais se á cinco de usar a lei parágrafo terceiro observada a ordem cronológica de sua apresentação os débitos de natureza alimentícia previstos neste artigo terão precedência para pagamento sobre todos os demais 
LOG (lattice-best-path[5.5.23-c81f5]:main():lattice-best-path.cc:99) For utterance ConstituicaoM001_dt087a, best cost 4100.59 + -190100 = -185999 over 2558 frames.
ConstituicaoM001_dt087a artigo oitenta e sete para efeito do que dispõe um o parágrafo terceiro do artigo cem da constituição federal e o artigo setenta e oito deste ato das disposições constitucionais transitórias serão considerados de pequeno valor até que se dê a publicação oficial das respectivas leis definidoras pelos entes da federação observado o disposto no parágrafo quarto do artigo cem da constituição federal 
LOG (lattice-best-path[5.5.23-c81f5]:main():lattice-best-path.cc:99) For utterance ConstituicaoM001_dt087b, best cost 3974.43 + -192188 = -188214 over 2700 frames.
ConstituicaoM001_dt087b os débitos ou obrigações consignados em precatório judiciário que tem a valor igual ou inferior a dois pontos artigo alterado pela emenda constitucional número trinta e sete de dois mil e dois inciso um quarenta salários mínimos perante a fazenda dos estados e do distrito federal inciso dois trinta salários mínimos perante a fazenda dos municípios parágrafo único 
LOG (lattice-best-path[5.5.23-c81f5]:main():lattice-best-path.cc:99) For utterance ConstituicaoM001_dt087c, best cost 3966.44 + -160124 = -156157 over 2160 frames.
ConstituicaoM001_dt087c se o valor da execução ultrapassar o estabelecido neste artigo o pagamento far se á sempre por meio de precatório sendo facultada a à parte exequente a renúncia ao crédito do valor excedente para que possa optar pelo pagamento do saldo sem o precatório da forma prevista no parágrafo terceiro do artigo cem 
LOG (lattice-best-path[5.5.23-c81f5]:main():lattice-best-path.cc:99) For utterance ConstituicaoM001_dt088a, best cost 4069.99 + -191508 = -187438 over 2615 frames.
ConstituicaoM001_dt088a artigo oitenta e oito enquanto lei complementar não disciplinar o disposto nos incisos um e três do parágrafo terceiro do artigo cento e cinquenta e seis da constituição federal um imposto a que se refere o inciso três do caput do mesmo artigo dois pontos artigo alterado pela emenda constitucional número trinta e sete de dois mil e dois inciso um terá alíquota mínima de dois por cento 
LOG (lattice-best-path[5.5.23-c81f5]:main():lattice-best-path.cc:99) For utterance ConstituicaoM001_dt088b, best cost 5250.1 + -198642 = -193392 over 2749 frames.
ConstituicaoM001_dt088b exceto para os serviços aqui se referem os itens trinta e dois trinta e três e trinta e quatro da lista de serviços a n ex ão ao decreto lei número quatrocentos e seis de trinta e um de dezembro de mil novecentos e sessenta e oito inciso dois não será objeto de concessão de isenções incentivos e benefícios fiscais que resulte direta ou indiretamente na redução da alíquota mínima estabelecida no inciso um 
LOG (lattice-best-path[5.5.23-c81f5]:main():lattice-best-path.cc:99) For utterance ConstituicaoM001_dt089a, best cost 5929.83 + -184381 = -178451 over 2579 frames.
ConstituicaoM001_dt089a artigo oitenta e nove os integrantes da carreira policial militar do está rito ali o federal de rondônia que comprovadamente e cinco através um no exercício regular de suas funções prestando serviços a aquele este rito ali o na data em que foi transformado em estado bem como os policiais militares admitidos por força de lei federal os de a dos pela união constituirão quadro em no extinção da administração federal 
LOG (lattice-best-path[5.5.23-c81f5]:main():lattice-best-path.cc:99) For utterance ConstituicaoM001_dt089b, best cost 3919.84 + -188063 = -184144 over 2489 frames.
ConstituicaoM001_dt089b assegurados os direitos e vantagens a eles inerentes vedado o pagamento a qualquer título dê diferenças remuneratórias bem como ressarcimentos ou indenizações de qualquer espécie anterior à à promulgação desta emenda artigo alterado pela emenda constitucional número trinta e oito de dois mil e dois parágrafo único os servidores da carreira policial militar 
LOG (lattice-best-path[5.5.23-c81f5]:main():lattice-best-path.cc:99) For utterance ConstituicaoM001_dt089c, best cost 3473.28 + -146010 = -142537 over 2023 frames.
ConstituicaoM001_dt089c continuarão prestando serviços ao estado de rondônia na condição de cedidos submetidos a as disposições legais e regulamentares a que estão sujeitas as corporações da respectiva polícia militar observadas as atribuições de função compatíveis com seu grau hierárquico c 
LOG (lattice-best-path[5.5.23-c81f5]:main():lattice-best-path.cc:99) For utterance ConstituicaoM001_dt090a, best cost 3679.91 + -194883 = -191203 over 2541 frames.
ConstituicaoM001_dt090a artigo noventa o prazo previsto no caput do artigo oitenta e quatro deste ato das disposições constitucionais transitórias fica prorrogada até trinta e um de dezembro de dois m e sete artigo alterado pela emenda constitucional número quarenta e dois de dois mil e três parágrafo primeiro fica prorrogada até a data referida no caput deste artigo a vigência da lei número nove mil trezentos e onze 
LOG (lattice-best-path[5.5.23-c81f5]:main():lattice-best-path.cc:99) For utterance ConstituicaoM001_dt090b, best cost 2802.51 + -159914 = -157112 over 2136 frames.
ConstituicaoM001_dt090b de vinte e quatro de outubro de mil novecentos e noventa e seis e suas alterações parágrafo segundo até a data referida no caput deste artigo a alíquota da contribuição de que trata o artigo oitenta e quatro deste ato das disposições constitucionais transitórias será de trinta e oito centésimos por cento 
LOG (lattice-best-path[5.5.23-c81f5]:main():lattice-best-path.cc:99) For utterance ConstituicaoM001_dt091a, best cost 4271.15 + -187368 = -183097 over 2483 frames.
ConstituicaoM001_dt091a artigo noventa e um a união entregará os estados e ao distrito federal o montante definido em lei complementar de acordo com critérios prazos e condições nela determinados podendo considerar as exportações para o exterior de produtos primários e semi elaborados a relação entre as exportações e as importações os créditos decorrentes de aquisições destinadas ao ativo permanente 
LOG (lattice-best-path[5.5.23-c81f5]:main():lattice-best-path.cc:99) For utterance ConstituicaoM001_dt091b, best cost 4277.45 + -190621 = -186343 over 2630 frames.
ConstituicaoM001_dt091b e à efetiva manutenção e aproveitamento do crédito do imposto a que se refere o artigo cento e cinquenta e cinco parágrafo segundo inciso dez alínea a artigo alterado pela emenda constitucional número quarenta e dois de dois mil e três parágrafo primeiro do montante de recursos que cabe a cada estado setenta e cinco por cento pertencem ao próprio estado e vinte e cinco por cento aos seus municípios 
LOG (lattice-best-path[5.5.23-c81f5]:main():lattice-best-path.cc:99) For utterance ConstituicaoM001_dt091c, best cost 4515.9 + -196246 = -191730 over 2653 frames.
ConstituicaoM001_dt091c distribuídos segundo se critérios a que se refere o artigo cento e cinquenta e oito parágrafo único da constituição d parágrafo segundo a entrega de recursos prevista neste artigo perdurará conforme definido em lei complementar até que o imposto a que se refere o artigo cento e cinquenta e cinco inciso dois tem ou produto de sua arrecadação destinado predominantemente em proporção não inferior ao oitenta por cento 
LOG (lattice-best-path[5.5.23-c81f5]:main():lattice-best-path.cc:99) For utterance ConstituicaoM001_dt091d, best cost 4282.46 + -198107 = -193824 over 2692 frames.
ConstituicaoM001_dt091d ao estado onde ocorrer o consumo das mercadorias bens ou serviços parágrafo terceiro enquanto não for editada a lei complementar de que trata o caput e em substituição ao sistema de entrega de recursos nele previsto permanecerá vigente o sistema de entrega de recursos previsto no artigo trinta e um e anexo da lei complementar número oitenta e sete de treze de setembro de mil novecentos e noventa e seis 
LOG (lattice-best-path[5.5.23-c81f5]:main():lattice-best-path.cc:99) For utterance ConstituicaoM001_dt091e, best cost 4780.42 + -205728 = -200948 over 2709 frames.
ConstituicaoM001_dt091e com a redação dada pela lei complementar número cento e quinze de vinte e seis de dezembro de dois mil e dois parágrafo quarto os estados j o distrito federal deverão apresentar à união nos termos das instruções baixadas pelo ministério da fazenda as informações relativas ao imposto de que trata o artigo cento e cinquenta e cinco inciso dois declaradas pelos contribuintes que realizarem operações ou prestações com destino ao exterior 
LOG (lattice-best-path[5.5.23-c81f5]:main():lattice-best-path.cc:99) For utterance ConstituicaoM001_dt092, best cost 2196.31 + -113944 = -111748 over 1482 frames.
ConstituicaoM001_dt092 artigo noventa e dois são acrescidos dez anos ao prazo fixado no artigo quarenta deste a ato das disposições constitucionais transitórias artigo alterado pela emenda constitucional número quarenta e dois de dois mil e três 
LOG (lattice-best-path[5.5.23-c81f5]:main():lattice-best-path.cc:99) For utterance ConstituicaoM001_dt093, best cost 3087.79 + -130015 = -126927 over 1766 frames.
ConstituicaoM001_dt093 artigo noventa e três a vigência do disposto no artigo cento e cinquenta e nove inciso três e parágrafo quarto e iniciará somente após a e de são da lei de que trata o referido inciso três artigo alterado pela emenda constitucional número quarenta e dois de dois mil e três 
LOG (lattice-best-path[5.5.23-c81f5]:main():lattice-best-path.cc:99) For utterance ConstituicaoM001_dt094, best cost 3811.8 + -189668 = -185856 over 2542 frames.
ConstituicaoM001_dt094 artigo noventa e quatro os regimes especiais de tributação para microempresas e empresas de pequeno porte próprios da união dos estados do distrito federal e dos municípios cessarão a partir da entrada em vigor do regime previsto no artigo cento e quarenta e seis inciso três alínea d da constituição artigo alterado pela emenda constitucional número quarenta e dois de dois mil e três 
LOG (lattice-best-path[5.5.23-c81f5]:main():lattice-best-path.cc:99) For utterance ConstituicaoM001_dt095, best cost 5174.98 + -211564 = -206389 over 2749 frames.
ConstituicaoM001_dt095 artigo noventa e cinco os nascidos n estrangeiro entre sete de junho de mil novecentos e noventa e quatro e a data da promulgação desta emenda constitucional filhos de pai brasileiro o má em brasileira poderão ser registrados em repartição diplomática ou com sua a brasileira competente ou em ofício de registro se vierem a residir na república federativa do brasil artigo incluído pela emenda constitucional número cinquenta e quatro de dois mil e sete 
LOG (lattice-best-path[5.5.23-c81f5]:main():lattice-best-path.cc:99) For utterance ConstituicaoM001_dt096, best cost 3190 + -146479 = -143289 over 2002 frames.
ConstituicaoM001_dt096 artigo noventa e seis ficam convalidados os atos de criação fusão incorporação e desmembramento de municípios cuja lei tenha sido publicada até trinta e um de dezembro de dois mil e seis atendidos os requisitos estabelecidos na legislação do respectivo estado a à época de sua criação 
LOG (lattice-best-path[5.5.23-c81f5]:main():lattice-best-path.cc:124) Overall cost per frame is -69.859 = 1.70392 [graph] + -71.5629 [acoustic] over 318819 frames.
LOG (lattice-best-path[5.5.23-c81f5]:main():lattice-best-path.cc:128) Done 126 lattices, failed for 0
# Accounting: time=0 threads=1
# Ended (code 0) at Thu Jan 10 18:46:59 -02 2019, elapsed time 0 seconds
