# set -o pipefail && ali-to-phones --write-lengths=true exp/tri3b/final.mdl "ark:gunzip -c exp/tri3b/ali.2.gz|" ark,t:- | sed -E "s/^[^ ]+ //" | awk 'BEGIN{FS=" ; "; OFS="\n";} {print "begin " $1; if (NF>1) print "end " $NF; for (n=1;n<=NF;n++) print "all " $n; }' | sort | uniq -c | gzip -c > exp/tri3b/phone_stats.2.gz 
# Started at Sun Jan 20 14:49:33 -02 2019
#
ali-to-phones --write-lengths=true exp/tri3b/final.mdl 'ark:gunzip -c exp/tri3b/ali.2.gz|' ark,t:- 
LOG (ali-to-phones[5.5.23-c81f5]:main():ali-to-phones.cc:134) Done 220 utterances.
# Accounting: time=0 threads=1
# Ended (code 0) at Sun Jan 20 14:49:33 -02 2019, elapsed time 0 seconds
