# gmm-est --power=0.2 --write-occs=exp/tri3b/15.occs --mix-up=33360 exp/tri3b/14.mdl "gmm-sum-accs - exp/tri3b/14.*.acc |" exp/tri3b/15.mdl 
# Started at Sun Jan 20 14:45:21 -02 2019
#
gmm-est --power=0.2 --write-occs=exp/tri3b/15.occs --mix-up=33360 exp/tri3b/14.mdl 'gmm-sum-accs - exp/tri3b/14.*.acc |' exp/tri3b/15.mdl 
gmm-sum-accs - exp/tri3b/14.1.acc exp/tri3b/14.2.acc exp/tri3b/14.3.acc 
LOG (gmm-sum-accs[5.5.23-c81f5]:main():gmm-sum-accs.cc:63) Summed 3 stats, total count 295041, avg like/frame -44.9905
LOG (gmm-sum-accs[5.5.23-c81f5]:main():gmm-sum-accs.cc:66) Total count of stats is 295041
LOG (gmm-sum-accs[5.5.23-c81f5]:main():gmm-sum-accs.cc:67) Written stats to -
LOG (gmm-est[5.5.23-c81f5]:MleUpdate():transition-model.cc:517) TransitionModel::Update, objf change is 0 per frame over 295041 frames. 
LOG (gmm-est[5.5.23-c81f5]:MleUpdate():transition-model.cc:520) 184 probabilities floored, 2135 out of 3902 transition-states skipped due to insuffient data (it is normal to have some skipped.)
LOG (gmm-est[5.5.23-c81f5]:main():gmm-est.cc:102) Transition model update: Overall 0 log-like improvement per frame over 295041 frames.
WARNING (gmm-est[5.5.23-c81f5]:MleDiagGmmUpdate():mle-diag-gmm.cc:359) Too little data - removing Gaussian (weight 0.000666, occupation count 9.479174, vector size 40)
WARNING (gmm-est[5.5.23-c81f5]:MleDiagGmmUpdate():mle-diag-gmm.cc:359) Too little data - removing Gaussian (weight 0.000657, occupation count 9.344586, vector size 40)
WARNING (gmm-est[5.5.23-c81f5]:MleDiagGmmUpdate():mle-diag-gmm.cc:365) Gaussian has too little data but not removing it because it is the last Gaussian: i = 0, occ = 0, weight = 1
WARNING (gmm-est[5.5.23-c81f5]:MleDiagGmmUpdate():mle-diag-gmm.cc:359) Too little data - removing Gaussian (weight 0.000204, occupation count 8.920445, vector size 40)
WARNING (gmm-est[5.5.23-c81f5]:MleDiagGmmUpdate():mle-diag-gmm.cc:359) Too little data - removing Gaussian (weight 0.000215, occupation count 9.396990, vector size 40)
WARNING (gmm-est[5.5.23-c81f5]:MleDiagGmmUpdate():mle-diag-gmm.cc:359) Too little data - removing Gaussian (weight 0.000204, occupation count 8.892659, vector size 40)
WARNING (gmm-est[5.5.23-c81f5]:MleDiagGmmUpdate():mle-diag-gmm.cc:359) Too little data - removing Gaussian (weight 0.000225, occupation count 9.806801, vector size 40)
WARNING (gmm-est[5.5.23-c81f5]:MleDiagGmmUpdate():mle-diag-gmm.cc:359) Too little data - removing Gaussian (weight 0.000225, occupation count 9.835115, vector size 40)
WARNING (gmm-est[5.5.23-c81f5]:MleDiagGmmUpdate():mle-diag-gmm.cc:359) Too little data - removing Gaussian (weight 0.000224, occupation count 9.779346, vector size 40)
WARNING (gmm-est[5.5.23-c81f5]:MleDiagGmmUpdate():mle-diag-gmm.cc:359) Too little data - removing Gaussian (weight 0.000224, occupation count 9.771049, vector size 40)
WARNING (gmm-est[5.5.23-c81f5]:MleDiagGmmUpdate():mle-diag-gmm.cc:359) Too little data - removing Gaussian (weight 0.000215, occupation count 9.387485, vector size 40)
WARNING (gmm-est[5.5.23-c81f5]:MleDiagGmmUpdate():mle-diag-gmm.cc:359) Too little data - removing Gaussian (weight 0.000224, occupation count 9.764986, vector size 40)
WARNING (gmm-est[5.5.23-c81f5]:MleDiagGmmUpdate():mle-diag-gmm.cc:359) Too little data - removing Gaussian (weight 0.000224, occupation count 9.784315, vector size 40)
WARNING (gmm-est[5.5.23-c81f5]:MleDiagGmmUpdate():mle-diag-gmm.cc:359) Too little data - removing Gaussian (weight 0.000220, occupation count 9.608041, vector size 40)
WARNING (gmm-est[5.5.23-c81f5]:MleDiagGmmUpdate():mle-diag-gmm.cc:359) Too little data - removing Gaussian (weight 0.000206, occupation count 9.011919, vector size 40)
WARNING (gmm-est[5.5.23-c81f5]:MleDiagGmmUpdate():mle-diag-gmm.cc:359) Too little data - removing Gaussian (weight 0.000199, occupation count 8.667500, vector size 40)
WARNING (gmm-est[5.5.23-c81f5]:MleDiagGmmUpdate():mle-diag-gmm.cc:359) Too little data - removing Gaussian (weight 0.000206, occupation count 8.986868, vector size 40)
WARNING (gmm-est[5.5.23-c81f5]:MleDiagGmmUpdate():mle-diag-gmm.cc:359) Too little data - removing Gaussian (weight 0.000228, occupation count 9.937883, vector size 40)
WARNING (gmm-est[5.5.23-c81f5]:MleDiagGmmUpdate():mle-diag-gmm.cc:359) Too little data - removing Gaussian (weight 0.000207, occupation count 9.041185, vector size 40)
WARNING (gmm-est[5.5.23-c81f5]:MleDiagGmmUpdate():mle-diag-gmm.cc:359) Too little data - removing Gaussian (weight 0.000211, occupation count 9.195141, vector size 40)
WARNING (gmm-est[5.5.23-c81f5]:MleDiagGmmUpdate():mle-diag-gmm.cc:359) Too little data - removing Gaussian (weight 0.000211, occupation count 9.195339, vector size 40)
WARNING (gmm-est[5.5.23-c81f5]:MleDiagGmmUpdate():mle-diag-gmm.cc:359) Too little data - removing Gaussian (weight 0.000213, occupation count 9.312819, vector size 40)
WARNING (gmm-est[5.5.23-c81f5]:MleDiagGmmUpdate():mle-diag-gmm.cc:359) Too little data - removing Gaussian (weight 0.000217, occupation count 9.481251, vector size 40)
WARNING (gmm-est[5.5.23-c81f5]:MleDiagGmmUpdate():mle-diag-gmm.cc:359) Too little data - removing Gaussian (weight 0.000222, occupation count 9.711795, vector size 40)
WARNING (gmm-est[5.5.23-c81f5]:MleDiagGmmUpdate():mle-diag-gmm.cc:359) Too little data - removing Gaussian (weight 0.000186, occupation count 8.123137, vector size 40)
WARNING (gmm-est[5.5.23-c81f5]:MleDiagGmmUpdate():mle-diag-gmm.cc:359) Too little data - removing Gaussian (weight 0.000223, occupation count 9.736374, vector size 40)
WARNING (gmm-est[5.5.23-c81f5]:MleDiagGmmUpdate():mle-diag-gmm.cc:359) Too little data - removing Gaussian (weight 0.000210, occupation count 9.171640, vector size 40)
WARNING (gmm-est[5.5.23-c81f5]:MleDiagGmmUpdate():mle-diag-gmm.cc:359) Too little data - removing Gaussian (weight 0.000219, occupation count 9.564016, vector size 40)
WARNING (gmm-est[5.5.23-c81f5]:MleDiagGmmUpdate():mle-diag-gmm.cc:359) Too little data - removing Gaussian (weight 0.000218, occupation count 9.505312, vector size 40)
WARNING (gmm-est[5.5.23-c81f5]:MleDiagGmmUpdate():mle-diag-gmm.cc:359) Too little data - removing Gaussian (weight 0.000224, occupation count 9.784622, vector size 40)
WARNING (gmm-est[5.5.23-c81f5]:MleDiagGmmUpdate():mle-diag-gmm.cc:359) Too little data - removing Gaussian (weight 0.000218, occupation count 9.526440, vector size 40)
WARNING (gmm-est[5.5.23-c81f5]:MleDiagGmmUpdate():mle-diag-gmm.cc:359) Too little data - removing Gaussian (weight 0.000217, occupation count 9.493789, vector size 40)
WARNING (gmm-est[5.5.23-c81f5]:MleDiagGmmUpdate():mle-diag-gmm.cc:359) Too little data - removing Gaussian (weight 0.000204, occupation count 8.885807, vector size 40)
WARNING (gmm-est[5.5.23-c81f5]:MleDiagGmmUpdate():mle-diag-gmm.cc:359) Too little data - removing Gaussian (weight 0.000215, occupation count 9.373131, vector size 40)
WARNING (gmm-est[5.5.23-c81f5]:MleDiagGmmUpdate():mle-diag-gmm.cc:359) Too little data - removing Gaussian (weight 0.000209, occupation count 9.113035, vector size 40)
WARNING (gmm-est[5.5.23-c81f5]:MleDiagGmmUpdate():mle-diag-gmm.cc:359) Too little data - removing Gaussian (weight 0.000217, occupation count 9.473902, vector size 40)
WARNING (gmm-est[5.5.23-c81f5]:MleDiagGmmUpdate():mle-diag-gmm.cc:359) Too little data - removing Gaussian (weight 0.000221, occupation count 9.644156, vector size 40)
WARNING (gmm-est[5.5.23-c81f5]:MleDiagGmmUpdate():mle-diag-gmm.cc:359) Too little data - removing Gaussian (weight 0.000221, occupation count 9.650574, vector size 40)
WARNING (gmm-est[5.5.23-c81f5]:MleDiagGmmUpdate():mle-diag-gmm.cc:359) Too little data - removing Gaussian (weight 0.000207, occupation count 9.022476, vector size 40)
WARNING (gmm-est[5.5.23-c81f5]:MleDiagGmmUpdate():mle-diag-gmm.cc:359) Too little data - removing Gaussian (weight 0.000212, occupation count 9.237494, vector size 40)
WARNING (gmm-est[5.5.23-c81f5]:MleDiagGmmUpdate():mle-diag-gmm.cc:359) Too little data - removing Gaussian (weight 0.000216, occupation count 9.425657, vector size 40)
WARNING (gmm-est[5.5.23-c81f5]:MleDiagGmmUpdate():mle-diag-gmm.cc:359) Too little data - removing Gaussian (weight 0.000223, occupation count 9.740326, vector size 40)
WARNING (gmm-est[5.5.23-c81f5]:MleDiagGmmUpdate():mle-diag-gmm.cc:359) Too little data - removing Gaussian (weight 0.000216, occupation count 9.414192, vector size 40)
WARNING (gmm-est[5.5.23-c81f5]:MleDiagGmmUpdate():mle-diag-gmm.cc:359) Too little data - removing Gaussian (weight 0.000213, occupation count 9.318722, vector size 40)
WARNING (gmm-est[5.5.23-c81f5]:MleDiagGmmUpdate():mle-diag-gmm.cc:359) Too little data - removing Gaussian (weight 0.000228, occupation count 9.935818, vector size 40)
WARNING (gmm-est[5.5.23-c81f5]:MleDiagGmmUpdate():mle-diag-gmm.cc:359) Too little data - removing Gaussian (weight 0.000220, occupation count 9.623139, vector size 40)
WARNING (gmm-est[5.5.23-c81f5]:MleDiagGmmUpdate():mle-diag-gmm.cc:359) Too little data - removing Gaussian (weight 0.000224, occupation count 9.798839, vector size 40)
WARNING (gmm-est[5.5.23-c81f5]:MleDiagGmmUpdate():mle-diag-gmm.cc:359) Too little data - removing Gaussian (weight 0.000212, occupation count 9.254501, vector size 40)
WARNING (gmm-est[5.5.23-c81f5]:MleDiagGmmUpdate():mle-diag-gmm.cc:359) Too little data - removing Gaussian (weight 0.000226, occupation count 9.870861, vector size 40)
WARNING (gmm-est[5.5.23-c81f5]:MleDiagGmmUpdate():mle-diag-gmm.cc:359) Too little data - removing Gaussian (weight 0.000185, occupation count 8.071996, vector size 40)
WARNING (gmm-est[5.5.23-c81f5]:MleDiagGmmUpdate():mle-diag-gmm.cc:359) Too little data - removing Gaussian (weight 0.000209, occupation count 9.108885, vector size 40)
WARNING (gmm-est[5.5.23-c81f5]:MleDiagGmmUpdate():mle-diag-gmm.cc:359) Too little data - removing Gaussian (weight 0.000211, occupation count 9.231822, vector size 40)
WARNING (gmm-est[5.5.23-c81f5]:MleDiagGmmUpdate():mle-diag-gmm.cc:359) Too little data - removing Gaussian (weight 0.000226, occupation count 9.875976, vector size 40)
WARNING (gmm-est[5.5.23-c81f5]:MleDiagGmmUpdate():mle-diag-gmm.cc:359) Too little data - removing Gaussian (weight 0.000221, occupation count 9.641115, vector size 40)
WARNING (gmm-est[5.5.23-c81f5]:MleDiagGmmUpdate():mle-diag-gmm.cc:359) Too little data - removing Gaussian (weight 0.000212, occupation count 9.264643, vector size 40)
WARNING (gmm-est[5.5.23-c81f5]:MleDiagGmmUpdate():mle-diag-gmm.cc:359) Too little data - removing Gaussian (weight 0.000208, occupation count 9.088531, vector size 40)
WARNING (gmm-est[5.5.23-c81f5]:MleDiagGmmUpdate():mle-diag-gmm.cc:359) Too little data - removing Gaussian (weight 0.000887, occupation count 9.903159, vector size 40)
WARNING (gmm-est[5.5.23-c81f5]:MleDiagGmmUpdate():mle-diag-gmm.cc:359) Too little data - removing Gaussian (weight 0.000893, occupation count 9.970012, vector size 40)
WARNING (gmm-est[5.5.23-c81f5]:MleDiagGmmUpdate():mle-diag-gmm.cc:359) Too little data - removing Gaussian (weight 0.000836, occupation count 9.335492, vector size 40)
WARNING (gmm-est[5.5.23-c81f5]:MleDiagGmmUpdate():mle-diag-gmm.cc:359) Too little data - removing Gaussian (weight 0.000870, occupation count 9.712760, vector size 40)
WARNING (gmm-est[5.5.23-c81f5]:MleDiagGmmUpdate():mle-diag-gmm.cc:359) Too little data - removing Gaussian (weight 0.000894, occupation count 9.981459, vector size 40)
WARNING (gmm-est[5.5.23-c81f5]:MleDiagGmmUpdate():mle-diag-gmm.cc:359) Too little data - removing Gaussian (weight 0.009288, occupation count 9.947888, vector size 40)
WARNING (gmm-est[5.5.23-c81f5]:MleDiagGmmUpdate():mle-diag-gmm.cc:359) Too little data - removing Gaussian (weight 0.001224, occupation count 8.159470, vector size 40)
WARNING (gmm-est[5.5.23-c81f5]:MleDiagGmmUpdate():mle-diag-gmm.cc:359) Too little data - removing Gaussian (weight 0.001445, occupation count 9.630306, vector size 40)
WARNING (gmm-est[5.5.23-c81f5]:MleDiagGmmUpdate():mle-diag-gmm.cc:359) Too little data - removing Gaussian (weight 0.001421, occupation count 9.472889, vector size 40)
WARNING (gmm-est[5.5.23-c81f5]:MleDiagGmmUpdate():mle-diag-gmm.cc:359) Too little data - removing Gaussian (weight 0.024813, occupation count 9.999771, vector size 40)
WARNING (gmm-est[5.5.23-c81f5]:MleDiagGmmUpdate():mle-diag-gmm.cc:359) Too little data - removing Gaussian (weight 0.014854, occupation count 9.863304, vector size 40)
WARNING (gmm-est[5.5.23-c81f5]:MleDiagGmmUpdate():mle-diag-gmm.cc:359) Too little data - removing Gaussian (weight 0.028854, occupation count 9.983432, vector size 40)
WARNING (gmm-est[5.5.23-c81f5]:MleDiagGmmUpdate():mle-diag-gmm.cc:359) Too little data - removing Gaussian (weight 0.006152, occupation count 9.972802, vector size 40)
WARNING (gmm-est[5.5.23-c81f5]:MleDiagGmmUpdate():mle-diag-gmm.cc:359) Too little data - removing Gaussian (weight 0.055856, occupation count 9.998137, vector size 40)
WARNING (gmm-est[5.5.23-c81f5]:MleDiagGmmUpdate():mle-diag-gmm.cc:359) Too little data - removing Gaussian (weight 0.025077, occupation count 9.855168, vector size 40)
WARNING (gmm-est[5.5.23-c81f5]:MleDiagGmmUpdate():mle-diag-gmm.cc:359) Too little data - removing Gaussian (weight 0.017066, occupation count 9.386314, vector size 40)
WARNING (gmm-est[5.5.23-c81f5]:MleDiagGmmUpdate():mle-diag-gmm.cc:359) Too little data - removing Gaussian (weight 0.008169, occupation count 9.941161, vector size 40)
WARNING (gmm-est[5.5.23-c81f5]:MleDiagGmmUpdate():mle-diag-gmm.cc:365) Gaussian has too little data but not removing it because it is the last Gaussian: i = 0, occ = 8, weight = 1
WARNING (gmm-est[5.5.23-c81f5]:MleDiagGmmUpdate():mle-diag-gmm.cc:359) Too little data - removing Gaussian (weight 0.023202, occupation count 9.999999, vector size 40)
WARNING (gmm-est[5.5.23-c81f5]:MleDiagGmmUpdate():mle-diag-gmm.cc:359) Too little data - removing Gaussian (weight 0.020516, occupation count 9.888916, vector size 40)
WARNING (gmm-est[5.5.23-c81f5]:MleDiagGmmUpdate():mle-diag-gmm.cc:359) Too little data - removing Gaussian (weight 0.116882, occupation count 9.934996, vector size 40)
LOG (gmm-est[5.5.23-c81f5]:MleAmDiagGmmUpdate():mle-am-diag-gmm.cc:225) 0 variance elements floored in 0 Gaussians, out of 14291
LOG (gmm-est[5.5.23-c81f5]:MleAmDiagGmmUpdate():mle-am-diag-gmm.cc:229) Removed 75 Gaussians due to counts < --min-gaussian-occupancy=10 and --remove-low-count-gaussians=true
LOG (gmm-est[5.5.23-c81f5]:main():gmm-est.cc:113) GMM update: Overall 0.096656 objective function improvement per frame over 295041 frames
LOG (gmm-est[5.5.23-c81f5]:main():gmm-est.cc:116) GMM update: Overall avg like per frame = -44.9905 over 295041 frames.
WARNING (gmm-est[5.5.23-c81f5]:GetSplitTargets():model-common.cc:134) Could not split up to 33360 due to min-count = 20 (or no counts at all)
LOG (gmm-est[5.5.23-c81f5]:SplitByCount():am-diag-gmm.cc:116) Split 880 states with target = 33360, power = 0.2, perturb_factor = 0.01 and min_count = 20, split #Gauss from 14291 to 14365
LOG (gmm-est[5.5.23-c81f5]:main():gmm-est.cc:146) Written model to exp/tri3b/15.mdl
# Accounting: time=0 threads=1
# Ended (code 0) at Sun Jan 20 14:45:21 -02 2019, elapsed time 0 seconds
