# lattice-best-path --lm-scale=17 --word-symbol-table=exp/tri3b/graph/words.txt "ark:gunzip -c exp/nnet3/tdnn_sp/decode_test/lat.*.gz|" ark,t:exp/nnet3/tdnn_sp/decode_test/scoring/17.tra 
# Started at Tue Jan 22 12:16:19 -02 2019
#
lattice-best-path --lm-scale=17 --word-symbol-table=exp/tri3b/graph/words.txt 'ark:gunzip -c exp/nnet3/tdnn_sp/decode_test/lat.*.gz|' ark,t:exp/nnet3/tdnn_sp/decode_test/scoring/17.tra 
LOG (lattice-best-path[5.5.23-c81f5]:main():lattice-best-path.cc:99) For utterance LapsBMF004_LapsBM_0061, best cost 1255.31 + -3455.47 = -2200.16 over 425 frames.
LapsBMF004_LapsBM_0061 algumas coisas que não podem deixar de serem vistas em paris 
LOG (lattice-best-path[5.5.23-c81f5]:main():lattice-best-path.cc:99) For utterance LapsBMF004_LapsBM_0062, best cost 1117.91 + -3434.61 = -2316.7 over 442 frames.
LapsBMF004_LapsBM_0062 há demanda por real não por dólar cuja cotação cai 
LOG (lattice-best-path[5.5.23-c81f5]:main():lattice-best-path.cc:99) For utterance LapsBMF004_LapsBM_0063, best cost 1341.1 + -3489.57 = -2148.48 over 476 frames.
LapsBMF004_LapsBM_0063 há cento e setenta bilhões de moedas de um centavo em circulação 
LOG (lattice-best-path[5.5.23-c81f5]:main():lattice-best-path.cc:99) For utterance LapsBMF004_LapsBM_0064, best cost 950.466 + -2637.94 = -1687.48 over 339 frames.
LapsBMF004_LapsBM_0064 cada uma delas custa oito décimos de um centavo 
LOG (lattice-best-path[5.5.23-c81f5]:main():lattice-best-path.cc:99) For utterance LapsBMF004_LapsBM_0065, best cost 1012.22 + -2847.12 = -1834.9 over 390 frames.
LapsBMF004_LapsBM_0065 mercado fica de alto risco a curto prazo 
LOG (lattice-best-path[5.5.23-c81f5]:main():lattice-best-path.cc:99) For utterance LapsBMF004_LapsBM_0066, best cost 1165.24 + -3366.69 = -2201.44 over 442 frames.
LapsBMF004_LapsBM_0066 a perspectiva continua otimista para o leste longo prazos 
LOG (lattice-best-path[5.5.23-c81f5]:main():lattice-best-path.cc:99) For utterance LapsBMF004_LapsBM_0067, best cost 1026.38 + -3243.26 = -2216.87 over 459 frames.
LapsBMF004_LapsBM_0067 o desafio agora controlar com medicamentos essa secreção 
LOG (lattice-best-path[5.5.23-c81f5]:main():lattice-best-path.cc:99) For utterance LapsBMF004_LapsBM_0068, best cost 1079.51 + -2854.26 = -1774.75 over 373 frames.
LapsBMF004_LapsBM_0068 o jogo contra a suécia deixou todo país preocupado 
LOG (lattice-best-path[5.5.23-c81f5]:main():lattice-best-path.cc:99) For utterance LapsBMF004_LapsBM_0069, best cost 1365.53 + -3153.14 = -1787.61 over 390 frames.
LapsBMF004_LapsBM_0069 está instalado na casa do avô de lúcia faixa de lima 
LOG (lattice-best-path[5.5.23-c81f5]:main():lattice-best-path.cc:99) For utterance LapsBMF004_LapsBM_0070, best cost 1027.85 + -3420.02 = -2392.17 over 425 frames.
LapsBMF004_LapsBM_0070 funcionários governo do estado dão orientação técnica aos voluntários 
LOG (lattice-best-path[5.5.23-c81f5]:main():lattice-best-path.cc:99) For utterance LapsBMF004_LapsBM_0071, best cost 1109.45 + -3146.84 = -2037.39 over 390 frames.
LapsBMF004_LapsBM_0071 o ministério diz que não foi consultado sobre a transação 
LOG (lattice-best-path[5.5.23-c81f5]:main():lattice-best-path.cc:99) For utterance LapsBMF004_LapsBM_0072, best cost 1254.25 + -3299.07 = -2044.82 over 407 frames.
LapsBMF004_LapsBM_0072 este ano empresa deve perder cerca de sete milhões de dólares 
LOG (lattice-best-path[5.5.23-c81f5]:main():lattice-best-path.cc:99) For utterance LapsBMF004_LapsBM_0073, best cost 969.428 + -2617.08 = -1647.65 over 356 frames.
LapsBMF004_LapsBM_0073 ela começou a tirar fotos ontem em buenos aires 
LOG (lattice-best-path[5.5.23-c81f5]:main():lattice-best-path.cc:99) For utterance LapsBMF004_LapsBM_0074, best cost 1333.15 + -3238.06 = -1904.91 over 442 frames.
LapsBMF004_LapsBM_0074 os ele se comprometeu a ler e responder parte da minha correspondência 
LOG (lattice-best-path[5.5.23-c81f5]:main():lattice-best-path.cc:99) For utterance LapsBMF004_LapsBM_0075, best cost 1137.2 + -3629.87 = -2492.67 over 459 frames.
LapsBMF004_LapsBM_0075 os brasileiros no exterior ganharam um poder aquisitivo sem precedentes 
LOG (lattice-best-path[5.5.23-c81f5]:main():lattice-best-path.cc:99) For utterance LapsBMF004_LapsBM_0076, best cost 895.358 + -2578.6 = -1683.24 over 305 frames.
LapsBMF004_LapsBM_0076 o objetivo é abordar todas as fases da ópera 
LOG (lattice-best-path[5.5.23-c81f5]:main():lattice-best-path.cc:99) For utterance LapsBMF004_LapsBM_0077, best cost 972.427 + -1926.54 = -954.112 over 271 frames.
LapsBMF004_LapsBM_0077 o curso é diário tem duração de três meses 
LOG (lattice-best-path[5.5.23-c81f5]:main():lattice-best-path.cc:99) For utterance LapsBMF004_LapsBM_0078, best cost 1093.24 + -3285.19 = -2191.94 over 425 frames.
LapsBMF004_LapsBM_0078 os jogadores santistas deixaram gramado sob vaias da torcida 
LOG (lattice-best-path[5.5.23-c81f5]:main():lattice-best-path.cc:99) For utterance LapsBMF004_LapsBM_0079, best cost 1234.65 + -3723.01 = -2488.35 over 493 frames.
LapsBMF004_LapsBM_0079 a torcida voltou a criticar a atual administração e não economizou críticas 
LOG (lattice-best-path[5.5.23-c81f5]:main():lattice-best-path.cc:99) For utterance LapsBMF004_LapsBM_0080, best cost 1195.72 + -3535.1 = -2339.37 over 459 frames.
LapsBMF004_LapsBM_0080 a infraero ainda não sabe em qual dos dois aeroportos alexandre embarcou 
LOG (lattice-best-path[5.5.23-c81f5]:main():lattice-best-path.cc:99) For utterance LapsBMM001_LapsBM_0001, best cost 1021.34 + -2595.58 = -1574.24 over 373 frames.
LapsBMM001_LapsBM_0001 pesquisa é uma coisa que muda a toda hora 
LOG (lattice-best-path[5.5.23-c81f5]:main():lattice-best-path.cc:99) For utterance LapsBMM001_LapsBM_0002, best cost 1054.11 + -4151.6 = -3097.49 over 595 frames.
LapsBMM001_LapsBM_0002 no total serão chamados vinte e seis mil candidatos 
LOG (lattice-best-path[5.5.23-c81f5]:main():lattice-best-path.cc:99) For utterance LapsBMM001_LapsBM_0003, best cost 1159.08 + -3488.85 = -2329.77 over 493 frames.
LapsBMM001_LapsBM_0003 o número de convocados por vaga é de doze candidatos 
LOG (lattice-best-path[5.5.23-c81f5]:main():lattice-best-path.cc:99) For utterance LapsBMM001_LapsBM_0004, best cost 1422.64 + -4722.39 = -3299.74 over 646 frames.
LapsBMM001_LapsBM_0004 atualmente esse abatimento é limitado a setenta por cento dos gastos 
LOG (lattice-best-path[5.5.23-c81f5]:main():lattice-best-path.cc:99) For utterance LapsBMM001_LapsBM_0005, best cost 992.499 + -3875.17 = -2882.68 over 578 frames.
LapsBMM001_LapsBM_0005 sandra regina machado acho que ela enfim criou juízo 
LOG (lattice-best-path[5.5.23-c81f5]:main():lattice-best-path.cc:99) For utterance LapsBMM001_LapsBM_0006, best cost 1259.4 + -4223.69 = -2964.28 over 595 frames.
LapsBMM001_LapsBM_0006 eles estão colocando armadilhas nas fazendas onde já ocorreram os ataques 
LOG (lattice-best-path[5.5.23-c81f5]:main():lattice-best-path.cc:99) For utterance LapsBMM001_LapsBM_0007, best cost 1367.64 + -4762.78 = -3395.14 over 681 frames.
LapsBMM001_LapsBM_0007 dessas somente umas trezentas e vinte foram inauguradas em território americano 
LOG (lattice-best-path[5.5.23-c81f5]:main():lattice-best-path.cc:99) For utterance LapsBMM001_LapsBM_0008, best cost 1077.62 + -3961.41 = -2883.79 over 538 frames.
LapsBMM001_LapsBM_0008 no total sete mísseis foram disparados contra o encrave 
LOG (lattice-best-path[5.5.23-c81f5]:main():lattice-best-path.cc:99) For utterance LapsBMM001_LapsBM_0009, best cost 1397.85 + -4348.54 = -2950.69 over 629 frames.
LapsBMM001_LapsBM_0009 em florianópolis foi registrado dois graus celsius na manhã de domingo 
LOG (lattice-best-path[5.5.23-c81f5]:main():lattice-best-path.cc:99) For utterance LapsBMM001_LapsBM_0010, best cost 1078.87 + -4267.25 = -3188.38 over 612 frames.
LapsBMM001_LapsBM_0010 as situações ditas embaraçosas são resolvidas com os danos 
LOG (lattice-best-path[5.5.23-c81f5]:main():lattice-best-path.cc:99) For utterance LapsBMM001_LapsBM_0011, best cost 1442.44 + -4198.01 = -2755.57 over 578 frames.
LapsBMM001_LapsBM_0011 itamar tem razão de estar exultante como outro desde que virou presidente 
LOG (lattice-best-path[5.5.23-c81f5]:main():lattice-best-path.cc:99) For utterance LapsBMM001_LapsBM_0012, best cost 1159.01 + -2805.24 = -1646.23 over 425 frames.
LapsBMM001_LapsBM_0012 além de todas as reformas é a reforma política 
LOG (lattice-best-path[5.5.23-c81f5]:main():lattice-best-path.cc:99) For utterance LapsBMM001_LapsBM_0013, best cost 1059.24 + -3873.48 = -2814.24 over 629 frames.
LapsBMM001_LapsBM_0013 conseguiram eliminar áreas supérfluas ou que antes eram desperdiçadas 
LOG (lattice-best-path[5.5.23-c81f5]:main():lattice-best-path.cc:99) For utterance LapsBMM001_LapsBM_0014, best cost 1107.02 + -3158.9 = -2051.88 over 493 frames.
LapsBMM001_LapsBM_0014 lata de leite em pó integral vale um ingresso 
LOG (lattice-best-path[5.5.23-c81f5]:main():lattice-best-path.cc:99) For utterance LapsBMM001_LapsBM_0015, best cost 1172.17 + -3940.82 = -2768.65 over 561 frames.
LapsBMM001_LapsBM_0015 a maioria dos passageiros do barco naufragado era de crianças 
LOG (lattice-best-path[5.5.23-c81f5]:main():lattice-best-path.cc:99) For utterance LapsBMM001_LapsBM_0016, best cost 1230.23 + -3551.59 = -2321.36 over 510 frames.
LapsBMM001_LapsBM_0016 a provável causa do acidente foi excesso de lotação a bordo 
LOG (lattice-best-path[5.5.23-c81f5]:main():lattice-best-path.cc:99) For utterance LapsBMM001_LapsBM_0017, best cost 1203.22 + -3385.91 = -2182.69 over 493 frames.
LapsBMM001_LapsBM_0017 não prometo nada porque não adianta eu prometer e não cumprir 
LOG (lattice-best-path[5.5.23-c81f5]:main():lattice-best-path.cc:99) For utterance LapsBMM001_LapsBM_0018, best cost 973.738 + -2543.39 = -1569.65 over 425 frames.
LapsBMM001_LapsBM_0018 o se for eleito vocês vão meu trabalho 
LOG (lattice-best-path[5.5.23-c81f5]:main():lattice-best-path.cc:99) For utterance LapsBMM001_LapsBM_0019, best cost 1133.27 + -3442.46 = -2309.19 over 527 frames.
LapsBMM001_LapsBM_0019 ele era um dos poucos atores negros que tinham espaço 
LOG (lattice-best-path[5.5.23-c81f5]:main():lattice-best-path.cc:99) For utterance LapsBMM001_LapsBM_0020, best cost 1324.88 + -4775.76 = -3450.88 over 646 frames.
LapsBMM001_LapsBM_0020 a secretaria estadual de saúde distribuirá cem mil preservativos no carnaval 
LOG (lattice-best-path[5.5.23-c81f5]:main():lattice-best-path.cc:99) For utterance LapsBMM034_LapsBM_0661, best cost 1098.11 + -3161.05 = -2062.94 over 369 frames.
LapsBMM034_LapsBM_0661 os danos são avaliados em cerca de dois milhões de dólares 
LOG (lattice-best-path[5.5.23-c81f5]:main():lattice-best-path.cc:99) For utterance LapsBMM034_LapsBM_0662, best cost 1198.23 + -3562.11 = -2363.88 over 476 frames.
LapsBMM034_LapsBM_0662 daria estar vendo as américas sob uma ótica totalmente deturpada 
LOG (lattice-best-path[5.5.23-c81f5]:main():lattice-best-path.cc:99) For utterance LapsBMM034_LapsBM_0663, best cost 1155.65 + -3093.36 = -1937.7 over 476 frames.
LapsBMM034_LapsBM_0663 a maior parte dos títulos raros está em rolos com essa largura 
LOG (lattice-best-path[5.5.23-c81f5]:main():lattice-best-path.cc:99) For utterance LapsBMM034_LapsBM_0664, best cost 1263.28 + -3492.89 = -2229.61 over 476 frames.
LapsBMM034_LapsBM_0664 ele controla as principais operações do micro é considerado seu cérebro 
LOG (lattice-best-path[5.5.23-c81f5]:main():lattice-best-path.cc:99) For utterance LapsBMM034_LapsBM_0665, best cost 999.571 + -3322.53 = -2322.96 over 407 frames.
LapsBMM034_LapsBM_0665 os jogadores treinaram pênaltis pela segunda vez na semana 
LOG (lattice-best-path[5.5.23-c81f5]:main():lattice-best-path.cc:99) For utterance LapsBMM034_LapsBM_0666, best cost 1076.66 + -2805.62 = -1728.96 over 390 frames.
LapsBMM034_LapsBM_0666 aí estão alguns endereços para você se divertir muito gol 
LOG (lattice-best-path[5.5.23-c81f5]:main():lattice-best-path.cc:99) For utterance LapsBMM034_LapsBM_0667, best cost 1134.3 + -3998.27 = -2863.97 over 493 frames.
LapsBMM034_LapsBM_0667 vocabulário da sexualidade foi reaparecendo progressivamente há dez anos 
LOG (lattice-best-path[5.5.23-c81f5]:main():lattice-best-path.cc:99) For utterance LapsBMM034_LapsBM_0668, best cost 1251.11 + -3688.33 = -2437.22 over 459 frames.
LapsBMM034_LapsBM_0668 junto dela havia vinte e dois livros com contabilidade do bicheiro 
LOG (lattice-best-path[5.5.23-c81f5]:main():lattice-best-path.cc:99) For utterance LapsBMM034_LapsBM_0669, best cost 1075.97 + -3196.08 = -2120.11 over 425 frames.
LapsBMM034_LapsBM_0669 a agência já possui cerca de vinte e cinco profissionais cadastrados 
LOG (lattice-best-path[5.5.23-c81f5]:main():lattice-best-path.cc:99) For utterance LapsBMM034_LapsBM_0670, best cost 1154.06 + -3025.19 = -1871.13 over 425 frames.
LapsBMM034_LapsBM_0670 se houver pênalti durante o jogo o cobrador deverá ser bebeto 
LOG (lattice-best-path[5.5.23-c81f5]:main():lattice-best-path.cc:99) For utterance LapsBMM034_LapsBM_0671, best cost 1189.43 + -2758.62 = -1569.19 over 373 frames.
LapsBMM034_LapsBM_0671 casal de argentinos reclama de hotel de luxo salvador 
LOG (lattice-best-path[5.5.23-c81f5]:main():lattice-best-path.cc:99) For utterance LapsBMM034_LapsBM_0672, best cost 960.664 + -2438.14 = -1477.48 over 356 frames.
LapsBMM034_LapsBM_0672 nem sempre hospitalidade baiana faz jus à fama 
LOG (lattice-best-path[5.5.23-c81f5]:main():lattice-best-path.cc:99) For utterance LapsBMM034_LapsBM_0673, best cost 1086.25 + -3006.21 = -1919.96 over 425 frames.
LapsBMM034_LapsBM_0673 no hotel eles foram informados que não havia apartamento disponível 
LOG (lattice-best-path[5.5.23-c81f5]:main():lattice-best-path.cc:99) For utterance LapsBMM034_LapsBM_0674, best cost 971.876 + -2956.05 = -1984.17 over 390 frames.
LapsBMM034_LapsBM_0674 a lei estabelece maio como referência para este cálculo 
LOG (lattice-best-path[5.5.23-c81f5]:main():lattice-best-path.cc:99) For utterance LapsBMM034_LapsBM_0675, best cost 806.763 + -2869.91 = -2063.15 over 390 frames.
LapsBMM034_LapsBM_0675 as entradas podem ser adquiridas pelo telefone acima 
LOG (lattice-best-path[5.5.23-c81f5]:main():lattice-best-path.cc:99) For utterance LapsBMM034_LapsBM_0676, best cost 1089.53 + -3074.41 = -1984.88 over 442 frames.
LapsBMM034_LapsBM_0676 é segunda greve convocada pelos aeroportuários em um mês 
LOG (lattice-best-path[5.5.23-c81f5]:main():lattice-best-path.cc:99) For utterance LapsBMM034_LapsBM_0677, best cost 952.611 + -3297.37 = -2344.76 over 407 frames.
LapsBMM034_LapsBM_0677 aliados do tucano preveem que essas lideranças ficarão neutras 
LOG (lattice-best-path[5.5.23-c81f5]:main():lattice-best-path.cc:99) For utterance LapsBMM034_LapsBM_0678, best cost 1116.7 + -2843.36 = -1726.66 over 356 frames.
LapsBMM034_LapsBM_0678 nas cobranças de lateral só aparecia o pé do jogador 
LOG (lattice-best-path[5.5.23-c81f5]:main():lattice-best-path.cc:99) For utterance LapsBMM034_LapsBM_0679, best cost 1295.75 + -3051.65 = -1755.9 over 442 frames.
LapsBMM034_LapsBM_0679 no jogo contra honduras carro única imagem era gerada pela globo 
LOG (lattice-best-path[5.5.23-c81f5]:main():lattice-best-path.cc:99) For utterance LapsBMM034_LapsBM_0680, best cost 1110.58 + -3044.7 = -1934.11 over 425 frames.
LapsBMM034_LapsBM_0680 as consultas podem ser feitas por telefone ou por computador 
LOG (lattice-best-path[5.5.23-c81f5]:main():lattice-best-path.cc:124) Overall cost per frame is -4.83677 = 2.46983 [graph] + -7.30659 [acoustic] over 27597 frames.
LOG (lattice-best-path[5.5.23-c81f5]:main():lattice-best-path.cc:128) Done 60 lattices, failed for 0
# Accounting: time=0 threads=1
# Ended (code 0) at Tue Jan 22 12:16:19 -02 2019, elapsed time 0 seconds
