# vector-sum exp/nnet3/tdnn_sp/post.combined.1.vec exp/nnet3/tdnn_sp/post.combined.10.vec exp/nnet3/tdnn_sp/post.combined.2.vec exp/nnet3/tdnn_sp/post.combined.3.vec exp/nnet3/tdnn_sp/post.combined.4.vec exp/nnet3/tdnn_sp/post.combined.5.vec exp/nnet3/tdnn_sp/post.combined.6.vec exp/nnet3/tdnn_sp/post.combined.7.vec exp/nnet3/tdnn_sp/post.combined.8.vec exp/nnet3/tdnn_sp/post.combined.9.vec exp/nnet3/tdnn_sp/post.combined.vec 
# Started at Tue Jan 22 12:15:49 -02 2019
#
vector-sum exp/nnet3/tdnn_sp/post.combined.1.vec exp/nnet3/tdnn_sp/post.combined.10.vec exp/nnet3/tdnn_sp/post.combined.2.vec exp/nnet3/tdnn_sp/post.combined.3.vec exp/nnet3/tdnn_sp/post.combined.4.vec exp/nnet3/tdnn_sp/post.combined.5.vec exp/nnet3/tdnn_sp/post.combined.6.vec exp/nnet3/tdnn_sp/post.combined.7.vec exp/nnet3/tdnn_sp/post.combined.8.vec exp/nnet3/tdnn_sp/post.combined.9.vec exp/nnet3/tdnn_sp/post.combined.vec 
LOG (vector-sum[5.5.23-c81f5]:TypeThreeUsage():vector-sum.cc:175) Summed 10 vectors; wrote sum to exp/nnet3/tdnn_sp/post.combined.vec
# Accounting: time=0 threads=1
# Ended (code 0) at Tue Jan 22 12:15:49 -02 2019, elapsed time 0 seconds
