(B[m[1m 7826 debatin   20   0  525732  82184  47980 R  93,8   0,5   0:00.34 ocsr-desktop                                                                                                 (B[m[39;49m[K
(B[m[1m 7826 debatin   20   0  533588  90420  47980 R 100,0   0,6   0:01.00 ocsr-desktop                                                                                                 (B[m[39;49m[K
(B[m[1m 7826 debatin   20   0  533588  90424  47980 R 100,0   0,6   0:01.67 ocsr-desktop                                                                                                 (B[m[39;49m[K
(B[m[1m 7826 debatin   20   0  533588  90424  47980 R 100,0   0,6   0:02.33 ocsr-desktop                                                                                                 (B[m[39;49m[K
(B[m[1m 7826 debatin   20   0  533724  90724  47980 R 106,7   0,6   0:02.99 ocsr-desktop                                                                                                 (B[m[39;49m[K
(B[m[1m 7826 debatin   20   0  533724  90744  47980 R 100,0   0,6   0:03.64 ocsr-desktop                                                                                                 (B[m[39;49m[K
(B[m[1m 7826 debatin   20   0  533724  90744  47980 R  93,8   0,6   0:04.31 ocsr-desktop                                                                                                 (B[m[39;49m[K
(B[m[1m 7826 debatin   20   0  533724  90744  47980 R 100,0   0,6   0:04.97 ocsr-desktop                                                                                                 (B[m[39;49m[K
(B[m[1m 7826 debatin   20   0  533724  90744  47980 R 100,0   0,6   0:05.64 ocsr-desktop                                                                                                 (B[m[39;49m[K
(B[m[1m 7826 debatin   20   0  533876  90800  47980 R 100,0   0,6   0:06.30 ocsr-desktop                                                                                                 (B[m[39;49m[K
(B[m[1m 7826 debatin   20   0  533876  90804  47980 R 100,0   0,6   0:06.96 ocsr-desktop                                                                                                 (B[m[39;49m[K
(B[m[1m 7826 debatin   20   0  533876  90804  47980 R  93,8   0,6   0:07.62 ocsr-desktop                                                                                                 (B[m[39;49m[K
(B[m[1m 7826 debatin   20   0  533876  90804  47980 R 106,7   0,6   0:08.29 ocsr-desktop                                                                                                 (B[m[39;49m[K
(B[m[1m 7826 debatin   20   0  533876  90804  47980 R 106,7   0,6   0:08.95 ocsr-desktop                                                                                                 (B[m[39;49m[K
(B[m[1m 7826 debatin   20   0  533876  90828  47980 R 100,0   0,6   0:09.62 ocsr-desktop                                                                                                 (B[m[39;49m[K
(B[m[1m 7826 debatin   20   0  533876  90828  47980 R 100,0   0,6   0:10.27 ocsr-desktop                                                                                                 (B[m[39;49m[K
(B[m[1m 7826 debatin   20   0  533876  90828  47980 R 100,0   0,6   0:10.93 ocsr-desktop                                                                                                 (B[m[39;49m[K
(B[m[1m 7826 debatin   20   0  533876  90828  47980 R 106,7   0,6   0:11.60 ocsr-desktop                                                                                                 (B[m[39;49m[K
(B[m[1m 7826 debatin   20   0  533876  90828  47980 R  93,8   0,6   0:12.26 ocsr-desktop                                                                                                 (B[m[39;49m[K
(B[m[1m 7826 debatin   20   0  533876  90848  47980 R 100,0   0,6   0:12.92 ocsr-desktop                                                                                                 (B[m[39;49m[K
(B[m[1m 7826 debatin   20   0  533876  90856  47980 R 100,0   0,6   0:13.58 ocsr-desktop                                                                                                 (B[m[39;49m[K
(B[m[1m 7826 debatin   20   0  533876  90856  47980 R  93,8   0,6   0:14.24 ocsr-desktop                                                                                                 (B[m[39;49m[K
(B[m[1m 7826 debatin   20   0  533876  90856  47980 R 100,0   0,6   0:14.90 ocsr-desktop                                                                                                 (B[m[39;49m[K
(B[m[1m 7826 debatin   20   0  533876  90856  47980 R 106,7   0,6   0:15.57 ocsr-desktop                                                                                                 (B[m[39;49m[K
(B[m[1m 7826 debatin   20   0  533876  90856  47980 R 106,7   0,6   0:16.23 ocsr-desktop                                                                                                 (B[m[39;49m[K
(B[m[1m 7826 debatin   20   0  533876  90856  47980 R  93,8   0,6   0:16.88 ocsr-desktop                                                                                                 (B[m[39;49m[K
(B[m[1m 7826 debatin   20   0  533876  90856  47980 R 106,7   0,6   0:17.55 ocsr-desktop                                                                                                 (B[m[39;49m[K
(B[m[1m 7826 debatin   20   0  533876  90856  47980 R 100,0   0,6   0:18.21 ocsr-desktop                                                                                                 (B[m[39;49m[K
(B[m[1m 7826 debatin   20   0  533876  90856  47980 R  93,8   0,6   0:18.87 ocsr-desktop                                                                                                 (B[m[39;49m[K
(B[m[1m 7826 debatin   20   0  533876  90856  47980 R 100,0   0,6   0:19.53 ocsr-desktop                                                                                                 (B[m[39;49m[K
(B[m[1m 7826 debatin   20   0  533876  90856  47980 R 100,0   0,6   0:20.19 ocsr-desktop                                                                                                 (B[m[39;49m[K
(B[m[1m 7826 debatin   20   0  533876  90856  47980 R  93,8   0,6   0:20.86 ocsr-desktop                                                                                                 (B[m[39;49m[K
(B[m[1m 7826 debatin   20   0  533876  90856  47980 R 100,0   0,6   0:21.52 ocsr-desktop                                                                                                 (B[m[39;49m[K
(B[m[1m 7826 debatin   20   0  533876  90856  47980 R 100,0   0,6   0:22.18 ocsr-desktop                                                                                                 (B[m[39;49m[K
(B[m[1m 7826 debatin   20   0  533876  90856  47980 R 100,0   0,6   0:22.84 ocsr-desktop                                                                                                 (B[m[39;49m[K
(B[m[1m 7826 debatin   20   0  533876  90856  47980 R  93,8   0,6   0:23.50 ocsr-desktop                                                                                                 (B[m[39;49m[K
(B[m[1m 7826 debatin   20   0  533876  90856  47980 R 100,0   0,6   0:24.17 ocsr-desktop                                                                                                 (B[m[39;49m[K
(B[m[1m 7826 debatin   20   0  533876  90864  47980 R 106,7   0,6   0:24.83 ocsr-desktop                                                                                                 (B[m[39;49m[K
(B[m[1m 7826 debatin   20   0  533876  90864  47980 R  93,8   0,6   0:25.49 ocsr-desktop                                                                                                 (B[m[39;49m[K
(B[m[1m 7826 debatin   20   0  533876  90864  47980 R 100,0   0,6   0:26.15 ocsr-desktop                                                                                                 (B[m[39;49m[K
(B[m[1m 7826 debatin   20   0  533876  90864  47980 R 100,0   0,6   0:26.82 ocsr-desktop                                                                                                 (B[m[39;49m[K
(B[m[1m 7826 debatin   20   0  533876  90864  47980 R  87,5   0,6   0:27.47 ocsr-desktop                                                                                                 (B[m[39;49m[K
(B[m[1m 7826 debatin   20   0  533876  90864  47980 R  93,8   0,6   0:28.14 ocsr-desktop                                                                                                 (B[m[39;49m[K
(B[m[1m 7826 debatin   20   0  533876  90864  47980 R 100,0   0,6   0:28.80 ocsr-desktop                                                                                                 (B[m[39;49m[K
(B[m[1m 7826 debatin   20   0  533876  91124  48168 R 100,0   0,6   0:29.47 ocsr-desktop                                                                                                 (B[m[39;49m[K
(B[m[1m 7826 debatin   20   0  533876  91124  48168 R  93,8   0,6   0:30.13 ocsr-desktop                                                                                                 (B[m[39;49m[K
(B[m[1m 7826 debatin   20   0  533876  91124  48168 R 100,0   0,6   0:30.79 ocsr-desktop                                                                                                 (B[m[39;49m[K
(B[m[1m 7826 debatin   20   0  533876  91124  48168 R 100,0   0,6   0:31.45 ocsr-desktop                                                                                                 (B[m[39;49m[K
(B[m[1m 7826 debatin   20   0  533876  91124  48168 R 100,0   0,6   0:32.11 ocsr-desktop                                                                                                 (B[m[39;49m[K
(B[m[1m 7826 debatin   20   0  533876  91124  48168 R  93,8   0,6   0:32.77 ocsr-desktop                                                                                                 (B[m[39;49m[K
(B[m[1m 7826 debatin   20   0  533876  91124  48168 R 100,0   0,6   0:33.43 ocsr-desktop                                                                                                 (B[m[39;49m[K
(B[m[1m 7826 debatin   20   0  533876  91124  48168 R 100,0   0,6   0:34.10 ocsr-desktop                                                                                                 (B[m[39;49m[K
(B[m[1m 7826 debatin   20   0  533876  91124  48168 R  93,8   0,6   0:34.76 ocsr-desktop                                                                                                 (B[m[39;49m[K
(B[m[1m 7826 debatin   20   0  533876  91124  48168 R 106,7   0,6   0:35.43 ocsr-desktop                                                                                                 (B[m[39;49m[K
(B[m[1m 7826 debatin   20   0  533876  91124  48168 R 100,0   0,6   0:36.09 ocsr-desktop                                                                                                 (B[m[39;49m[K
(B[m[1m 7826 debatin   20   0  533876  91124  48168 R  93,8   0,6   0:36.74 ocsr-desktop                                                                                                 (B[m[39;49m[K
(B[m[1m 7826 debatin   20   0  533876  91124  48168 R  93,3   0,6   0:37.40 ocsr-desktop                                                                                                 (B[m[39;49m[K
(B[m[1m 7826 debatin   20   0  533876  91124  48168 R 106,7   0,6   0:38.07 ocsr-desktop                                                                                                 (B[m[39;49m[K
(B[m[1m 7826 debatin   20   0  533876  91132  48168 R 100,0   0,6   0:38.73 ocsr-desktop                                                                                                 (B[m[39;49m[K
(B[m[1m 7826 debatin   20   0  533876  91132  48168 R  93,8   0,6   0:39.39 ocsr-desktop                                                                                                 (B[m[39;49m[K
(B[m[1m 7826 debatin   20   0  533876  91132  48168 R 100,0   0,6   0:40.05 ocsr-desktop                                                                                                 (B[m[39;49m[K
(B[m[1m 7826 debatin   20   0  533876  91132  48168 R 100,0   0,6   0:40.72 ocsr-desktop                                                                                                 (B[m[39;49m[K
(B[m[1m 7826 debatin   20   0  533876  91132  48168 R  93,8   0,6   0:41.38 ocsr-desktop                                                                                                 (B[m[39;49m[K
(B[m[1m 7826 debatin   20   0  533876  91132  48168 R 100,0   0,6   0:42.04 ocsr-desktop                                                                                                 (B[m[39;49m[K
(B[m[1m 7826 debatin   20   0  533876  91132  48168 R  93,3   0,6   0:42.70 ocsr-desktop                                                                                                 (B[m[39;49m[K
(B[m[1m 7826 debatin   20   0  533876  91132  48168 R 100,0   0,6   0:43.37 ocsr-desktop                                                                                                 (B[m[39;49m[K
(B[m[1m 7826 debatin   20   0  533876  91132  48168 R  93,8   0,6   0:44.02 ocsr-desktop                                                                                                 (B[m[39;49m[K
(B[m[1m 7826 debatin   20   0  533876  91132  48168 R 100,0   0,6   0:44.69 ocsr-desktop                                                                                                 (B[m[39;49m[K
(B[m[1m 7826 debatin   20   0  533876  91132  48168 R 106,7   0,6   0:45.36 ocsr-desktop                                                                                                 (B[m[39;49m[K
(B[m[1m 7826 debatin   20   0  533876  91132  48168 R  93,8   0,6   0:46.01 ocsr-desktop                                                                                                 (B[m[39;49m[K
(B[m[1m 7826 debatin   20   0  533876  91132  48168 R 100,0   0,6   0:46.67 ocsr-desktop                                                                                                 (B[m[39;49m[K
(B[m[1m 7826 debatin   20   0  533876  91132  48168 R 100,0   0,6   0:47.33 ocsr-desktop                                                                                                 (B[m[39;49m[K
(B[m[1m 7826 debatin   20   0  533876  91132  48168 R  93,8   0,6   0:48.00 ocsr-desktop                                                                                                 (B[m[39;49m[K
(B[m[1m 7826 debatin   20   0  533876  91132  48168 R 100,0   0,6   0:48.66 ocsr-desktop                                                                                                 (B[m[39;49m[K
(B[m[1m 7826 debatin   20   0  533876  91132  48168 R 100,0   0,6   0:49.32 ocsr-desktop                                                                                                 (B[m[39;49m[K
(B[m[1m 7826 debatin   20   0  533876  91132  48168 R 100,0   0,6   0:49.99 ocsr-desktop                                                                                                 (B[m[39;49m[K
(B[m[1m 7826 debatin   20   0  533876  91132  48168 R  93,8   0,6   0:50.65 ocsr-desktop                                                                                                 (B[m[39;49m[K
(B[m[1m 7826 debatin   20   0  533876  91132  48168 R 100,0   0,6   0:51.31 ocsr-desktop                                                                                                 (B[m[39;49m[K
(B[m[1m 7826 debatin   20   0  533876  91132  48168 R 100,0   0,6   0:51.97 ocsr-desktop                                                                                                 (B[m[39;49m[K
(B[m[1m 7826 debatin   20   0  533876  91132  48168 R 100,0   0,6   0:52.64 ocsr-desktop                                                                                                 (B[m[39;49m[K
(B[m[1m 7826 debatin   20   0  533876  91132  48168 R 100,0   0,6   0:53.30 ocsr-desktop                                                                                                 (B[m[39;49m[K
(B[m[1m 7826 debatin   20   0  533876  91132  48168 R 100,0   0,6   0:53.96 ocsr-desktop                                                                                                 (B[m[39;49m[K
(B[m[1m 7826 debatin   20   0  533876  91132  48168 R  93,8   0,6   0:54.62 ocsr-desktop                                                                                                 (B[m[39;49m[K
(B[m[1m 7826 debatin   20   0  533876  91132  48168 R  93,8   0,6   0:55.28 ocsr-desktop                                                                                                 (B[m[39;49m[K
(B[m[1m 7826 debatin   20   0  533876  91132  48168 R 100,0   0,6   0:55.95 ocsr-desktop                                                                                                 (B[m[39;49m[K
(B[m[1m 7826 debatin   20   0  533876  91132  48168 R 106,7   0,6   0:56.61 ocsr-desktop                                                                                                 (B[m[39;49m[K
(B[m[1m 7826 debatin   20   0  533876  91132  48168 R  93,8   0,6   0:57.27 ocsr-desktop                                                                                                 (B[m[39;49m[K
(B[m[1m 7826 debatin   20   0  533876  91132  48168 R 100,0   0,6   0:57.93 ocsr-desktop                                                                                                 (B[m[39;49m[K
(B[m[1m 7826 debatin   20   0  533876  91132  48168 R 100,0   0,6   0:58.59 ocsr-desktop                                                                                                 (B[m[39;49m[K
(B[m[1m 7826 debatin   20   0  533876  91132  48168 R  93,8   0,6   0:59.25 ocsr-desktop                                                                                                 (B[m[39;49m[K
(B[m[1m 7826 debatin   20   0  533876  91132  48168 R 100,0   0,6   0:59.91 ocsr-desktop                                                                                                 (B[m[39;49m[K
(B[m[1m 7826 debatin   20   0  533876  91132  48168 R 106,7   0,6   1:00.58 ocsr-desktop                                                                                                 (B[m[39;49m[K
(B[m[1m 7826 debatin   20   0  533876  91132  48168 R 106,7   0,6   1:01.24 ocsr-desktop                                                                                                 (B[m[39;49m[K
(B[m[1m 7826 debatin   20   0  533876  91132  48168 R 100,0   0,6   1:01.91 ocsr-desktop                                                                                                 (B[m[39;49m[K
(B[m[1m 7826 debatin   20   0  533876  91132  48168 R 100,0   0,6   1:02.56 ocsr-desktop                                                                                                 (B[m[39;49m[K
(B[m[1m 7826 debatin   20   0  533876  91132  48168 R 100,0   0,6   1:03.22 ocsr-desktop                                                                                                 (B[m[39;49m[K
(B[m[1m 7826 debatin   20   0  533876  91132  48168 R 100,0   0,6   1:03.89 ocsr-desktop                                                                                                 (B[m[39;49m[K
(B[m[1m 7826 debatin   20   0  533876  91132  48168 R 100,0   0,6   1:04.55 ocsr-desktop                                                                                                 (B[m[39;49m[K
(B[m[1m 7826 debatin   20   0  533876  91132  48168 R 100,0   0,6   1:05.22 ocsr-desktop                                                                                                 (B[m[39;49m[K
(B[m[1m 7826 debatin   20   0  533876  91132  48168 R  93,8   0,6   1:05.87 ocsr-desktop                                                                                                 (B[m[39;49m[K
(B[m[1m 7826 debatin   20   0  533876  91132  48168 R 100,0   0,6   1:06.54 ocsr-desktop                                                                                                 (B[m[39;49m[K
(B[m[1m 7826 debatin   20   0  533876  91132  48168 R 100,0   0,6   1:07.20 ocsr-desktop                                                                                                 (B[m[39;49m[K
(B[m[1m 7826 debatin   20   0  533876  91132  48168 R 106,7   0,6   1:07.86 ocsr-desktop                                                                                                 (B[m[39;49m[K
(B[m[1m 7826 debatin   20   0  533876  91132  48168 R 100,0   0,6   1:08.53 ocsr-desktop                                                                                                 (B[m[39;49m[K
(B[m[1m 7826 debatin   20   0  533876  91132  48168 R 100,0   0,6   1:09.19 ocsr-desktop                                                                                                 (B[m[39;49m[K
(B[m[1m 7826 debatin   20   0  533876  91132  48168 R 100,0   0,6   1:09.85 ocsr-desktop                                                                                                 (B[m[39;49m[K
(B[m[1m 7826 debatin   20   0  533876  91132  48168 R 100,0   0,6   1:10.51 ocsr-desktop                                                                                                 (B[m[39;49m[K
(B[m[1m 7826 debatin   20   0  533876  91132  48168 R 100,0   0,6   1:11.17 ocsr-desktop                                                                                                 (B[m[39;49m[K
(B[m[1m 7826 debatin   20   0  533876  91132  48168 R 100,0   0,6   1:11.83 ocsr-desktop                                                                                                 (B[m[39;49m[K
(B[m[1m 7826 debatin   20   0  533876  91132  48168 R 100,0   0,6   1:12.49 ocsr-desktop                                                                                                 (B[m[39;49m[K
(B[m[1m 7826 debatin   20   0  533876  91132  48168 R  93,8   0,6   1:13.16 ocsr-desktop                                                                                                 (B[m[39;49m[K
(B[m[1m 7826 debatin   20   0  533876  91132  48168 R 100,0   0,6   1:13.82 ocsr-desktop                                                                                                 (B[m[39;49m[K
(B[m[1m 7826 debatin   20   0  533876  91132  48168 R 100,0   0,6   1:14.47 ocsr-desktop                                                                                                 (B[m[39;49m[K
(B[m[1m 7826 debatin   20   0  533876  91132  48168 R 100,0   0,6   1:15.14 ocsr-desktop                                                                                                 (B[m[39;49m[K
(B[m[1m 7826 debatin   20   0  533876  91132  48168 R 100,0   0,6   1:15.80 ocsr-desktop                                                                                                 (B[m[39;49m[K
(B[m[1m 7826 debatin   20   0  533876  91132  48168 R 100,0   0,6   1:16.46 ocsr-desktop                                                                                                 (B[m[39;49m[K
(B[m[1m 7826 debatin   20   0  533876  91132  48168 R 100,0   0,6   1:17.13 ocsr-desktop                                                                                                 (B[m[39;49m[K
(B[m[1m 7826 debatin   20   0  533876  91132  48168 R  93,8   0,6   1:17.79 ocsr-desktop                                                                                                 (B[m[39;49m[K
(B[m[1m 7826 debatin   20   0  533876  91132  48168 R 100,0   0,6   1:18.45 ocsr-desktop                                                                                                 (B[m[39;49m[K
(B[m[1m 7826 debatin   20   0  533876  91132  48168 R 100,0   0,6   1:19.11 ocsr-desktop                                                                                                 (B[m[39;49m[K
(B[m[1m 7826 debatin   20   0  533876  91132  48168 R 100,0   0,6   1:19.77 ocsr-desktop                                                                                                 (B[m[39;49m[K
(B[m[1m 7826 debatin   20   0  533876  91132  48168 R  93,8   0,6   1:20.43 ocsr-desktop                                                                                                 (B[m[39;49m[K
(B[m[1m 7826 debatin   20   0  533876  91132  48168 R 100,0   0,6   1:21.09 ocsr-desktop                                                                                                 (B[m[39;49m[K
(B[m[1m 7826 debatin   20   0  533876  91132  48168 R 100,0   0,6   1:21.75 ocsr-desktop                                                                                                 (B[m[39;49m[K
(B[m[1m 7826 debatin   20   0  533876  91132  48168 R  93,8   0,6   1:22.42 ocsr-desktop                                                                                                 (B[m[39;49m[K
(B[m[1m 7826 debatin   20   0  533876  91132  48168 R 100,0   0,6   1:23.08 ocsr-desktop                                                                                                 (B[m[39;49m[K
(B[m[1m 7826 debatin   20   0  533876  91132  48168 R 100,0   0,6   1:23.74 ocsr-desktop                                                                                                 (B[m[39;49m[K
(B[m[1m 7826 debatin   20   0  533876  91132  48168 R 100,0   0,6   1:24.40 ocsr-desktop                                                                                                 (B[m[39;49m[K
(B[m[1m 7826 debatin   20   0  533876  91132  48168 R  93,8   0,6   1:25.06 ocsr-desktop                                                                                                 (B[m[39;49m[K
(B[m[1m 7826 debatin   20   0  533876  91132  48168 R 106,7   0,6   1:25.73 ocsr-desktop                                                                                                 (B[m[39;49m[K
(B[m[1m 7826 debatin   20   0  533876  91132  48168 R 100,0   0,6   1:26.39 ocsr-desktop                                                                                                 (B[m[39;49m[K
(B[m[1m 7826 debatin   20   0  533876  91132  48168 R  93,8   0,6   1:27.04 ocsr-desktop                                                                                                 (B[m[39;49m[K
(B[m[1m 7826 debatin   20   0  533876  91132  48168 R  93,8   0,6   1:27.70 ocsr-desktop                                                                                                 (B[m[39;49m[K
(B[m[1m 7826 debatin   20   0  533876  91132  48168 R 100,0   0,6   1:28.37 ocsr-desktop                                                                                                 (B[m[39;49m[K
(B[m[1m 7826 debatin   20   0  533876  91132  48168 R 106,7   0,6   1:29.04 ocsr-desktop                                                                                                 (B[m[39;49m[K
(B[m[1m 7826 debatin   20   0  533876  91132  48168 R  93,8   0,6   1:29.69 ocsr-desktop                                                                                                 (B[m[39;49m[K
(B[m[1m 7826 debatin   20   0  533876  91132  48168 R 100,0   0,6   1:30.35 ocsr-desktop                                                                                                 (B[m[39;49m[K
(B[m[1m 7826 debatin   20   0  533876  91132  48168 R 100,0   0,6   1:31.02 ocsr-desktop                                                                                                 (B[m[39;49m[K
(B[m[1m 7826 debatin   20   0  533876  91132  48168 R 100,0   0,6   1:31.67 ocsr-desktop                                                                                                 (B[m[39;49m[K
(B[m[1m 7826 debatin   20   0  533876  91132  48168 R  93,8   0,6   1:32.34 ocsr-desktop                                                                                                 (B[m[39;49m[K
(B[m[1m 7826 debatin   20   0  533876  91132  48168 R 106,7   0,6   1:33.01 ocsr-desktop                                                                                                 (B[m[39;49m[K
(B[m[1m 7826 debatin   20   0  533876  91132  48168 R 100,0   0,6   1:33.66 ocsr-desktop                                                                                                 (B[m[39;49m[K
(B[m[1m 7826 debatin   20   0  533876  91132  48168 R  93,8   0,6   1:34.33 ocsr-desktop                                                                                                 (B[m[39;49m[K
(B[m[1m 7826 debatin   20   0  533876  91132  48168 R  93,8   0,6   1:34.99 ocsr-desktop                                                                                                 (B[m[39;49m[K
(B[m[1m 7826 debatin   20   0  533876  91132  48168 R 100,0   0,6   1:35.65 ocsr-desktop                                                                                                 (B[m[39;49m[K
(B[m[1m 7826 debatin   20   0  533876  91132  48168 R 100,0   0,6   1:36.31 ocsr-desktop                                                                                                 (B[m[39;49m[K
(B[m[1m 7826 debatin   20   0  533876  91132  48168 R  93,8   0,6   1:36.97 ocsr-desktop                                                                                                 (B[m[39;49m[K
(B[m[1m 7826 debatin   20   0  533876  91132  48168 R 100,0   0,6   1:37.64 ocsr-desktop                                                                                                 (B[m[39;49m[K
(B[m[1m 7826 debatin   20   0  533876  91132  48168 R 100,0   0,6   1:38.29 ocsr-desktop                                                                                                 (B[m[39;49m[K
(B[m[1m 7826 debatin   20   0  533876  91132  48168 R  93,8   0,6   1:38.96 ocsr-desktop                                                                                                 (B[m[39;49m[K
(B[m[1m 7826 debatin   20   0  533876  91132  48168 R 100,0   0,6   1:39.62 ocsr-desktop                                                                                                 (B[m[39;49m[K
(B[m[1m 7826 debatin   20   0  533876  91132  48168 R 106,7   0,6   1:40.28 ocsr-desktop                                                                                                 (B[m[39;49m[K
(B[m[1m 7826 debatin   20   0  533876  91132  48168 R 100,0   0,6   1:40.94 ocsr-desktop                                                                                                 (B[m[39;49m[K
(B[m[1m 7826 debatin   20   0  533876  91132  48168 R  93,8   0,6   1:41.60 ocsr-desktop                                                                                                 (B[m[39;49m[K
(B[m[1m 7826 debatin   20   0  533876  91132  48168 R 100,0   0,6   1:42.27 ocsr-desktop                                                                                                 (B[m[39;49m[K
(B[m[1m 7826 debatin   20   0  533876  91132  48168 R 100,0   0,6   1:42.93 ocsr-desktop                                                                                                 (B[m[39;49m[K
(B[m[1m 7826 debatin   20   0  533876  91132  48168 R  93,8   0,6   1:43.58 ocsr-desktop                                                                                                 (B[m[39;49m[K
(B[m[1m 7826 debatin   20   0  533876  91132  48168 R  93,8   0,6   1:44.25 ocsr-desktop                                                                                                 (B[m[39;49m[K
(B[m[1m 7826 debatin   20   0  533876  91132  48168 R 100,0   0,6   1:44.91 ocsr-desktop                                                                                                 (B[m[39;49m[K
(B[m[1m 7826 debatin   20   0  533876  91132  48168 R 100,0   0,6   1:45.57 ocsr-desktop                                                                                                 (B[m[39;49m[K
(B[m[1m 7826 debatin   20   0  533876  91132  48168 R 100,0   0,6   1:46.24 ocsr-desktop                                                                                                 (B[m[39;49m[K
(B[m[1m 7826 debatin   20   0  533876  91132  48168 R 100,0   0,6   1:46.90 ocsr-desktop                                                                                                 (B[m[39;49m[K
(B[m[1m 7826 debatin   20   0  533876  91132  48168 R 100,0   0,6   1:47.56 ocsr-desktop                                                                                                 (B[m[39;49m[K
(B[m[1m 7826 debatin   20   0  533876  91132  48168 R 100,0   0,6   1:48.22 ocsr-desktop                                                                                                 (B[m[39;49m[K
(B[m[1m 7826 debatin   20   0  533876  91132  48168 R  93,8   0,6   1:48.88 ocsr-desktop                                                                                                 (B[m[39;49m[K
(B[m[1m 7826 debatin   20   0  533876  91132  48168 R 106,7   0,6   1:49.55 ocsr-desktop                                                                                                 (B[m[39;49m[K
(B[m[1m 7826 debatin   20   0  533876  91132  48168 R 100,0   0,6   1:50.20 ocsr-desktop                                                                                                 (B[m[39;49m[K
(B[m[1m 7826 debatin   20   0  533876  91132  48168 R  93,8   0,6   1:50.87 ocsr-desktop                                                                                                 (B[m[39;49m[K
(B[m[1m 7826 debatin   20   0  533876  91132  48168 R 100,0   0,6   1:51.53 ocsr-desktop                                                                                                 (B[m[39;49m[K
(B[m[1m 7826 debatin   20   0  533876  91132  48168 R 100,0   0,6   1:52.19 ocsr-desktop                                                                                                 (B[m[39;49m[K
(B[m[1m 7826 debatin   20   0  533876  91132  48168 R  93,8   0,6   1:52.85 ocsr-desktop                                                                                                 (B[m[39;49m[K
(B[m[1m 7826 debatin   20   0  533876  91132  48168 R  93,8   0,6   1:53.52 ocsr-desktop                                                                                                 (B[m[39;49m[K
(B[m[1m 7826 debatin   20   0  533876  91132  48168 R 100,0   0,6   1:54.17 ocsr-desktop                                                                                                 (B[m[39;49m[K
(B[m[1m 7826 debatin   20   0  533876  91132  48168 R 100,0   0,6   1:54.84 ocsr-desktop                                                                                                 (B[m[39;49m[K
(B[m[1m 7826 debatin   20   0  533876  91132  48168 R  93,8   0,6   1:55.50 ocsr-desktop                                                                                                 (B[m[39;49m[K
(B[m[1m 7826 debatin   20   0  533876  91132  48168 R 100,0   0,6   1:56.16 ocsr-desktop                                                                                                 (B[m[39;49m[K
(B[m[1m 7826 debatin   20   0  533876  91132  48168 R 100,0   0,6   1:56.82 ocsr-desktop                                                                                                 (B[m[39;49m[K
(B[m[1m 7826 debatin   20   0  533876  91132  48168 R 100,0   0,6   1:57.48 ocsr-desktop                                                                                                 (B[m[39;49m[K
(B[m[1m 7826 debatin   20   0  533876  91132  48168 R  93,8   0,6   1:58.15 ocsr-desktop                                                                                                 (B[m[39;49m[K
(B[m[1m 7826 debatin   20   0  533876  91132  48168 R 100,0   0,6   1:58.81 ocsr-desktop                                                                                                 (B[m[39;49m[K
(B[m[1m 7826 debatin   20   0  533876  91132  48168 R 100,0   0,6   1:59.47 ocsr-desktop                                                                                                 (B[m[39;49m[K
(B[m[1m 7826 debatin   20   0  533876  91132  48168 R  93,8   0,6   2:00.13 ocsr-desktop                                                                                                 (B[m[39;49m[K
(B[m[1m 7826 debatin   20   0  533876  91132  48168 R 100,0   0,6   2:00.79 ocsr-desktop                                                                                                 (B[m[39;49m[K
(B[m[1m 7826 debatin   20   0  533876  91132  48168 R 100,0   0,6   2:01.45 ocsr-desktop                                                                                                 (B[m[39;49m[K
(B[m[1m 7826 debatin   20   0  533876  91132  48168 R 106,7   0,6   2:02.12 ocsr-desktop                                                                                                 (B[m[39;49m[K
(B[m[1m 7826 debatin   20   0  533876  91132  48168 R  87,5   0,6   2:02.77 ocsr-desktop                                                                                                 (B[m[39;49m[K
(B[m[1m 7826 debatin   20   0  533876  91132  48168 R 100,0   0,6   2:03.43 ocsr-desktop                                                                                                 (B[m[39;49m[K
(B[m[1m 7826 debatin   20   0  533876  91132  48168 R 100,0   0,6   2:04.10 ocsr-desktop                                                                                                 (B[m[39;49m[K
(B[m[1m 7826 debatin   20   0  533876  91132  48168 R 100,0   0,6   2:04.76 ocsr-desktop                                                                                                 (B[m[39;49m[K
(B[m[1m 7826 debatin   20   0  533876  91132  48168 R  93,8   0,6   2:05.42 ocsr-desktop                                                                                                 (B[m[39;49m[K
(B[m[1m 7826 debatin   20   0  533876  91132  48168 R 100,0   0,6   2:06.09 ocsr-desktop                                                                                                 (B[m[39;49m[K
(B[m[1m 7826 debatin   20   0  533876  91132  48168 R 100,0   0,6   2:06.75 ocsr-desktop                                                                                                 (B[m[39;49m[K
(B[m[1m 7826 debatin   20   0  533876  91132  48168 R  93,8   0,6   2:07.40 ocsr-desktop                                                                                                 (B[m[39;49m[K
(B[m[1m 7826 debatin   20   0  533876  91132  48168 R  93,8   0,6   2:08.07 ocsr-desktop                                                                                                 (B[m[39;49m[K
(B[m[1m 7826 debatin   20   0  533876  91132  48168 R 106,7   0,6   2:08.74 ocsr-desktop                                                                                                 (B[m[39;49m[K
(B[m[1m 7826 debatin   20   0  533876  91132  48168 R 100,0   0,6   2:09.39 ocsr-desktop                                                                                                 (B[m[39;49m[K
(B[m[1m 7826 debatin   20   0  533876  91132  48168 R  93,8   0,6   2:10.05 ocsr-desktop                                                                                                 (B[m[39;49m[K
(B[m[1m 7826 debatin   20   0  533876  91132  48168 R 106,7   0,6   2:10.72 ocsr-desktop                                                                                                 (B[m[39;49m[K
(B[m[1m 7826 debatin   20   0  533876  91132  48168 R 100,0   0,6   2:11.37 ocsr-desktop                                                                                                 (B[m[39;49m[K
(B[m[1m 7826 debatin   20   0  533876  91132  48168 R 100,0   0,6   2:12.04 ocsr-desktop                                                                                                 (B[m[39;49m[K
(B[m[1m 7826 debatin   20   0  533876  91132  48168 R  93,8   0,6   2:12.70 ocsr-desktop                                                                                                 (B[m[39;49m[K
(B[m[1m 7826 debatin   20   0  533876  91132  48168 R 100,0   0,6   2:13.36 ocsr-desktop                                                                                                 (B[m[39;49m[K
(B[m[1m 7826 debatin   20   0  533876  91132  48168 R 106,7   0,6   2:14.03 ocsr-desktop                                                                                                 (B[m[39;49m[K
(B[m[1m 7826 debatin   20   0  533876  91132  48168 R 100,0   0,6   2:14.69 ocsr-desktop                                                                                                 (B[m[39;49m[K
(B[m[1m 7826 debatin   20   0  533876  91132  48168 R  93,8   0,6   2:15.34 ocsr-desktop                                                                                                 (B[m[39;49m[K
(B[m[1m 7826 debatin   20   0  533876  91132  48168 R 100,0   0,6   2:16.01 ocsr-desktop                                                                                                 (B[m[39;49m[K
(B[m[1m 7826 debatin   20   0  533876  91132  48168 R 100,0   0,6   2:16.67 ocsr-desktop                                                                                                 (B[m[39;49m[K
(B[m[1m 7826 debatin   20   0  533876  91132  48168 R  93,8   0,6   2:17.33 ocsr-desktop                                                                                                 (B[m[39;49m[K
(B[m[1m 7826 debatin   20   0  533876  91132  48168 R 106,7   0,6   2:18.00 ocsr-desktop                                                                                                 (B[m[39;49m[K
(B[m[1m 7826 debatin   20   0  533876  91132  48168 R 106,7   0,6   2:18.66 ocsr-desktop                                                                                                 (B[m[39;49m[K
(B[m[1m 7826 debatin   20   0  533876  91132  48168 R 106,7   0,6   2:19.32 ocsr-desktop                                                                                                 (B[m[39;49m[K
(B[m[1m 7826 debatin   20   0  533876  91132  48168 R  93,8   0,6   2:19.98 ocsr-desktop                                                                                                 (B[m[39;49m[K
(B[m[1m 7826 debatin   20   0  533876  91132  48168 R 100,0   0,6   2:20.64 ocsr-desktop                                                                                                 (B[m[39;49m[K
(B[m[1m 7826 debatin   20   0  533876  91132  48168 R 100,0   0,6   2:21.30 ocsr-desktop                                                                                                 (B[m[39;49m[K
(B[m[1m 7826 debatin   20   0  533876  91132  48168 R  93,8   0,6   2:21.96 ocsr-desktop                                                                                                 (B[m[39;49m[K
(B[m[1m 7826 debatin   20   0  533876  91132  48168 R  93,8   0,6   2:22.62 ocsr-desktop                                                                                                 (B[m[39;49m[K
(B[m[1m 7826 debatin   20   0  533876  91132  48168 R 106,7   0,6   2:23.29 ocsr-desktop                                                                                                 (B[m[39;49m[K
(B[m[1m 7826 debatin   20   0  533876  91132  48168 R 100,0   0,6   2:23.95 ocsr-desktop                                                                                                 (B[m[39;49m[K
(B[m[1m 7826 debatin   20   0  533876  91132  48168 R  93,8   0,6   2:24.61 ocsr-desktop                                                                                                 (B[m[39;49m[K
(B[m[1m 7826 debatin   20   0  533876  91132  48168 R 100,0   0,6   2:25.27 ocsr-desktop                                                                                                 (B[m[39;49m[K
(B[m[1m 7826 debatin   20   0  533876  91132  48168 R 106,7   0,6   2:25.94 ocsr-desktop                                                                                                 (B[m[39;49m[K
(B[m[1m 7826 debatin   20   0  533876  91132  48168 R 100,0   0,6   2:26.59 ocsr-desktop                                                                                                 (B[m[39;49m[K
(B[m[1m 7826 debatin   20   0  533876  91132  48168 R  93,8   0,6   2:27.25 ocsr-desktop                                                                                                 (B[m[39;49m[K
(B[m[1m 7826 debatin   20   0  533876  91132  48168 R 100,0   0,6   2:27.91 ocsr-desktop                                                                                                 (B[m[39;49m[K
(B[m[1m 7826 debatin   20   0  533876  91132  48168 R 100,0   0,6   2:28.58 ocsr-desktop                                                                                                 (B[m[39;49m[K
(B[m[1m 7826 debatin   20   0  533876  91132  48168 R 100,0   0,6   2:29.24 ocsr-desktop                                                                                                 (B[m[39;49m[K
(B[m[1m 7826 debatin   20   0  533876  91132  48168 R 100,0   0,6   2:29.91 ocsr-desktop                                                                                                 (B[m[39;49m[K
(B[m[1m 7826 debatin   20   0  533876  91132  48168 R 100,0   0,6   2:30.57 ocsr-desktop                                                                                                 (B[m[39;49m[K
(B[m[1m 7826 debatin   20   0  533876  91132  48168 R 100,0   0,6   2:31.23 ocsr-desktop                                                                                                 (B[m[39;49m[K
(B[m[1m 7826 debatin   20   0  533876  91132  48168 R 100,0   0,6   2:31.89 ocsr-desktop                                                                                                 (B[m[39;49m[K
(B[m[1m 7826 debatin   20   0  533876  91132  48168 R 100,0   0,6   2:32.55 ocsr-desktop                                                                                                 (B[m[39;49m[K
(B[m[1m 7826 debatin   20   0  533876  91132  48168 R 100,0   0,6   2:33.21 ocsr-desktop                                                                                                 (B[m[39;49m[K
(B[m[1m 7826 debatin   20   0  533876  91132  48168 R  93,3   0,6   2:33.87 ocsr-desktop                                                                                                 (B[m[39;49m[K
(B[m[1m 7826 debatin   20   0  533876  91132  48168 R  93,8   0,6   2:34.53 ocsr-desktop                                                                                                 (B[m[39;49m[K
(B[m[1m 7826 debatin   20   0  533876  91132  48168 R 106,7   0,6   2:35.20 ocsr-desktop                                                                                                 (B[m[39;49m[K
(B[m[1m 7826 debatin   20   0  533876  91132  48168 R 100,0   0,6   2:35.86 ocsr-desktop                                                                                                 (B[m[39;49m[K
(B[m[1m 7826 debatin   20   0  533876  91132  48168 R 106,7   0,6   2:36.52 ocsr-desktop                                                                                                 (B[m[39;49m[K
(B[m[1m 7826 debatin   20   0  533876  91132  48168 R  93,8   0,6   2:37.18 ocsr-desktop                                                                                                 (B[m[39;49m[K
(B[m[1m 7826 debatin   20   0  533876  91132  48168 R 106,7   0,6   2:37.85 ocsr-desktop                                                                                                 (B[m[39;49m[K
(B[m[1m 7826 debatin   20   0  533876  91132  48168 R 106,7   0,6   2:38.51 ocsr-desktop                                                                                                 (B[m[39;49m[K
(B[m[1m 7826 debatin   20   0  533876  91132  48168 R  93,8   0,6   2:39.17 ocsr-desktop                                                                                                 (B[m[39;49m[K
(B[m[1m 7826 debatin   20   0  533876  91132  48168 R 100,0   0,6   2:39.83 ocsr-desktop                                                                                                 (B[m[39;49m[K
(B[m[1m 7826 debatin   20   0  533876  91132  48168 R 100,0   0,6   2:40.49 ocsr-desktop                                                                                                 (B[m[39;49m[K
(B[m[1m 7826 debatin   20   0  533876  91132  48168 R 106,7   0,6   2:41.16 ocsr-desktop                                                                                                 (B[m[39;49m[K
(B[m[1m 7826 debatin   20   0  533876  91132  48168 R  93,8   0,6   2:41.82 ocsr-desktop                                                                                                 (B[m[39;49m[K
(B[m[1m 7826 debatin   20   0  533876  91132  48168 R 100,0   0,6   2:42.48 ocsr-desktop                                                                                                 (B[m[39;49m[K
(B[m[1m 7826 debatin   20   0  533876  91132  48168 R  93,3   0,6   2:43.13 ocsr-desktop                                                                                                 (B[m[39;49m[K
(B[m 7826 debatin   20   0  533968  91824  48860 S 100,0   0,6   2:43.80 ocsr-desktop                                                                                                 (B[m[39;49m[K
