# nnet3-average exp/nnet3/lstm_sp/40.1.raw - | nnet3-am-copy --set-raw-nnet=- exp/nnet3/lstm_sp/39.mdl exp/nnet3/lstm_sp/40.mdl 
# Started at Mon Jan 14 17:10:22 -02 2019
#
nnet3-am-copy --set-raw-nnet=- exp/nnet3/lstm_sp/39.mdl exp/nnet3/lstm_sp/40.mdl 
nnet3-average exp/nnet3/lstm_sp/40.1.raw - 
WARNING (nnet3-average[5.5.23-c81f5]:Check():nnet-nnet.cc:789) Node lstm3-forward.W_all is never used to compute any output.
WARNING (nnet3-average[5.5.23-c81f5]:Check():nnet-nnet.cc:789) Node lstm3-forward.lstm_nonlin is never used to compute any output.
WARNING (nnet3-average[5.5.23-c81f5]:Check():nnet-nnet.cc:789) Node lstm3-forward.c is never used to compute any output.
WARNING (nnet3-average[5.5.23-c81f5]:Check():nnet-nnet.cc:789) Node lstm3-forward.m is never used to compute any output.
WARNING (nnet3-average[5.5.23-c81f5]:Check():nnet-nnet.cc:789) Node lstm3-forward.rp is never used to compute any output.
WARNING (nnet3-average[5.5.23-c81f5]:Check():nnet-nnet.cc:789) Node lstm3-forward.r is never used to compute any output.
WARNING (nnet3-average[5.5.23-c81f5]:Check():nnet-nnet.cc:789) Node lstm3-forward.cr_trunc is never used to compute any output.
WARNING (nnet3-average[5.5.23-c81f5]:Check():nnet-nnet.cc:789) Node lstm3-forward.c_trunc is never used to compute any output.
WARNING (nnet3-average[5.5.23-c81f5]:Check():nnet-nnet.cc:789) Node lstm3-forward.r_trunc is never used to compute any output.
WARNING (nnet3-am-copy[5.5.23-c81f5]:Check():nnet-nnet.cc:789) Node lstm3-forward.W_all is never used to compute any output.
WARNING (nnet3-am-copy[5.5.23-c81f5]:Check():nnet-nnet.cc:789) Node lstm3-forward.lstm_nonlin is never used to compute any output.
WARNING (nnet3-am-copy[5.5.23-c81f5]:Check():nnet-nnet.cc:789) Node lstm3-forward.c is never used to compute any output.
WARNING (nnet3-am-copy[5.5.23-c81f5]:Check():nnet-nnet.cc:789) Node lstm3-forward.m is never used to compute any output.
WARNING (nnet3-am-copy[5.5.23-c81f5]:Check():nnet-nnet.cc:789) Node lstm3-forward.rp is never used to compute any output.
WARNING (nnet3-am-copy[5.5.23-c81f5]:Check():nnet-nnet.cc:789) Node lstm3-forward.r is never used to compute any output.
WARNING (nnet3-am-copy[5.5.23-c81f5]:Check():nnet-nnet.cc:789) Node lstm3-forward.cr_trunc is never used to compute any output.
WARNING (nnet3-am-copy[5.5.23-c81f5]:Check():nnet-nnet.cc:789) Node lstm3-forward.c_trunc is never used to compute any output.
WARNING (nnet3-am-copy[5.5.23-c81f5]:Check():nnet-nnet.cc:789) Node lstm3-forward.r_trunc is never used to compute any output.
LOG (nnet3-average[5.5.23-c81f5]:main():nnet3-average.cc:164) Averaged parameters of 1 neural nets, and wrote to -
WARNING (nnet3-am-copy[5.5.23-c81f5]:Check():nnet-nnet.cc:789) Node lstm3-forward.W_all is never used to compute any output.
WARNING (nnet3-am-copy[5.5.23-c81f5]:Check():nnet-nnet.cc:789) Node lstm3-forward.lstm_nonlin is never used to compute any output.
WARNING (nnet3-am-copy[5.5.23-c81f5]:Check():nnet-nnet.cc:789) Node lstm3-forward.c is never used to compute any output.
WARNING (nnet3-am-copy[5.5.23-c81f5]:Check():nnet-nnet.cc:789) Node lstm3-forward.m is never used to compute any output.
WARNING (nnet3-am-copy[5.5.23-c81f5]:Check():nnet-nnet.cc:789) Node lstm3-forward.rp is never used to compute any output.
WARNING (nnet3-am-copy[5.5.23-c81f5]:Check():nnet-nnet.cc:789) Node lstm3-forward.r is never used to compute any output.
WARNING (nnet3-am-copy[5.5.23-c81f5]:Check():nnet-nnet.cc:789) Node lstm3-forward.cr_trunc is never used to compute any output.
WARNING (nnet3-am-copy[5.5.23-c81f5]:Check():nnet-nnet.cc:789) Node lstm3-forward.c_trunc is never used to compute any output.
WARNING (nnet3-am-copy[5.5.23-c81f5]:Check():nnet-nnet.cc:789) Node lstm3-forward.r_trunc is never used to compute any output.
WARNING (nnet3-am-copy[5.5.23-c81f5]:Check():nnet-nnet.cc:789) Node lstm3-forward.W_all is never used to compute any output.
WARNING (nnet3-am-copy[5.5.23-c81f5]:Check():nnet-nnet.cc:789) Node lstm3-forward.lstm_nonlin is never used to compute any output.
WARNING (nnet3-am-copy[5.5.23-c81f5]:Check():nnet-nnet.cc:789) Node lstm3-forward.c is never used to compute any output.
WARNING (nnet3-am-copy[5.5.23-c81f5]:Check():nnet-nnet.cc:789) Node lstm3-forward.m is never used to compute any output.
WARNING (nnet3-am-copy[5.5.23-c81f5]:Check():nnet-nnet.cc:789) Node lstm3-forward.rp is never used to compute any output.
WARNING (nnet3-am-copy[5.5.23-c81f5]:Check():nnet-nnet.cc:789) Node lstm3-forward.r is never used to compute any output.
WARNING (nnet3-am-copy[5.5.23-c81f5]:Check():nnet-nnet.cc:789) Node lstm3-forward.cr_trunc is never used to compute any output.
WARNING (nnet3-am-copy[5.5.23-c81f5]:Check():nnet-nnet.cc:789) Node lstm3-forward.c_trunc is never used to compute any output.
WARNING (nnet3-am-copy[5.5.23-c81f5]:Check():nnet-nnet.cc:789) Node lstm3-forward.r_trunc is never used to compute any output.
LOG (nnet3-am-copy[5.5.23-c81f5]:main():nnet3-am-copy.cc:158) Copied neural net from exp/nnet3/lstm_sp/39.mdl to exp/nnet3/lstm_sp/40.mdl
# Accounting: time=0 threads=1
# Ended (code 0) at Mon Jan 14 17:10:22 -02 2019, elapsed time 0 seconds
