# nnet3-compute-prob exp/nnet3/lstm_sp/14.mdl "ark,bg:nnet3-copy-egs                      ark:exp/nnet3/lstm_sp/egs/valid_diagnostic.egs ark:- |                     nnet3-merge-egs --minibatch-size=1:64 ark:-                     ark:- |" 
# Started at Sun Jan 13 21:28:44 -02 2019
#
nnet3-compute-prob exp/nnet3/lstm_sp/14.mdl 'ark,bg:nnet3-copy-egs                      ark:exp/nnet3/lstm_sp/egs/valid_diagnostic.egs ark:- |                     nnet3-merge-egs --minibatch-size=1:64 ark:-                     ark:- |' 
WARNING (nnet3-compute-prob[5.5.23-c81f5]:Check():nnet-nnet.cc:789) Node lstm3-forward.W_all is never used to compute any output.
WARNING (nnet3-compute-prob[5.5.23-c81f5]:Check():nnet-nnet.cc:789) Node lstm3-forward.lstm_nonlin is never used to compute any output.
WARNING (nnet3-compute-prob[5.5.23-c81f5]:Check():nnet-nnet.cc:789) Node lstm3-forward.c is never used to compute any output.
WARNING (nnet3-compute-prob[5.5.23-c81f5]:Check():nnet-nnet.cc:789) Node lstm3-forward.m is never used to compute any output.
WARNING (nnet3-compute-prob[5.5.23-c81f5]:Check():nnet-nnet.cc:789) Node lstm3-forward.rp is never used to compute any output.
WARNING (nnet3-compute-prob[5.5.23-c81f5]:Check():nnet-nnet.cc:789) Node lstm3-forward.r is never used to compute any output.
WARNING (nnet3-compute-prob[5.5.23-c81f5]:Check():nnet-nnet.cc:789) Node lstm3-forward.cr_trunc is never used to compute any output.
WARNING (nnet3-compute-prob[5.5.23-c81f5]:Check():nnet-nnet.cc:789) Node lstm3-forward.c_trunc is never used to compute any output.
WARNING (nnet3-compute-prob[5.5.23-c81f5]:Check():nnet-nnet.cc:789) Node lstm3-forward.r_trunc is never used to compute any output.
LOG (nnet3-compute-prob[5.5.23-c81f5]:RemoveOrphanNodes():nnet-nnet.cc:948) Removed 9 orphan nodes.
LOG (nnet3-compute-prob[5.5.23-c81f5]:RemoveOrphanComponents():nnet-nnet.cc:847) Removing 4 orphan components.
LOG (nnet3-compute-prob[5.5.23-c81f5]:Collapse():nnet-utils.cc:1378) Added 0 components, removed 4
nnet3-merge-egs --minibatch-size=1:64 ark:- ark:- 
nnet3-copy-egs ark:exp/nnet3/lstm_sp/egs/valid_diagnostic.egs ark:- 
LOG (nnet3-copy-egs[5.5.23-c81f5]:main():nnet3-copy-egs.cc:431) Read 500 neural-network training examples, wrote 500, 0 examples had errors.
LOG (nnet3-merge-egs[5.5.23-c81f5]:PrintSpecificStats():nnet-example-utils.cc:1143) Merged specific eg types as follows [format: <eg-size1>={<mb-size1>-><num-minibatches1>,<mbsize2>-><num-minibatches2>.../d=<num-discarded>},<egs-size2>={...},... (note,egs-size == number of input frames including context).
LOG (nnet3-merge-egs[5.5.23-c81f5]:PrintSpecificStats():nnet-example-utils.cc:1173) 64={5->1,d=0},64={6->1,d=0},104={41->1,64->7,d=0}
LOG (nnet3-merge-egs[5.5.23-c81f5]:PrintAggregateStats():nnet-example-utils.cc:1139) Processed 500 egs of avg. size 103.1 into 10 minibatches, discarding 0% of egs.  Avg minibatch size was 50, #distinct types of egs/minibatches was 3/4
LOG (nnet3-compute-prob[5.5.23-c81f5]:PrintTotalStats():nnet-diagnostics.cc:162) Overall log-likelihood for 'output' is -0.916627 per frame, over 9984 frames.
LOG (nnet3-compute-prob[5.5.23-c81f5]:PrintTotalStats():nnet-diagnostics.cc:180) Overall accuracy for 'output' is 0.739834 per frame, over 9984 frames.
LOG (nnet3-compute-prob[5.5.23-c81f5]:~CachingOptimizingCompiler():nnet-optimize.cc:710) 0.24 seconds taken in nnet3 compilation total (breakdown: 0.0961 compilation, 0.102 optimization, 0.00418 shortcut expansion, 0.0272 checking, 6.03e-05 computing indexes, 0.0106 misc.) + 0 I/O.
# Accounting: time=55 threads=1
# Ended (code 0) at Sun Jan 13 21:29:39 -02 2019, elapsed time 55 seconds
