# nnet3-acc-lda-stats --rand-prune=4.0 exp/nnet3/lstm_sp/init.raw "ark:nnet3-copy-egs  ark:exp/nnet3/lstm_sp/egs/egs.2.ark ark:- |" exp/nnet3/lstm_sp/2.lda_stats 
# Started at Sun Jan 13 11:10:12 -02 2019
#
nnet3-acc-lda-stats --rand-prune=4.0 exp/nnet3/lstm_sp/init.raw 'ark:nnet3-copy-egs  ark:exp/nnet3/lstm_sp/egs/egs.2.ark ark:- |' exp/nnet3/lstm_sp/2.lda_stats 
nnet3-copy-egs ark:exp/nnet3/lstm_sp/egs/egs.2.ark ark:- 
LOG (nnet3-copy-egs[5.5.23-c81f5]:main():nnet3-copy-egs.cc:431) Read 15102 neural-network training examples, wrote 15102, 0 examples had errors.
LOG (nnet3-acc-lda-stats[5.5.23-c81f5]:main():nnet3-acc-lda-stats.cc:185) Processed 15102 examples.
LOG (nnet3-acc-lda-stats[5.5.23-c81f5]:WriteStats():nnet3-acc-lda-stats.cc:59) Accumulated stats, soft frame count = 300568.  Wrote to exp/nnet3/lstm_sp/2.lda_stats
LOG (nnet3-acc-lda-stats[5.5.23-c81f5]:~CachingOptimizingCompiler():nnet-optimize.cc:710) 0.0182 seconds taken in nnet3 compilation total (breakdown: 0.000732 compilation, 0.000453 optimization, 0 shortcut expansion, 0.000147 checking, 2.86e-06 computing indexes, 0.0169 misc.) + 0 I/O.
# Accounting: time=5 threads=1
# Ended (code 0) at Sun Jan 13 11:10:17 -02 2019, elapsed time 5 seconds
