# nnet3-info exp/nnet3/lstm_sp/20.mdl && nnet3-show-progress --use-gpu=no exp/nnet3/lstm_sp/19.mdl exp/nnet3/lstm_sp/20.mdl 
# Started at Mon Jan 14 02:01:55 -02 2019
#
nnet3-info exp/nnet3/lstm_sp/20.mdl 
WARNING (nnet3-info[5.5.23-c81f5]:Check():nnet-nnet.cc:789) Node lstm3-forward.W_all is never used to compute any output.
WARNING (nnet3-info[5.5.23-c81f5]:Check():nnet-nnet.cc:789) Node lstm3-forward.lstm_nonlin is never used to compute any output.
WARNING (nnet3-info[5.5.23-c81f5]:Check():nnet-nnet.cc:789) Node lstm3-forward.c is never used to compute any output.
WARNING (nnet3-info[5.5.23-c81f5]:Check():nnet-nnet.cc:789) Node lstm3-forward.m is never used to compute any output.
WARNING (nnet3-info[5.5.23-c81f5]:Check():nnet-nnet.cc:789) Node lstm3-forward.rp is never used to compute any output.
WARNING (nnet3-info[5.5.23-c81f5]:Check():nnet-nnet.cc:789) Node lstm3-forward.r is never used to compute any output.
WARNING (nnet3-info[5.5.23-c81f5]:Check():nnet-nnet.cc:789) Node lstm3-forward.cr_trunc is never used to compute any output.
WARNING (nnet3-info[5.5.23-c81f5]:Check():nnet-nnet.cc:789) Node lstm3-forward.c_trunc is never used to compute any output.
WARNING (nnet3-info[5.5.23-c81f5]:Check():nnet-nnet.cc:789) Node lstm3-forward.r_trunc is never used to compute any output.
left-context: 2
right-context: 2
num-parameters: 17210968
modulus: 1
input-node name=ivector dim=100
input-node name=input dim=40
component-node name=lda component=lda input=Append(Offset(input, -2), Offset(input, -1), input, Offset(input, 1), Offset(input, 2), ReplaceIndex(ivector, t, 0)) input-dim=300 output-dim=300
component-node name=lstm1-forward.W_all component=lstm1-forward.W_all input=Append(lda, IfDefined(Offset(lstm1-forward.r_trunc, -1))) input-dim=428 output-dim=4096
component-node name=lstm1-forward.lstm_nonlin component=lstm1-forward.lstm_nonlin input=Append(lstm1-forward.W_all, IfDefined(Offset(lstm1-forward.c_trunc, -1))) input-dim=5120 output-dim=2048
dim-range-node name=lstm1-forward.c input-node=lstm1-forward.lstm_nonlin dim-offset=0 dim=1024
dim-range-node name=lstm1-forward.m input-node=lstm1-forward.lstm_nonlin dim-offset=1024 dim=1024
component-node name=lstm1-forward.rp component=lstm1-forward.W_rp input=lstm1-forward.m input-dim=1024 output-dim=256
dim-range-node name=lstm1-forward.r input-node=lstm1-forward.rp dim-offset=0 dim=128
component-node name=lstm1-forward.cr_trunc component=lstm1-forward.cr_trunc input=Append(lstm1-forward.c, lstm1-forward.r) input-dim=1152 output-dim=1152
dim-range-node name=lstm1-forward.c_trunc input-node=lstm1-forward.cr_trunc dim-offset=0 dim=1024
dim-range-node name=lstm1-forward.r_trunc input-node=lstm1-forward.cr_trunc dim-offset=1024 dim=128
component-node name=lstm1-backward.W_all component=lstm1-backward.W_all input=Append(lda, IfDefined(Offset(lstm1-backward.r_trunc, 1))) input-dim=428 output-dim=4096
component-node name=lstm1-backward.lstm_nonlin component=lstm1-backward.lstm_nonlin input=Append(lstm1-backward.W_all, IfDefined(Offset(lstm1-backward.c_trunc, 1))) input-dim=5120 output-dim=2048
dim-range-node name=lstm1-backward.c input-node=lstm1-backward.lstm_nonlin dim-offset=0 dim=1024
dim-range-node name=lstm1-backward.m input-node=lstm1-backward.lstm_nonlin dim-offset=1024 dim=1024
component-node name=lstm1-backward.rp component=lstm1-backward.W_rp input=lstm1-backward.m input-dim=1024 output-dim=256
dim-range-node name=lstm1-backward.r input-node=lstm1-backward.rp dim-offset=0 dim=128
component-node name=lstm1-backward.cr_trunc component=lstm1-backward.cr_trunc input=Append(lstm1-backward.c, lstm1-backward.r) input-dim=1152 output-dim=1152
dim-range-node name=lstm1-backward.c_trunc input-node=lstm1-backward.cr_trunc dim-offset=0 dim=1024
dim-range-node name=lstm1-backward.r_trunc input-node=lstm1-backward.cr_trunc dim-offset=1024 dim=128
component-node name=lstm2-forward.W_all component=lstm2-forward.W_all input=Append(lstm1-forward.rp, lstm1-backward.rp, IfDefined(Offset(lstm2-forward.r_trunc, -2))) input-dim=640 output-dim=4096
component-node name=lstm2-forward.lstm_nonlin component=lstm2-forward.lstm_nonlin input=Append(lstm2-forward.W_all, IfDefined(Offset(lstm2-forward.c_trunc, -2))) input-dim=5120 output-dim=2048
dim-range-node name=lstm2-forward.c input-node=lstm2-forward.lstm_nonlin dim-offset=0 dim=1024
dim-range-node name=lstm2-forward.m input-node=lstm2-forward.lstm_nonlin dim-offset=1024 dim=1024
component-node name=lstm2-forward.rp component=lstm2-forward.W_rp input=lstm2-forward.m input-dim=1024 output-dim=256
dim-range-node name=lstm2-forward.r input-node=lstm2-forward.rp dim-offset=0 dim=128
component-node name=lstm2-forward.cr_trunc component=lstm2-forward.cr_trunc input=Append(lstm2-forward.c, lstm2-forward.r) input-dim=1152 output-dim=1152
dim-range-node name=lstm2-forward.c_trunc input-node=lstm2-forward.cr_trunc dim-offset=0 dim=1024
dim-range-node name=lstm2-forward.r_trunc input-node=lstm2-forward.cr_trunc dim-offset=1024 dim=128
component-node name=lstm2-backward.W_all component=lstm2-backward.W_all input=Append(lstm1-forward.rp, lstm1-backward.rp, IfDefined(Offset(lstm2-backward.r_trunc, 2))) input-dim=640 output-dim=4096
component-node name=lstm2-backward.lstm_nonlin component=lstm2-backward.lstm_nonlin input=Append(lstm2-backward.W_all, IfDefined(Offset(lstm2-backward.c_trunc, 2))) input-dim=5120 output-dim=2048
dim-range-node name=lstm2-backward.c input-node=lstm2-backward.lstm_nonlin dim-offset=0 dim=1024
dim-range-node name=lstm2-backward.m input-node=lstm2-backward.lstm_nonlin dim-offset=1024 dim=1024
component-node name=lstm2-backward.rp component=lstm2-backward.W_rp input=lstm2-backward.m input-dim=1024 output-dim=256
dim-range-node name=lstm2-backward.r input-node=lstm2-backward.rp dim-offset=0 dim=128
component-node name=lstm2-backward.cr_trunc component=lstm2-backward.cr_trunc input=Append(lstm2-backward.c, lstm2-backward.r) input-dim=1152 output-dim=1152
dim-range-node name=lstm2-backward.c_trunc input-node=lstm2-backward.cr_trunc dim-offset=0 dim=1024
dim-range-node name=lstm2-backward.r_trunc input-node=lstm2-backward.cr_trunc dim-offset=1024 dim=128
component-node name=lstm3-forward.W_all component=lstm3-forward.W_all input=Append(lstm2-forward.rp, lstm2-backward.rp, IfDefined(Offset(lstm3-forward.r_trunc, -3))) input-dim=640 output-dim=4096
component-node name=lstm3-forward.lstm_nonlin component=lstm3-forward.lstm_nonlin input=Append(lstm3-forward.W_all, IfDefined(Offset(lstm3-forward.c_trunc, -3))) input-dim=5120 output-dim=2048
dim-range-node name=lstm3-forward.c input-node=lstm3-forward.lstm_nonlin dim-offset=0 dim=1024
dim-range-node name=lstm3-forward.m input-node=lstm3-forward.lstm_nonlin dim-offset=1024 dim=1024
component-node name=lstm3-forward.rp component=lstm3-forward.W_rp input=lstm3-forward.m input-dim=1024 output-dim=256
dim-range-node name=lstm3-forward.r input-node=lstm3-forward.rp dim-offset=0 dim=128
component-node name=lstm3-forward.cr_trunc component=lstm3-forward.cr_trunc input=Append(lstm3-forward.c, lstm3-forward.r) input-dim=1152 output-dim=1152
dim-range-node name=lstm3-forward.c_trunc input-node=lstm3-forward.cr_trunc dim-offset=0 dim=1024
dim-range-node name=lstm3-forward.r_trunc input-node=lstm3-forward.cr_trunc dim-offset=1024 dim=128
component-node name=lstm3-backward.W_all component=lstm3-backward.W_all input=Append(lstm2-forward.rp, lstm2-backward.rp, IfDefined(Offset(lstm3-backward.r_trunc, 3))) input-dim=640 output-dim=4096
component-node name=lstm3-backward.lstm_nonlin component=lstm3-backward.lstm_nonlin input=Append(lstm3-backward.W_all, IfDefined(Offset(lstm3-backward.c_trunc, 3))) input-dim=5120 output-dim=2048
dim-range-node name=lstm3-backward.c input-node=lstm3-backward.lstm_nonlin dim-offset=0 dim=1024
dim-range-node name=lstm3-backward.m input-node=lstm3-backward.lstm_nonlin dim-offset=1024 dim=1024
component-node name=lstm3-backward.rp component=lstm3-backward.W_rp input=lstm3-backward.m input-dim=1024 output-dim=256
dim-range-node name=lstm3-backward.r input-node=lstm3-backward.rp dim-offset=0 dim=128
component-node name=lstm3-backward.cr_trunc component=lstm3-backward.cr_trunc input=Append(lstm3-backward.c, lstm3-backward.r) input-dim=1152 output-dim=1152
dim-range-node name=lstm3-backward.c_trunc input-node=lstm3-backward.cr_trunc dim-offset=0 dim=1024
dim-range-node name=lstm3-backward.r_trunc input-node=lstm3-backward.cr_trunc dim-offset=1024 dim=128
component-node name=output.affine component=output.affine input=lstm3-backward.rp input-dim=256 output-dim=6232
component-node name=output.log-softmax component=output.log-softmax input=output.affine input-dim=6232 output-dim=6232
output-node name=output input=output.log-softmax dim=6232 objective=linear
component name=lda type=FixedAffineComponent, input-dim=300, output-dim=300, linear-params-rms=0.009677, bias-{mean,stddev}=-0.05701,0.8092
component name=lstm1-forward.W_all type=NaturalGradientAffineComponent, input-dim=428, output-dim=4096, learning-rate=0.0174448, max-change=1.5, linear-params-rms=0.05523, linear-params-row-norms=[percentiles(0,1,2,5 10,20,50,80,90 95,98,99,100)=(0.74,0.78,0.79,0.81 0.82,0.85,0.96,1.3,1.6 1.9,2.1,2.2,2.7), mean=1.09, stddev=0.336], linear-params-col-norms=[percentiles(0,1,2,5 10,20,50,80,90 95,98,99,100)=(2.5,2.5,2.6,2.6 2.6,2.7,3.0,4.0,4.2 5.4,6.4,6.5,7.0), mean=3.41, stddev=0.918], bias-{mean,stddev}=-0.009144,0.8329, rank-in=20, rank-out=80, num-samples-history=2000, update-period=4, alpha=4
component name=lstm1-forward.lstm_nonlin type=LstmNonlinearityComponent, input-dim=5120, output-dim=2048, learning-rate=0.0174448, max-change=0.75, cell-dim=1024, use-dropout=false, w_ic-rms=0.92, w_fc-rms=0.802, w_oc-rms=0.8439, count=2.35e+05, i_t_sigmoid={ self-repair-lower-threshold=0.05, self-repair-scale=1e-05, self-repaired-proportion=0.0069114, value-avg=[percentiles(0,1,2,5 10,20,50,80,90 95,98,99,100)=(0.06,0.10,0.12,0.16 0.22,0.28,0.44,0.63,0.74 0.82,0.86,0.89,0.94), mean=0.458, stddev=0.195], deriv-avg=[percentiles(0,1,2,5 10,20,50,80,90 95,98,99,100)=(0.05,0.07,0.08,0.09 0.11,0.14,0.18,0.21,0.23 0.23,0.24,0.24,0.24), mean=0.176, stddev=0.0422] }, f_t_sigmoid={ self-repair-lower-threshold=0.05, self-repair-scale=1e-05, self-repaired-proportion=0.0101092, value-avg=[percentiles(0,1,2,5 10,20,50,80,90 95,98,99,100)=(0.06,0.10,0.12,0.15 0.21,0.28,0.45,0.64,0.74 0.81,0.87,0.89,0.94), mean=0.462, stddev=0.196], deriv-avg=[percentiles(0,1,2,5 10,20,50,80,90 95,98,99,100)=(0.05,0.06,0.07,0.09 0.11,0.14,0.19,0.22,0.23 0.23,0.24,0.24,0.24), mean=0.18, stddev=0.0449] }, c_t_tanh={ self-repair-lower-threshold=0.2, self-repair-scale=1e-05, self-repaired-proportion=0.043904, value-avg=[percentiles(0,1,2,5 10,20,50,80,90 95,98,99,100)=(-0.91,-0.87,-0.86,-0.82 -0.75,-0.58,-0.04,0.51,0.75 0.81,0.85,0.86,0.94), mean=-0.029, stddev=0.522], deriv-avg=[percentiles(0,1,2,5 10,20,50,80,90 95,98,99,100)=(0.09,0.17,0.19,0.21 0.23,0.26,0.37,0.53,0.65 0.72,0.79,0.81,0.88), mean=0.403, stddev=0.157] }, o_t_sigmoid={ self-repair-lower-threshold=0.05, self-repair-scale=1e-05, self-repaired-proportion=0.00698245, value-avg=[percentiles(0,1,2,5 10,20,50,80,90 95,98,99,100)=(0.07,0.09,0.11,0.14 0.18,0.24,0.40,0.59,0.69 0.76,0.84,0.86,0.93), mean=0.418, stddev=0.192], deriv-avg=[percentiles(0,1,2,5 10,20,50,80,90 95,98,99,100)=(0.04,0.07,0.07,0.09 0.11,0.14,0.18,0.21,0.23 0.23,0.23,0.24,0.24), mean=0.175, stddev=0.0429] }, m_t_tanh={ self-repair-lower-threshold=0.2, self-repair-scale=1e-05, self-repaired-proportion=0.0121627, value-avg=[percentiles(0,1,2,5 10,20,50,80,90 95,98,99,100)=(-0.88,-0.82,-0.79,-0.70 -0.58,-0.39,-0.02,0.35,0.52 0.64,0.74,0.78,0.87), mean=-0.026, stddev=0.403], deriv-avg=[percentiles(0,1,2,5 10,20,50,80,90 95,98,99,100)=(0.14,0.24,0.26,0.31 0.40,0.52,0.72,0.88,0.93 0.96,0.97,0.98,1.0), mean=0.692, stddev=0.197] }
component name=lstm1-forward.cr_trunc type=BackpropTruncationComponent, dim=1152, scale=0.95, count=1.47e+06, recurrence-interval=1, clipping-threshold=30, clipped-proportion=6.81617e-07, zeroing-threshold=15, zeroing-interval=20, zeroed-proportion=1.36323e-05, count-zeroing-boundaries=73355
component name=lstm1-forward.W_rp type=NaturalGradientAffineComponent, input-dim=1024, output-dim=256, learning-rate=0.0174448, max-change=1.5, linear-params-rms=0.08979, linear-params-row-norms=[percentiles(0,1,2,5 10,20,50,80,90 95,98,99,100)=(2.1,2.1,2.2,2.2 2.3,2.4,2.9,3.3,3.4 3.4,3.5,3.5,3.6), mean=2.84, stddev=0.442], linear-params-col-norms=[percentiles(0,1,2,5 10,20,50,80,90 95,98,99,100)=(0.42,0.45,0.47,0.52 0.60,0.79,1.3,1.9,2.1 2.3,2.4,2.6,3.2), mean=1.32, stddev=0.563], bias-{mean,stddev}=-0.05381,0.8484, rank-in=20, rank-out=80, num-samples-history=2000, update-period=4, alpha=4
component name=lstm1-backward.W_all type=NaturalGradientAffineComponent, input-dim=428, output-dim=4096, learning-rate=0.0174448, max-change=1.5, linear-params-rms=0.0555, linear-params-row-norms=[percentiles(0,1,2,5 10,20,50,80,90 95,98,99,100)=(0.74,0.78,0.79,0.81 0.82,0.85,0.94,1.3,1.6 2.0,2.2,2.3,2.8), mean=1.09, stddev=0.356], linear-params-col-norms=[percentiles(0,1,2,5 10,20,50,80,90 95,98,99,100)=(2.5,2.5,2.6,2.6 2.6,2.7,3.0,4.0,4.3 5.5,6.3,6.4,6.8), mean=3.44, stddev=0.896], bias-{mean,stddev}=-0.02361,0.8314, rank-in=20, rank-out=80, num-samples-history=2000, update-period=4, alpha=4
component name=lstm1-backward.lstm_nonlin type=LstmNonlinearityComponent, input-dim=5120, output-dim=2048, learning-rate=0.0174448, max-change=0.75, cell-dim=1024, use-dropout=false, w_ic-rms=0.8855, w_fc-rms=0.8226, w_oc-rms=0.8798, count=2.35e+05, i_t_sigmoid={ self-repair-lower-threshold=0.05, self-repair-scale=1e-05, self-repaired-proportion=0.00851173, value-avg=[percentiles(0,1,2,5 10,20,50,80,90 95,98,99,100)=(0.06,0.10,0.11,0.16 0.21,0.28,0.44,0.65,0.75 0.82,0.86,0.89,0.93), mean=0.46, stddev=0.2], deriv-avg=[percentiles(0,1,2,5 10,20,50,80,90 95,98,99,100)=(0.04,0.07,0.08,0.09 0.11,0.14,0.19,0.22,0.23 0.23,0.24,0.24,0.24), mean=0.18, stddev=0.0436] }, f_t_sigmoid={ self-repair-lower-threshold=0.05, self-repair-scale=1e-05, self-repaired-proportion=0.0125237, value-avg=[percentiles(0,1,2,5 10,20,50,80,90 95,98,99,100)=(0.07,0.10,0.12,0.15 0.20,0.25,0.41,0.60,0.72 0.80,0.87,0.91,0.96), mean=0.431, stddev=0.197], deriv-avg=[percentiles(0,1,2,5 10,20,50,80,90 95,98,99,100)=(0.03,0.06,0.07,0.09 0.11,0.14,0.19,0.22,0.23 0.24,0.24,0.24,0.24), mean=0.182, stddev=0.0469] }, c_t_tanh={ self-repair-lower-threshold=0.2, self-repair-scale=1e-05, self-repaired-proportion=0.032247, value-avg=[percentiles(0,1,2,5 10,20,50,80,90 95,98,99,100)=(-0.97,-0.88,-0.87,-0.83 -0.76,-0.53,-0.03,0.54,0.73 0.81,0.85,0.86,0.92), mean=-0.014, stddev=0.523], deriv-avg=[percentiles(0,1,2,5 10,20,50,80,90 95,98,99,100)=(0.05,0.17,0.20,0.21 0.24,0.28,0.39,0.57,0.70 0.76,0.82,0.85,0.89), mean=0.43, stddev=0.171] }, o_t_sigmoid={ self-repair-lower-threshold=0.05, self-repair-scale=1e-05, self-repaired-proportion=0.00729548, value-avg=[percentiles(0,1,2,5 10,20,50,80,90 95,98,99,100)=(0.06,0.09,0.11,0.14 0.17,0.22,0.38,0.58,0.68 0.77,0.84,0.86,0.94), mean=0.406, stddev=0.192], deriv-avg=[percentiles(0,1,2,5 10,20,50,80,90 95,98,99,100)=(0.05,0.07,0.08,0.10 0.11,0.14,0.18,0.22,0.23 0.23,0.24,0.24,0.24), mean=0.177, stddev=0.0432] }, m_t_tanh={ self-repair-lower-threshold=0.2, self-repair-scale=1e-05, self-repaired-proportion=0.012478, value-avg=[percentiles(0,1,2,5 10,20,50,80,90 95,98,99,100)=(-0.91,-0.83,-0.77,-0.66 -0.55,-0.38,-0.01,0.35,0.56 0.67,0.77,0.78,0.92), mean=-0.00897, stddev=0.398], deriv-avg=[percentiles(0,1,2,5 10,20,50,80,90 95,98,99,100)=(0.08,0.22,0.25,0.32 0.42,0.54,0.76,0.90,0.95 0.97,0.99,0.99,1.0), mean=0.716, stddev=0.199] }
component name=lstm1-backward.cr_trunc type=BackpropTruncationComponent, dim=1152, scale=0.95, count=1.47e+06, recurrence-interval=1, clipping-threshold=30, clipped-proportion=1.36323e-06, zeroing-threshold=15, zeroing-interval=20, zeroed-proportion=1.36323e-05, count-zeroing-boundaries=73355
component name=lstm1-backward.W_rp type=NaturalGradientAffineComponent, input-dim=1024, output-dim=256, learning-rate=0.0174448, max-change=1.5, linear-params-rms=0.0911, linear-params-row-norms=[percentiles(0,1,2,5 10,20,50,80,90 95,98,99,100)=(2.1,2.2,2.2,2.3 2.4,2.5,2.9,3.3,3.4 3.5,3.5,3.6,3.8), mean=2.89, stddev=0.411], linear-params-col-norms=[percentiles(0,1,2,5 10,20,50,80,90 95,98,99,100)=(0.39,0.44,0.46,0.52 0.61,0.74,1.2,1.9,2.2 2.4,2.6,2.8,3.2), mean=1.33, stddev=0.6], bias-{mean,stddev}=-0.1018,0.8032, rank-in=20, rank-out=80, num-samples-history=2000, update-period=4, alpha=4
component name=lstm2-forward.W_all type=NaturalGradientAffineComponent, input-dim=640, output-dim=4096, learning-rate=0.0174448, max-change=1.5, linear-params-rms=0.04451, linear-params-row-norms=[percentiles(0,1,2,5 10,20,50,80,90 95,98,99,100)=(0.77,0.80,0.81,0.82 0.84,0.87,1.0,1.3,1.5 1.6,1.7,1.8,2.3), mean=1.1, stddev=0.257], linear-params-col-norms=[percentiles(0,1,2,5 10,20,50,80,90 95,98,99,100)=(2.4,2.4,2.4,2.5 2.5,2.5,2.6,3.0,3.6 3.7,3.9,4.0,4.1), mean=2.81, stddev=0.441], bias-{mean,stddev}=0.002511,0.8262, rank-in=20, rank-out=80, num-samples-history=2000, update-period=4, alpha=4
component name=lstm2-forward.lstm_nonlin type=LstmNonlinearityComponent, input-dim=5120, output-dim=2048, learning-rate=0.0174448, max-change=0.75, cell-dim=1024, use-dropout=false, w_ic-rms=0.8163, w_fc-rms=0.8731, w_oc-rms=0.8638, count=2.35e+05, i_t_sigmoid={ self-repair-lower-threshold=0.05, self-repair-scale=1e-05, self-repaired-proportion=0.00797394, value-avg=[percentiles(0,1,2,5 10,20,50,80,90 95,98,99,100)=(0.09,0.10,0.12,0.16 0.23,0.29,0.44,0.61,0.69 0.77,0.82,0.86,0.91), mean=0.45, stddev=0.179], deriv-avg=[percentiles(0,1,2,5 10,20,50,80,90 95,98,99,100)=(0.04,0.06,0.07,0.07 0.08,0.10,0.13,0.17,0.18 0.19,0.20,0.21,0.22), mean=0.134, stddev=0.0365] }, f_t_sigmoid={ self-repair-lower-threshold=0.05, self-repair-scale=1e-05, self-repaired-proportion=0.0128462, value-avg=[percentiles(0,1,2,5 10,20,50,80,90 95,98,99,100)=(0.07,0.11,0.14,0.20 0.26,0.32,0.53,0.70,0.78 0.84,0.88,0.90,0.95), mean=0.519, stddev=0.198], deriv-avg=[percentiles(0,1,2,5 10,20,50,80,90 95,98,99,100)=(0.04,0.05,0.06,0.07 0.08,0.10,0.14,0.17,0.19 0.20,0.21,0.21,0.22), mean=0.137, stddev=0.0392] }, c_t_tanh={ self-repair-lower-threshold=0.2, self-repair-scale=1e-05, self-repaired-proportion=0.34502, value-avg=[percentiles(0,1,2,5 10,20,50,80,90 95,98,99,100)=(-0.89,-0.79,-0.74,-0.65 -0.55,-0.38,-0.009,0.38,0.56 0.67,0.74,0.80,0.87), mean=-0.00501, stddev=0.403], deriv-avg=[percentiles(0,1,2,5 10,20,50,80,90 95,98,99,100)=(0.09,0.11,0.12,0.15 0.16,0.18,0.22,0.34,0.43 0.49,0.54,0.58,0.69), mean=0.262, stddev=0.108] }, o_t_sigmoid={ self-repair-lower-threshold=0.05, self-repair-scale=1e-05, self-repaired-proportion=0.00699738, value-avg=[percentiles(0,1,2,5 10,20,50,80,90 95,98,99,100)=(0.09,0.11,0.13,0.16 0.20,0.27,0.44,0.63,0.72 0.78,0.83,0.86,0.93), mean=0.457, stddev=0.191], deriv-avg=[percentiles(0,1,2,5 10,20,50,80,90 95,98,99,100)=(0.05,0.06,0.07,0.08 0.09,0.10,0.13,0.16,0.18 0.19,0.20,0.20,0.22), mean=0.131, stddev=0.0318] }, m_t_tanh={ self-repair-lower-threshold=0.2, self-repair-scale=1e-05, self-repaired-proportion=0.0113885, value-avg=[percentiles(0,1,2,5 10,20,50,80,90 95,98,99,100)=(-0.87,-0.76,-0.72,-0.61 -0.44,-0.30,0.004,0.29,0.44 0.54,0.68,0.77,0.84), mean=-0.0027, stddev=0.339], deriv-avg=[percentiles(0,1,2,5 10,20,50,80,90 95,98,99,100)=(0.16,0.22,0.25,0.33 0.40,0.48,0.64,0.82,0.89 0.94,0.97,0.98,0.99), mean=0.641, stddev=0.185] }
component name=lstm2-forward.cr_trunc type=BackpropTruncationComponent, dim=1152, scale=0.9, count=1.45e+06, recurrence-interval=2, clipping-threshold=30, clipped-proportion=0, zeroing-threshold=15, zeroing-interval=20, zeroed-proportion=0, count-zeroing-boundaries=145220
component name=lstm2-forward.W_rp type=NaturalGradientAffineComponent, input-dim=1024, output-dim=256, learning-rate=0.0174448, max-change=1.5, linear-params-rms=0.09401, linear-params-row-norms=[percentiles(0,1,2,5 10,20,50,80,90 95,98,99,100)=(2.2,2.2,2.3,2.4 2.4,2.5,3.1,3.4,3.5 3.5,3.6,3.6,3.7), mean=2.98, stddev=0.428], linear-params-col-norms=[percentiles(0,1,2,5 10,20,50,80,90 95,98,99,100)=(0.39,0.47,0.50,0.60 0.71,0.92,1.4,1.9,2.1 2.2,2.4,2.5,2.8), mean=1.42, stddev=0.508], bias-{mean,stddev}=0.03622,0.7966, rank-in=20, rank-out=80, num-samples-history=2000, update-period=4, alpha=4
component name=lstm2-backward.W_all type=NaturalGradientAffineComponent, input-dim=640, output-dim=4096, learning-rate=0.0174448, max-change=1.5, linear-params-rms=0.04425, linear-params-row-norms=[percentiles(0,1,2,5 10,20,50,80,90 95,98,99,100)=(0.77,0.79,0.80,0.82 0.84,0.86,1.0,1.3,1.5 1.7,1.8,1.9,2.3), mean=1.09, stddev=0.265], linear-params-col-norms=[percentiles(0,1,2,5 10,20,50,80,90 95,98,99,100)=(2.4,2.5,2.5,2.5 2.6,2.6,2.7,3.0,3.3 3.4,3.5,3.6,3.8), mean=2.82, stddev=0.275], bias-{mean,stddev}=0.0103,0.8322, rank-in=20, rank-out=80, num-samples-history=2000, update-period=4, alpha=4
component name=lstm2-backward.lstm_nonlin type=LstmNonlinearityComponent, input-dim=5120, output-dim=2048, learning-rate=0.0174448, max-change=0.75, cell-dim=1024, use-dropout=false, w_ic-rms=0.8355, w_fc-rms=0.821, w_oc-rms=0.8271, count=1.76e+05, i_t_sigmoid={ self-repair-lower-threshold=0.05, self-repair-scale=1e-05, self-repaired-proportion=0.00775433, value-avg=[percentiles(0,1,2,5 10,20,50,80,90 95,98,99,100)=(0.07,0.10,0.13,0.17 0.21,0.31,0.48,0.65,0.73 0.79,0.84,0.87,0.90), mean=0.479, stddev=0.189], deriv-avg=[percentiles(0,1,2,5 10,20,50,80,90 95,98,99,100)=(0.05,0.07,0.08,0.09 0.10,0.11,0.14,0.18,0.19 0.20,0.21,0.21,0.22), mean=0.145, stddev=0.0344] }, f_t_sigmoid={ self-repair-lower-threshold=0.05, self-repair-scale=1e-05, self-repaired-proportion=0.00774094, value-avg=[percentiles(0,1,2,5 10,20,50,80,90 95,98,99,100)=(0.07,0.11,0.13,0.17 0.21,0.29,0.45,0.64,0.73 0.81,0.86,0.90,0.92), mean=0.465, stddev=0.193], deriv-avg=[percentiles(0,1,2,5 10,20,50,80,90 95,98,99,100)=(0.05,0.06,0.07,0.08 0.09,0.11,0.15,0.19,0.20 0.21,0.21,0.22,0.23), mean=0.148, stddev=0.0399] }, c_t_tanh={ self-repair-lower-threshold=0.2, self-repair-scale=1e-05, self-repaired-proportion=0.233911, value-avg=[percentiles(0,1,2,5 10,20,50,80,90 95,98,99,100)=(-0.86,-0.80,-0.78,-0.71 -0.59,-0.41,0.03,0.43,0.61 0.71,0.79,0.82,0.88), mean=0.0112, stddev=0.437], deriv-avg=[percentiles(0,1,2,5 10,20,50,80,90 95,98,99,100)=(0.09,0.12,0.14,0.16 0.18,0.20,0.25,0.38,0.47 0.54,0.60,0.62,0.70), mean=0.289, stddev=0.118] }, o_t_sigmoid={ self-repair-lower-threshold=0.05, self-repair-scale=1e-05, self-repaired-proportion=0.0068242, value-avg=[percentiles(0,1,2,5 10,20,50,80,90 95,98,99,100)=(0.08,0.11,0.13,0.16 0.20,0.27,0.44,0.61,0.71 0.77,0.81,0.83,0.88), mean=0.448, stddev=0.187], deriv-avg=[percentiles(0,1,2,5 10,20,50,80,90 95,98,99,100)=(0.05,0.07,0.08,0.09 0.10,0.11,0.13,0.17,0.19 0.20,0.21,0.21,0.22), mean=0.138, stddev=0.033] }, m_t_tanh={ self-repair-lower-threshold=0.2, self-repair-scale=1e-05, self-repaired-proportion=0.00999857, value-avg=[percentiles(0,1,2,5 10,20,50,80,90 95,98,99,100)=(-0.85,-0.79,-0.70,-0.62 -0.49,-0.30,0.01,0.32,0.50 0.61,0.73,0.77,0.87), mean=0.00894, stddev=0.36], deriv-avg=[percentiles(0,1,2,5 10,20,50,80,90 95,98,99,100)=(0.18,0.23,0.24,0.33 0.41,0.51,0.66,0.83,0.91 0.95,0.97,0.98,0.99), mean=0.662, stddev=0.185] }
component name=lstm2-backward.cr_trunc type=BackpropTruncationComponent, dim=1152, scale=0.9, count=8.6e+05, recurrence-interval=2, clipping-threshold=30, clipped-proportion=0, zeroing-threshold=15, zeroing-interval=20, zeroed-proportion=0, count-zeroing-boundaries=86020
component name=lstm2-backward.W_rp type=NaturalGradientAffineComponent, input-dim=1024, output-dim=256, learning-rate=0.0174448, max-change=1.5, linear-params-rms=0.09237, linear-params-row-norms=[percentiles(0,1,2,5 10,20,50,80,90 95,98,99,100)=(2.5,2.6,2.6,2.7 2.7,2.8,2.9,3.1,3.2 3.2,3.3,3.3,3.5), mean=2.95, stddev=0.178], linear-params-col-norms=[percentiles(0,1,2,5 10,20,50,80,90 95,98,99,100)=(0.42,0.49,0.51,0.56 0.67,0.83,1.4,1.9,2.1 2.2,2.4,2.4,3.1), mean=1.38, stddev=0.526], bias-{mean,stddev}=0.05432,0.8811, rank-in=20, rank-out=80, num-samples-history=2000, update-period=4, alpha=4
component name=lstm3-forward.W_all type=NaturalGradientAffineComponent, input-dim=640, output-dim=4096, learning-rate=0.0174448, max-change=1.5, linear-params-rms=0.03267, linear-params-row-norms=[percentiles(0,1,2,5 10,20,50,80,90 95,98,99,100)=(0.74,0.77,0.78,0.79 0.80,0.81,0.83,0.85,0.86 0.86,0.87,0.88,0.91), mean=0.826, stddev=0.0231], linear-params-col-norms=[percentiles(0,1,2,5 10,20,50,80,90 95,98,99,100)=(2.0,2.0,2.0,2.1 2.1,2.1,2.1,2.1,2.1 2.1,2.1,2.1,2.2), mean=2.09, stddev=0.0231], bias-{mean,stddev}=0.00595,0.8294, rank-in=20, rank-out=80, num-samples-history=2000, update-period=4, alpha=4
component name=lstm3-forward.lstm_nonlin type=LstmNonlinearityComponent, input-dim=5120, output-dim=2048, learning-rate=0.0174448, max-change=0.75, cell-dim=1024, use-dropout=false, w_ic-rms=0.8488, w_fc-rms=0.8352, w_oc-rms=0.7925, i_t_sigmoid={ self-repair-lower-threshold=0.05, self-repair-scale=1e-05 }, f_t_sigmoid={ self-repair-lower-threshold=0.05, self-repair-scale=1e-05 }, c_t_tanh={ self-repair-lower-threshold=0.2, self-repair-scale=1e-05 }, o_t_sigmoid={ self-repair-lower-threshold=0.05, self-repair-scale=1e-05 }, m_t_tanh={ self-repair-lower-threshold=0.2, self-repair-scale=1e-05 }
component name=lstm3-forward.cr_trunc type=BackpropTruncationComponent, dim=1152, scale=0.85, count=0, recurrence-interval=3, clipping-threshold=30, clipped-proportion=0, zeroing-threshold=15, zeroing-interval=20, zeroed-proportion=0, count-zeroing-boundaries=0
component name=lstm3-forward.W_rp type=NaturalGradientAffineComponent, input-dim=1024, output-dim=256, learning-rate=0.0174448, max-change=1.5, linear-params-rms=0.02577, linear-params-row-norms=[percentiles(0,1,2,5 10,20,50,80,90 95,98,99,100)=(0.77,0.78,0.79,0.79 0.80,0.81,0.82,0.84,0.85 0.85,0.86,0.87,0.89), mean=0.825, stddev=0.0187], linear-params-col-norms=[percentiles(0,1,2,5 10,20,50,80,90 95,98,99,100)=(0.35,0.36,0.37,0.38 0.39,0.40,0.41,0.43,0.43 0.44,0.45,0.46,0.48), mean=0.412, stddev=0.0179], bias-{mean,stddev}=0.05324,0.7535, rank-in=20, rank-out=80, num-samples-history=2000, update-period=4, alpha=4
component name=lstm3-backward.W_all type=NaturalGradientAffineComponent, input-dim=640, output-dim=4096, learning-rate=0.0174448, max-change=1.5, linear-params-rms=0.04414, linear-params-row-norms=[percentiles(0,1,2,5 10,20,50,80,90 95,98,99,100)=(0.78,0.82,0.84,0.86 0.89,0.94,1.1,1.2,1.4 1.5,1.6,1.7,1.9), mean=1.1, stddev=0.19], linear-params-col-norms=[percentiles(0,1,2,5 10,20,50,80,90 95,98,99,100)=(2.3,2.4,2.4,2.4 2.5,2.5,2.7,3.1,3.4 3.5,3.6,3.7,3.9), mean=2.8, stddev=0.342], bias-{mean,stddev}=0.004591,0.8261, rank-in=20, rank-out=80, num-samples-history=2000, update-period=4, alpha=4
component name=lstm3-backward.lstm_nonlin type=LstmNonlinearityComponent, input-dim=5120, output-dim=2048, learning-rate=0.0174448, max-change=0.75, cell-dim=1024, use-dropout=false, w_ic-rms=0.8084, w_fc-rms=0.7878, w_oc-rms=0.8021, count=1.76e+05, i_t_sigmoid={ self-repair-lower-threshold=0.05, self-repair-scale=1e-05, self-repaired-proportion=0.00682406, value-avg=[percentiles(0,1,2,5 10,20,50,80,90 95,98,99,100)=(0.13,0.19,0.21,0.28 0.33,0.38,0.50,0.63,0.68 0.74,0.78,0.81,0.87), mean=0.502, stddev=0.14], deriv-avg=[percentiles(0,1,2,5 10,20,50,80,90 95,98,99,100)=(0.05,0.07,0.07,0.08 0.08,0.09,0.11,0.13,0.14 0.14,0.16,0.17,0.18), mean=0.11, stddev=0.0209] }, f_t_sigmoid={ self-repair-lower-threshold=0.05, self-repair-scale=1e-05, self-repaired-proportion=0.00704891, value-avg=[percentiles(0,1,2,5 10,20,50,80,90 95,98,99,100)=(0.09,0.15,0.17,0.23 0.29,0.37,0.54,0.70,0.77 0.81,0.85,0.87,0.93), mean=0.536, stddev=0.178], deriv-avg=[percentiles(0,1,2,5 10,20,50,80,90 95,98,99,100)=(0.05,0.06,0.07,0.07 0.08,0.09,0.11,0.13,0.14 0.15,0.16,0.17,0.19), mean=0.111, stddev=0.0233] }, c_t_tanh={ self-repair-lower-threshold=0.2, self-repair-scale=1e-05, self-repaired-proportion=0.698231, value-avg=[percentiles(0,1,2,5 10,20,50,80,90 95,98,99,100)=(-0.78,-0.70,-0.66,-0.56 -0.42,-0.27,-0.01,0.26,0.39 0.50,0.62,0.66,0.77), mean=-0.0127, stddev=0.309], deriv-avg=[percentiles(0,1,2,5 10,20,50,80,90 95,98,99,100)=(0.09,0.10,0.11,0.12 0.13,0.14,0.18,0.21,0.24 0.28,0.33,0.35,0.44), mean=0.183, stddev=0.0492] }, o_t_sigmoid={ self-repair-lower-threshold=0.05, self-repair-scale=1e-05, self-repaired-proportion=0.00678439, value-avg=[percentiles(0,1,2,5 10,20,50,80,90 95,98,99,100)=(0.17,0.21,0.23,0.29 0.33,0.40,0.53,0.65,0.69 0.74,0.77,0.79,0.88), mean=0.521, stddev=0.138], deriv-avg=[percentiles(0,1,2,5 10,20,50,80,90 95,98,99,100)=(0.06,0.07,0.07,0.08 0.08,0.09,0.10,0.12,0.13 0.13,0.14,0.14,0.18), mean=0.103, stddev=0.0163] }, m_t_tanh={ self-repair-lower-threshold=0.2, self-repair-scale=1e-05, self-repaired-proportion=0.00797254, value-avg=[percentiles(0,1,2,5 10,20,50,80,90 95,98,99,100)=(-0.87,-0.66,-0.59,-0.48 -0.37,-0.23,-0.006,0.23,0.36 0.49,0.60,0.67,0.83), mean=-0.00405, stddev=0.283], deriv-avg=[percentiles(0,1,2,5 10,20,50,80,90 95,98,99,100)=(0.20,0.30,0.34,0.41 0.46,0.51,0.62,0.72,0.77 0.82,0.87,0.89,0.96), mean=0.616, stddev=0.123] }
component name=lstm3-backward.cr_trunc type=BackpropTruncationComponent, dim=1152, scale=0.85, count=8.45e+05, recurrence-interval=3, clipping-threshold=30, clipped-proportion=0, zeroing-threshold=15, zeroing-interval=20, zeroed-proportion=0, count-zeroing-boundaries=126795
component name=lstm3-backward.W_rp type=NaturalGradientAffineComponent, input-dim=1024, output-dim=256, learning-rate=0.0174448, max-change=1.5, linear-params-rms=0.1167, linear-params-row-norms=[percentiles(0,1,2,5 10,20,50,80,90 95,98,99,100)=(3.0,3.2,3.2,3.3 3.4,3.5,3.8,3.9,4.0 4.1,4.1,4.2,4.2), mean=3.73, stddev=0.23], linear-params-col-norms=[percentiles(0,1,2,5 10,20,50,80,90 95,98,99,100)=(0.55,0.70,0.83,1.2 1.4,1.6,1.9,2.1,2.2 2.4,2.5,2.6,3.3), mean=1.83, stddev=0.372], bias-{mean,stddev}=-0.0289,0.8562, rank-in=20, rank-out=80, num-samples-history=2000, update-period=4, alpha=4
component name=output.affine type=NaturalGradientAffineComponent, input-dim=256, output-dim=6232, learning-rate=0.0174448, max-change=1.5, linear-params-rms=0.04114, linear-params-row-norms=[percentiles(0,1,2,5 10,20,50,80,90 95,98,99,100)=(0.02,0.49,0.50,0.53 0.55,0.57,0.64,0.72,0.77 0.81,0.88,0.92,1.4), mean=0.652, stddev=0.0923], linear-params-col-norms=[percentiles(0,1,2,5 10,20,50,80,90 95,98,99,100)=(2.6,2.7,2.8,2.9 2.9,3.1,3.2,3.4,3.5 3.6,3.7,3.8,3.8), mean=3.24, stddev=0.226], bias-{mean,stddev}=-7.601e-06,0.01227, rank-in=20, rank-out=80, num-samples-history=2000, update-period=4, alpha=4
component name=output.log-softmax type=LogSoftmaxComponent, dim=6232, oderiv-rms=[percentiles(0,1,2,5 10,20,50,80,90 95,98,99,100)=(0,0,0,0.004 0.005,0.006,0.009,0.01,0.02 0.02,0.03,0.03,0.23), mean=0.0103, stddev=0.00729], oderiv-count=218000
nnet3-show-progress --use-gpu=no exp/nnet3/lstm_sp/19.mdl exp/nnet3/lstm_sp/20.mdl 
WARNING (nnet3-show-progress[5.5.23-c81f5]:Check():nnet-nnet.cc:789) Node lstm3-forward.W_all is never used to compute any output.
WARNING (nnet3-show-progress[5.5.23-c81f5]:Check():nnet-nnet.cc:789) Node lstm3-forward.lstm_nonlin is never used to compute any output.
WARNING (nnet3-show-progress[5.5.23-c81f5]:Check():nnet-nnet.cc:789) Node lstm3-forward.c is never used to compute any output.
WARNING (nnet3-show-progress[5.5.23-c81f5]:Check():nnet-nnet.cc:789) Node lstm3-forward.m is never used to compute any output.
WARNING (nnet3-show-progress[5.5.23-c81f5]:Check():nnet-nnet.cc:789) Node lstm3-forward.rp is never used to compute any output.
WARNING (nnet3-show-progress[5.5.23-c81f5]:Check():nnet-nnet.cc:789) Node lstm3-forward.r is never used to compute any output.
WARNING (nnet3-show-progress[5.5.23-c81f5]:Check():nnet-nnet.cc:789) Node lstm3-forward.cr_trunc is never used to compute any output.
WARNING (nnet3-show-progress[5.5.23-c81f5]:Check():nnet-nnet.cc:789) Node lstm3-forward.c_trunc is never used to compute any output.
WARNING (nnet3-show-progress[5.5.23-c81f5]:Check():nnet-nnet.cc:789) Node lstm3-forward.r_trunc is never used to compute any output.
WARNING (nnet3-show-progress[5.5.23-c81f5]:Check():nnet-nnet.cc:789) Node lstm3-forward.W_all is never used to compute any output.
WARNING (nnet3-show-progress[5.5.23-c81f5]:Check():nnet-nnet.cc:789) Node lstm3-forward.lstm_nonlin is never used to compute any output.
WARNING (nnet3-show-progress[5.5.23-c81f5]:Check():nnet-nnet.cc:789) Node lstm3-forward.c is never used to compute any output.
WARNING (nnet3-show-progress[5.5.23-c81f5]:Check():nnet-nnet.cc:789) Node lstm3-forward.m is never used to compute any output.
WARNING (nnet3-show-progress[5.5.23-c81f5]:Check():nnet-nnet.cc:789) Node lstm3-forward.rp is never used to compute any output.
WARNING (nnet3-show-progress[5.5.23-c81f5]:Check():nnet-nnet.cc:789) Node lstm3-forward.r is never used to compute any output.
WARNING (nnet3-show-progress[5.5.23-c81f5]:Check():nnet-nnet.cc:789) Node lstm3-forward.cr_trunc is never used to compute any output.
WARNING (nnet3-show-progress[5.5.23-c81f5]:Check():nnet-nnet.cc:789) Node lstm3-forward.c_trunc is never used to compute any output.
WARNING (nnet3-show-progress[5.5.23-c81f5]:Check():nnet-nnet.cc:789) Node lstm3-forward.r_trunc is never used to compute any output.
WARNING (nnet3-show-progress[5.5.23-c81f5]:Check():nnet-nnet.cc:789) Node lstm3-forward.W_all is never used to compute any output.
WARNING (nnet3-show-progress[5.5.23-c81f5]:Check():nnet-nnet.cc:789) Node lstm3-forward.lstm_nonlin is never used to compute any output.
WARNING (nnet3-show-progress[5.5.23-c81f5]:Check():nnet-nnet.cc:789) Node lstm3-forward.c is never used to compute any output.
WARNING (nnet3-show-progress[5.5.23-c81f5]:Check():nnet-nnet.cc:789) Node lstm3-forward.m is never used to compute any output.
WARNING (nnet3-show-progress[5.5.23-c81f5]:Check():nnet-nnet.cc:789) Node lstm3-forward.rp is never used to compute any output.
WARNING (nnet3-show-progress[5.5.23-c81f5]:Check():nnet-nnet.cc:789) Node lstm3-forward.r is never used to compute any output.
WARNING (nnet3-show-progress[5.5.23-c81f5]:Check():nnet-nnet.cc:789) Node lstm3-forward.cr_trunc is never used to compute any output.
WARNING (nnet3-show-progress[5.5.23-c81f5]:Check():nnet-nnet.cc:789) Node lstm3-forward.c_trunc is never used to compute any output.
WARNING (nnet3-show-progress[5.5.23-c81f5]:Check():nnet-nnet.cc:789) Node lstm3-forward.r_trunc is never used to compute any output.
LOG (nnet3-show-progress[5.5.23-c81f5]:main():nnet3-show-progress.cc:143) Parameter differences per layer are [ lstm1-forward.W_all:11.6391 lstm1-forward.lstm_nonlin:2.35819 lstm1-forward.W_rp:11.0389 lstm1-backward.W_all:11.7618 lstm1-backward.lstm_nonlin:2.17267 lstm1-backward.W_rp:11.2634 lstm2-forward.W_all:11.5678 lstm2-forward.lstm_nonlin:1.98496 lstm2-forward.W_rp:10.8818 lstm2-backward.W_all:11.6735 lstm2-backward.lstm_nonlin:1.12031 lstm2-backward.W_rp:11.0133 lstm3-forward.W_all:0.756897 lstm3-forward.lstm_nonlin:0.462356 lstm3-forward.W_rp:0.180753 lstm3-backward.W_all:11.2548 lstm3-backward.lstm_nonlin:1.54579 lstm3-backward.W_rp:9.81917 output.affine:8.41917 ]
LOG (nnet3-show-progress[5.5.23-c81f5]:main():nnet3-show-progress.cc:153) Norms of parameter matrices from <new-nnet-in> are [ lstm1-forward.W_all:90.4995 lstm1-forward.lstm_nonlin:47.4831 lstm1-forward.W_rp:47.9427 lstm1-backward.W_all:90.7398 lstm1-backward.lstm_nonlin:47.8379 lstm1-backward.W_rp:48.4069 lstm2-forward.W_all:89.382 lstm2-forward.lstm_nonlin:47.1902 lstm2-forward.W_rp:49.7966 lstm2-backward.W_all:89.2749 lstm2-backward.lstm_nonlin:45.8858 lstm2-backward.W_rp:49.3554 lstm3-forward.W_all:74.9328 lstm3-forward.lstm_nonlin:45.7733 lstm3-forward.W_rp:17.8946 lstm3-backward.W_all:88.8957 lstm3-backward.lstm_nonlin:44.3119 lstm3-backward.W_rp:61.3142 output.affine:51.9669 ]
LOG (nnet3-show-progress[5.5.23-c81f5]:main():nnet3-show-progress.cc:157) Relative parameter differences per layer are [ lstm1-forward.W_all:0.128508 lstm1-forward.lstm_nonlin:0.0493618 lstm1-forward.W_rp:0.233174 lstm1-backward.W_all:0.129515 lstm1-backward.lstm_nonlin:0.045022 lstm1-backward.W_rp:0.235953 lstm2-forward.W_all:0.129246 lstm2-forward.lstm_nonlin:0.0417703 lstm2-forward.W_rp:0.221071 lstm2-backward.W_all:0.13058 lstm2-backward.lstm_nonlin:0.0242047 lstm2-backward.W_rp:0.225455 lstm3-forward.W_all:0.00999999 lstm3-forward.lstm_nonlin:0.00999999 lstm3-forward.W_rp:0.00999999 lstm3-backward.W_all:0.126396 lstm3-backward.lstm_nonlin:0.0345549 lstm3-backward.W_rp:0.160974 output.affine:0.164981 ]
# Accounting: time=1 threads=1
# Ended (code 0) at Mon Jan 14 02:01:56 -02 2019, elapsed time 1 seconds
