# nnet3-info exp/nnet3/lstm_sp/52.mdl && nnet3-show-progress --use-gpu=no exp/nnet3/lstm_sp/51.mdl exp/nnet3/lstm_sp/52.mdl 
# Started at Tue Jan 15 02:01:19 -02 2019
#
nnet3-info exp/nnet3/lstm_sp/52.mdl 
WARNING (nnet3-info[5.5.23-c81f5]:Check():nnet-nnet.cc:789) Node lstm3-forward.W_all is never used to compute any output.
WARNING (nnet3-info[5.5.23-c81f5]:Check():nnet-nnet.cc:789) Node lstm3-forward.lstm_nonlin is never used to compute any output.
WARNING (nnet3-info[5.5.23-c81f5]:Check():nnet-nnet.cc:789) Node lstm3-forward.c is never used to compute any output.
WARNING (nnet3-info[5.5.23-c81f5]:Check():nnet-nnet.cc:789) Node lstm3-forward.m is never used to compute any output.
WARNING (nnet3-info[5.5.23-c81f5]:Check():nnet-nnet.cc:789) Node lstm3-forward.rp is never used to compute any output.
WARNING (nnet3-info[5.5.23-c81f5]:Check():nnet-nnet.cc:789) Node lstm3-forward.r is never used to compute any output.
WARNING (nnet3-info[5.5.23-c81f5]:Check():nnet-nnet.cc:789) Node lstm3-forward.cr_trunc is never used to compute any output.
WARNING (nnet3-info[5.5.23-c81f5]:Check():nnet-nnet.cc:789) Node lstm3-forward.c_trunc is never used to compute any output.
WARNING (nnet3-info[5.5.23-c81f5]:Check():nnet-nnet.cc:789) Node lstm3-forward.r_trunc is never used to compute any output.
left-context: 2
right-context: 2
num-parameters: 17210968
modulus: 1
input-node name=ivector dim=100
input-node name=input dim=40
component-node name=lda component=lda input=Append(Offset(input, -2), Offset(input, -1), input, Offset(input, 1), Offset(input, 2), ReplaceIndex(ivector, t, 0)) input-dim=300 output-dim=300
component-node name=lstm1-forward.W_all component=lstm1-forward.W_all input=Append(lda, IfDefined(Offset(lstm1-forward.r_trunc, -1))) input-dim=428 output-dim=4096
component-node name=lstm1-forward.lstm_nonlin component=lstm1-forward.lstm_nonlin input=Append(lstm1-forward.W_all, IfDefined(Offset(lstm1-forward.c_trunc, -1))) input-dim=5120 output-dim=2048
dim-range-node name=lstm1-forward.c input-node=lstm1-forward.lstm_nonlin dim-offset=0 dim=1024
dim-range-node name=lstm1-forward.m input-node=lstm1-forward.lstm_nonlin dim-offset=1024 dim=1024
component-node name=lstm1-forward.rp component=lstm1-forward.W_rp input=lstm1-forward.m input-dim=1024 output-dim=256
dim-range-node name=lstm1-forward.r input-node=lstm1-forward.rp dim-offset=0 dim=128
component-node name=lstm1-forward.cr_trunc component=lstm1-forward.cr_trunc input=Append(lstm1-forward.c, lstm1-forward.r) input-dim=1152 output-dim=1152
dim-range-node name=lstm1-forward.c_trunc input-node=lstm1-forward.cr_trunc dim-offset=0 dim=1024
dim-range-node name=lstm1-forward.r_trunc input-node=lstm1-forward.cr_trunc dim-offset=1024 dim=128
component-node name=lstm1-backward.W_all component=lstm1-backward.W_all input=Append(lda, IfDefined(Offset(lstm1-backward.r_trunc, 1))) input-dim=428 output-dim=4096
component-node name=lstm1-backward.lstm_nonlin component=lstm1-backward.lstm_nonlin input=Append(lstm1-backward.W_all, IfDefined(Offset(lstm1-backward.c_trunc, 1))) input-dim=5120 output-dim=2048
dim-range-node name=lstm1-backward.c input-node=lstm1-backward.lstm_nonlin dim-offset=0 dim=1024
dim-range-node name=lstm1-backward.m input-node=lstm1-backward.lstm_nonlin dim-offset=1024 dim=1024
component-node name=lstm1-backward.rp component=lstm1-backward.W_rp input=lstm1-backward.m input-dim=1024 output-dim=256
dim-range-node name=lstm1-backward.r input-node=lstm1-backward.rp dim-offset=0 dim=128
component-node name=lstm1-backward.cr_trunc component=lstm1-backward.cr_trunc input=Append(lstm1-backward.c, lstm1-backward.r) input-dim=1152 output-dim=1152
dim-range-node name=lstm1-backward.c_trunc input-node=lstm1-backward.cr_trunc dim-offset=0 dim=1024
dim-range-node name=lstm1-backward.r_trunc input-node=lstm1-backward.cr_trunc dim-offset=1024 dim=128
component-node name=lstm2-forward.W_all component=lstm2-forward.W_all input=Append(lstm1-forward.rp, lstm1-backward.rp, IfDefined(Offset(lstm2-forward.r_trunc, -2))) input-dim=640 output-dim=4096
component-node name=lstm2-forward.lstm_nonlin component=lstm2-forward.lstm_nonlin input=Append(lstm2-forward.W_all, IfDefined(Offset(lstm2-forward.c_trunc, -2))) input-dim=5120 output-dim=2048
dim-range-node name=lstm2-forward.c input-node=lstm2-forward.lstm_nonlin dim-offset=0 dim=1024
dim-range-node name=lstm2-forward.m input-node=lstm2-forward.lstm_nonlin dim-offset=1024 dim=1024
component-node name=lstm2-forward.rp component=lstm2-forward.W_rp input=lstm2-forward.m input-dim=1024 output-dim=256
dim-range-node name=lstm2-forward.r input-node=lstm2-forward.rp dim-offset=0 dim=128
component-node name=lstm2-forward.cr_trunc component=lstm2-forward.cr_trunc input=Append(lstm2-forward.c, lstm2-forward.r) input-dim=1152 output-dim=1152
dim-range-node name=lstm2-forward.c_trunc input-node=lstm2-forward.cr_trunc dim-offset=0 dim=1024
dim-range-node name=lstm2-forward.r_trunc input-node=lstm2-forward.cr_trunc dim-offset=1024 dim=128
component-node name=lstm2-backward.W_all component=lstm2-backward.W_all input=Append(lstm1-forward.rp, lstm1-backward.rp, IfDefined(Offset(lstm2-backward.r_trunc, 2))) input-dim=640 output-dim=4096
component-node name=lstm2-backward.lstm_nonlin component=lstm2-backward.lstm_nonlin input=Append(lstm2-backward.W_all, IfDefined(Offset(lstm2-backward.c_trunc, 2))) input-dim=5120 output-dim=2048
dim-range-node name=lstm2-backward.c input-node=lstm2-backward.lstm_nonlin dim-offset=0 dim=1024
dim-range-node name=lstm2-backward.m input-node=lstm2-backward.lstm_nonlin dim-offset=1024 dim=1024
component-node name=lstm2-backward.rp component=lstm2-backward.W_rp input=lstm2-backward.m input-dim=1024 output-dim=256
dim-range-node name=lstm2-backward.r input-node=lstm2-backward.rp dim-offset=0 dim=128
component-node name=lstm2-backward.cr_trunc component=lstm2-backward.cr_trunc input=Append(lstm2-backward.c, lstm2-backward.r) input-dim=1152 output-dim=1152
dim-range-node name=lstm2-backward.c_trunc input-node=lstm2-backward.cr_trunc dim-offset=0 dim=1024
dim-range-node name=lstm2-backward.r_trunc input-node=lstm2-backward.cr_trunc dim-offset=1024 dim=128
component-node name=lstm3-forward.W_all component=lstm3-forward.W_all input=Append(lstm2-forward.rp, lstm2-backward.rp, IfDefined(Offset(lstm3-forward.r_trunc, -3))) input-dim=640 output-dim=4096
component-node name=lstm3-forward.lstm_nonlin component=lstm3-forward.lstm_nonlin input=Append(lstm3-forward.W_all, IfDefined(Offset(lstm3-forward.c_trunc, -3))) input-dim=5120 output-dim=2048
dim-range-node name=lstm3-forward.c input-node=lstm3-forward.lstm_nonlin dim-offset=0 dim=1024
dim-range-node name=lstm3-forward.m input-node=lstm3-forward.lstm_nonlin dim-offset=1024 dim=1024
component-node name=lstm3-forward.rp component=lstm3-forward.W_rp input=lstm3-forward.m input-dim=1024 output-dim=256
dim-range-node name=lstm3-forward.r input-node=lstm3-forward.rp dim-offset=0 dim=128
component-node name=lstm3-forward.cr_trunc component=lstm3-forward.cr_trunc input=Append(lstm3-forward.c, lstm3-forward.r) input-dim=1152 output-dim=1152
dim-range-node name=lstm3-forward.c_trunc input-node=lstm3-forward.cr_trunc dim-offset=0 dim=1024
dim-range-node name=lstm3-forward.r_trunc input-node=lstm3-forward.cr_trunc dim-offset=1024 dim=128
component-node name=lstm3-backward.W_all component=lstm3-backward.W_all input=Append(lstm2-forward.rp, lstm2-backward.rp, IfDefined(Offset(lstm3-backward.r_trunc, 3))) input-dim=640 output-dim=4096
component-node name=lstm3-backward.lstm_nonlin component=lstm3-backward.lstm_nonlin input=Append(lstm3-backward.W_all, IfDefined(Offset(lstm3-backward.c_trunc, 3))) input-dim=5120 output-dim=2048
dim-range-node name=lstm3-backward.c input-node=lstm3-backward.lstm_nonlin dim-offset=0 dim=1024
dim-range-node name=lstm3-backward.m input-node=lstm3-backward.lstm_nonlin dim-offset=1024 dim=1024
component-node name=lstm3-backward.rp component=lstm3-backward.W_rp input=lstm3-backward.m input-dim=1024 output-dim=256
dim-range-node name=lstm3-backward.r input-node=lstm3-backward.rp dim-offset=0 dim=128
component-node name=lstm3-backward.cr_trunc component=lstm3-backward.cr_trunc input=Append(lstm3-backward.c, lstm3-backward.r) input-dim=1152 output-dim=1152
dim-range-node name=lstm3-backward.c_trunc input-node=lstm3-backward.cr_trunc dim-offset=0 dim=1024
dim-range-node name=lstm3-backward.r_trunc input-node=lstm3-backward.cr_trunc dim-offset=1024 dim=128
component-node name=output.affine component=output.affine input=lstm3-backward.rp input-dim=256 output-dim=6232
component-node name=output.log-softmax component=output.log-softmax input=output.affine input-dim=6232 output-dim=6232
output-node name=output input=output.log-softmax dim=6232 objective=linear
component name=lda type=FixedAffineComponent, input-dim=300, output-dim=300, linear-params-rms=0.009677, bias-{mean,stddev}=-0.05701,0.8092
component name=lstm1-forward.W_all type=NaturalGradientAffineComponent, input-dim=428, output-dim=4096, learning-rate=0.00998258, max-change=1.5, linear-params-rms=0.06074, linear-params-row-norms=[percentiles(0,1,2,5 10,20,50,80,90 95,98,99,100)=(0.55,0.58,0.59,0.61 0.64,0.71,1.0,1.6,1.9 2.2,2.4,2.6,3.2), mean=1.15, stddev=0.501], linear-params-col-norms=[percentiles(0,1,2,5 10,20,50,80,90 95,98,99,100)=(1.9,1.9,1.9,2.0 2.0,2.2,3.0,4.7,5.0 6.9,8.1,8.2,8.8), mean=3.57, stddev=1.53], bias-{mean,stddev}=-0.01162,0.6055, rank-in=20, rank-out=80, num-samples-history=2000, update-period=4, alpha=4
component name=lstm1-forward.lstm_nonlin type=LstmNonlinearityComponent, input-dim=5120, output-dim=2048, learning-rate=0.00998258, max-change=0.75, cell-dim=1024, use-dropout=false, w_ic-rms=0.7105, w_fc-rms=0.6094, w_oc-rms=0.6698, count=2.51e+05, i_t_sigmoid={ self-repair-lower-threshold=0.05, self-repair-scale=1e-05, self-repaired-proportion=0.00878816, value-avg=[percentiles(0,1,2,5 10,20,50,80,90 95,98,99,100)=(0.05,0.09,0.10,0.14 0.17,0.22,0.36,0.53,0.64 0.72,0.80,0.82,0.90), mean=0.383, stddev=0.177], deriv-avg=[percentiles(0,1,2,5 10,20,50,80,90 95,98,99,100)=(0.04,0.07,0.08,0.09 0.11,0.13,0.18,0.22,0.23 0.24,0.24,0.24,0.25), mean=0.172, stddev=0.0444] }, f_t_sigmoid={ self-repair-lower-threshold=0.05, self-repair-scale=1e-05, self-repaired-proportion=0.0116087, value-avg=[percentiles(0,1,2,5 10,20,50,80,90 95,98,99,100)=(0.09,0.12,0.14,0.16 0.21,0.27,0.42,0.59,0.69 0.78,0.85,0.90,0.94), mean=0.436, stddev=0.184], deriv-avg=[percentiles(0,1,2,5 10,20,50,80,90 95,98,99,100)=(0.04,0.06,0.08,0.10 0.12,0.15,0.19,0.23,0.23 0.24,0.24,0.24,0.25), mean=0.186, stddev=0.0434] }, c_t_tanh={ self-repair-lower-threshold=0.2, self-repair-scale=1e-05, self-repaired-proportion=0.0461771, value-avg=[percentiles(0,1,2,5 10,20,50,80,90 95,98,99,100)=(-0.90,-0.87,-0.86,-0.82 -0.76,-0.59,-0.01,0.53,0.70 0.79,0.83,0.86,0.93), mean=-0.0215, stddev=0.526], deriv-avg=[percentiles(0,1,2,5 10,20,50,80,90 95,98,99,100)=(0.12,0.18,0.19,0.20 0.22,0.26,0.35,0.50,0.62 0.71,0.80,0.86,0.93), mean=0.387, stddev=0.154] }, o_t_sigmoid={ self-repair-lower-threshold=0.05, self-repair-scale=1e-05, self-repaired-proportion=0.00957255, value-avg=[percentiles(0,1,2,5 10,20,50,80,90 95,98,99,100)=(0.05,0.08,0.09,0.11 0.14,0.17,0.29,0.45,0.54 0.64,0.73,0.80,0.93), mean=0.32, stddev=0.166], deriv-avg=[percentiles(0,1,2,5 10,20,50,80,90 95,98,99,100)=(0.04,0.06,0.07,0.08 0.10,0.12,0.17,0.21,0.23 0.23,0.24,0.24,0.25), mean=0.163, stddev=0.0473] }, m_t_tanh={ self-repair-lower-threshold=0.2, self-repair-scale=1e-05, self-repaired-proportion=0.011, value-avg=[percentiles(0,1,2,5 10,20,50,80,90 95,98,99,100)=(-0.88,-0.81,-0.75,-0.65 -0.54,-0.36,-0.03,0.30,0.50 0.60,0.72,0.75,0.89), mean=-0.0233, stddev=0.376], deriv-avg=[percentiles(0,1,2,5 10,20,50,80,90 95,98,99,100)=(0.13,0.23,0.27,0.37 0.45,0.58,0.79,0.92,0.95 0.97,0.98,0.98,0.99), mean=0.746, stddev=0.189] }
component name=lstm1-forward.cr_trunc type=BackpropTruncationComponent, dim=1152, scale=0.95, count=1.47e+06, recurrence-interval=1, clipping-threshold=30, clipped-proportion=6.81617e-07, zeroing-threshold=15, zeroing-interval=20, zeroed-proportion=4.0897e-05, count-zeroing-boundaries=73355
component name=lstm1-forward.W_rp type=NaturalGradientAffineComponent, input-dim=1024, output-dim=256, learning-rate=0.00998258, max-change=1.5, linear-params-rms=0.116, linear-params-row-norms=[percentiles(0,1,2,5 10,20,50,80,90 95,98,99,100)=(2.7,2.8,2.9,3.0 3.1,3.2,3.8,4.1,4.2 4.3,4.3,4.4,4.5), mean=3.68, stddev=0.439], linear-params-col-norms=[percentiles(0,1,2,5 10,20,50,80,90 95,98,99,100)=(0.40,0.48,0.54,0.62 0.79,1.1,1.7,2.4,2.6 2.8,3.0,3.2,3.5), mean=1.73, stddev=0.67], bias-{mean,stddev}=-0.03858,0.6376, rank-in=20, rank-out=80, num-samples-history=2000, update-period=4, alpha=4
component name=lstm1-backward.W_all type=NaturalGradientAffineComponent, input-dim=428, output-dim=4096, learning-rate=0.00998258, max-change=1.5, linear-params-rms=0.06134, linear-params-row-norms=[percentiles(0,1,2,5 10,20,50,80,90 95,98,99,100)=(0.54,0.58,0.59,0.61 0.63,0.68,0.97,1.6,2.0 2.3,2.6,2.8,3.2), mean=1.15, stddev=0.545], linear-params-col-norms=[percentiles(0,1,2,5 10,20,50,80,90 95,98,99,100)=(1.9,1.9,2.0,2.0 2.0,2.3,3.1,4.6,5.0 7.1,8.0,8.3,8.8), mean=3.62, stddev=1.51], bias-{mean,stddev}=-0.02115,0.604, rank-in=20, rank-out=80, num-samples-history=2000, update-period=4, alpha=4
component name=lstm1-backward.lstm_nonlin type=LstmNonlinearityComponent, input-dim=5120, output-dim=2048, learning-rate=0.00998258, max-change=0.75, cell-dim=1024, use-dropout=false, w_ic-rms=0.6742, w_fc-rms=0.6219, w_oc-rms=0.6881, count=2.51e+05, i_t_sigmoid={ self-repair-lower-threshold=0.05, self-repair-scale=1e-05, self-repaired-proportion=0.0102955, value-avg=[percentiles(0,1,2,5 10,20,50,80,90 95,98,99,100)=(0.04,0.09,0.11,0.14 0.17,0.22,0.36,0.53,0.65 0.73,0.79,0.82,0.91), mean=0.386, stddev=0.178], deriv-avg=[percentiles(0,1,2,5 10,20,50,80,90 95,98,99,100)=(0.03,0.07,0.08,0.09 0.11,0.13,0.18,0.22,0.23 0.24,0.24,0.24,0.25), mean=0.177, stddev=0.0459] }, f_t_sigmoid={ self-repair-lower-threshold=0.05, self-repair-scale=1e-05, self-repaired-proportion=0.0118543, value-avg=[percentiles(0,1,2,5 10,20,50,80,90 95,98,99,100)=(0.07,0.11,0.13,0.16 0.19,0.24,0.37,0.55,0.67 0.75,0.86,0.89,0.95), mean=0.402, stddev=0.183], deriv-avg=[percentiles(0,1,2,5 10,20,50,80,90 95,98,99,100)=(0.04,0.06,0.08,0.10 0.12,0.14,0.19,0.23,0.24 0.24,0.24,0.25,0.25), mean=0.186, stddev=0.0451] }, c_t_tanh={ self-repair-lower-threshold=0.2, self-repair-scale=1e-05, self-repaired-proportion=0.0308586, value-avg=[percentiles(0,1,2,5 10,20,50,80,90 95,98,99,100)=(-0.93,-0.88,-0.86,-0.81 -0.74,-0.57,-0.02,0.56,0.73 0.80,0.85,0.87,0.89), mean=-0.0103, stddev=0.529], deriv-avg=[percentiles(0,1,2,5 10,20,50,80,90 95,98,99,100)=(0.12,0.19,0.20,0.21 0.23,0.27,0.37,0.53,0.66 0.76,0.86,0.89,0.95), mean=0.41, stddev=0.165] }, o_t_sigmoid={ self-repair-lower-threshold=0.05, self-repair-scale=1e-05, self-repaired-proportion=0.0102617, value-avg=[percentiles(0,1,2,5 10,20,50,80,90 95,98,99,100)=(0.05,0.07,0.08,0.11 0.13,0.17,0.27,0.43,0.53 0.64,0.73,0.83,0.93), mean=0.31, stddev=0.165], deriv-avg=[percentiles(0,1,2,5 10,20,50,80,90 95,98,99,100)=(0.04,0.06,0.06,0.08 0.10,0.12,0.17,0.21,0.23 0.24,0.24,0.24,0.25), mean=0.164, stddev=0.0489] }, m_t_tanh={ self-repair-lower-threshold=0.2, self-repair-scale=1e-05, self-repaired-proportion=0.0101316, value-avg=[percentiles(0,1,2,5 10,20,50,80,90 95,98,99,100)=(-0.90,-0.79,-0.73,-0.62 -0.51,-0.34,-0.005,0.32,0.51 0.62,0.72,0.79,0.88), mean=-0.00697, stddev=0.373], deriv-avg=[percentiles(0,1,2,5 10,20,50,80,90 95,98,99,100)=(0.19,0.24,0.29,0.37 0.49,0.61,0.81,0.93,0.96 0.98,0.99,0.99,1.0), mean=0.763, stddev=0.186] }
component name=lstm1-backward.cr_trunc type=BackpropTruncationComponent, dim=1152, scale=0.95, count=1.47e+06, recurrence-interval=1, clipping-threshold=30, clipped-proportion=3.40808e-06, zeroing-threshold=15, zeroing-interval=20, zeroed-proportion=0.000109059, count-zeroing-boundaries=73355
component name=lstm1-backward.W_rp type=NaturalGradientAffineComponent, input-dim=1024, output-dim=256, learning-rate=0.00998258, max-change=1.5, linear-params-rms=0.1132, linear-params-row-norms=[percentiles(0,1,2,5 10,20,50,80,90 95,98,99,100)=(2.6,2.8,2.8,3.0 3.1,3.2,3.7,3.9,4.0 4.1,4.2,4.3,4.5), mean=3.6, stddev=0.374], linear-params-col-norms=[percentiles(0,1,2,5 10,20,50,80,90 95,98,99,100)=(0.34,0.43,0.49,0.60 0.73,0.96,1.7,2.3,2.6 2.8,3.1,3.3,3.8), mean=1.67, stddev=0.706], bias-{mean,stddev}=-0.07747,0.6077, rank-in=20, rank-out=80, num-samples-history=2000, update-period=4, alpha=4
component name=lstm2-forward.W_all type=NaturalGradientAffineComponent, input-dim=640, output-dim=4096, learning-rate=0.00998258, max-change=1.5, linear-params-rms=0.04875, linear-params-row-norms=[percentiles(0,1,2,5 10,20,50,80,90 95,98,99,100)=(0.56,0.59,0.60,0.63 0.68,0.79,1.1,1.5,1.7 1.8,2.0,2.0,2.7), mean=1.17, stddev=0.383], linear-params-col-norms=[percentiles(0,1,2,5 10,20,50,80,90 95,98,99,100)=(2.2,2.3,2.3,2.3 2.4,2.5,2.6,3.2,4.6 4.8,4.9,5.0,5.2), mean=3.01, stddev=0.824], bias-{mean,stddev}=0.0008787,0.599, rank-in=20, rank-out=80, num-samples-history=2000, update-period=4, alpha=4
component name=lstm2-forward.lstm_nonlin type=LstmNonlinearityComponent, input-dim=5120, output-dim=2048, learning-rate=0.00998258, max-change=0.75, cell-dim=1024, use-dropout=false, w_ic-rms=0.6143, w_fc-rms=0.6643, w_oc-rms=0.6788, count=2.51e+05, i_t_sigmoid={ self-repair-lower-threshold=0.05, self-repair-scale=1e-05, self-repaired-proportion=0.0143737, value-avg=[percentiles(0,1,2,5 10,20,50,80,90 95,98,99,100)=(0.08,0.10,0.11,0.13 0.16,0.21,0.32,0.49,0.57 0.64,0.72,0.80,0.89), mean=0.35, stddev=0.158], deriv-avg=[percentiles(0,1,2,5 10,20,50,80,90 95,98,99,100)=(0.05,0.05,0.05,0.06 0.07,0.09,0.13,0.17,0.19 0.20,0.22,0.22,0.23), mean=0.127, stddev=0.0433] }, f_t_sigmoid={ self-repair-lower-threshold=0.05, self-repair-scale=1e-05, self-repaired-proportion=0.014373, value-avg=[percentiles(0,1,2,5 10,20,50,80,90 95,98,99,100)=(0.08,0.13,0.15,0.21 0.28,0.35,0.54,0.72,0.78 0.84,0.90,0.91,0.94), mean=0.535, stddev=0.194], deriv-avg=[percentiles(0,1,2,5 10,20,50,80,90 95,98,99,100)=(0.04,0.05,0.05,0.07 0.08,0.11,0.14,0.18,0.21 0.22,0.23,0.23,0.23), mean=0.144, stddev=0.0445] }, c_t_tanh={ self-repair-lower-threshold=0.2, self-repair-scale=1e-05, self-repaired-proportion=0.171779, value-avg=[percentiles(0,1,2,5 10,20,50,80,90 95,98,99,100)=(-0.85,-0.76,-0.72,-0.61 -0.52,-0.35,-0.03,0.33,0.49 0.61,0.69,0.74,0.83), mean=-0.0141, stddev=0.37], deriv-avg=[percentiles(0,1,2,5 10,20,50,80,90 95,98,99,100)=(0.09,0.15,0.16,0.18 0.19,0.20,0.23,0.33,0.43 0.54,0.62,0.68,0.84), mean=0.275, stddev=0.111] }, o_t_sigmoid={ self-repair-lower-threshold=0.05, self-repair-scale=1e-05, self-repaired-proportion=0.0103398, value-avg=[percentiles(0,1,2,5 10,20,50,80,90 95,98,99,100)=(0.07,0.10,0.11,0.13 0.16,0.20,0.32,0.48,0.59 0.67,0.80,0.85,0.93), mean=0.346, stddev=0.171], deriv-avg=[percentiles(0,1,2,5 10,20,50,80,90 95,98,99,100)=(0.05,0.06,0.06,0.07 0.08,0.09,0.12,0.15,0.17 0.19,0.21,0.22,0.23), mean=0.122, stddev=0.0356] }, m_t_tanh={ self-repair-lower-threshold=0.2, self-repair-scale=1e-05, self-repaired-proportion=0.00886626, value-avg=[percentiles(0,1,2,5 10,20,50,80,90 95,98,99,100)=(-0.86,-0.77,-0.71,-0.54 -0.41,-0.23,0.003,0.23,0.37 0.51,0.67,0.72,0.85), mean=-0.004, stddev=0.308], deriv-avg=[percentiles(0,1,2,5 10,20,50,80,90 95,98,99,100)=(0.20,0.24,0.27,0.35 0.45,0.56,0.74,0.87,0.92 0.95,0.98,0.98,0.99), mean=0.709, stddev=0.177] }
component name=lstm2-forward.cr_trunc type=BackpropTruncationComponent, dim=1152, scale=0.9, count=1.45e+06, recurrence-interval=2, clipping-threshold=30, clipped-proportion=2.75444e-06, zeroing-threshold=15, zeroing-interval=20, zeroed-proportion=2.06583e-05, count-zeroing-boundaries=145220
component name=lstm2-forward.W_rp type=NaturalGradientAffineComponent, input-dim=1024, output-dim=256, learning-rate=0.00998258, max-change=1.5, linear-params-rms=0.1173, linear-params-row-norms=[percentiles(0,1,2,5 10,20,50,80,90 95,98,99,100)=(2.6,2.7,2.8,2.8 3.0,3.1,3.9,4.3,4.4 4.5,4.5,4.6,4.7), mean=3.7, stddev=0.606], linear-params-col-norms=[percentiles(0,1,2,5 10,20,50,80,90 95,98,99,100)=(0.32,0.47,0.56,0.74 0.95,1.3,1.9,2.3,2.5 2.6,2.8,2.8,3.0), mean=1.79, stddev=0.566], bias-{mean,stddev}=0.02965,0.596, rank-in=20, rank-out=80, num-samples-history=2000, update-period=4, alpha=4
component name=lstm2-backward.W_all type=NaturalGradientAffineComponent, input-dim=640, output-dim=4096, learning-rate=0.00998258, max-change=1.5, linear-params-rms=0.04852, linear-params-row-norms=[percentiles(0,1,2,5 10,20,50,80,90 95,98,99,100)=(0.56,0.59,0.60,0.62 0.66,0.75,1.1,1.5,1.7 1.9,2.0,2.1,2.5), mean=1.16, stddev=0.401], linear-params-col-norms=[percentiles(0,1,2,5 10,20,50,80,90 95,98,99,100)=(2.3,2.4,2.5,2.5 2.6,2.7,2.9,3.5,4.0 4.2,4.3,4.5,4.7), mean=3.06, stddev=0.535], bias-{mean,stddev}=0.006664,0.6035, rank-in=20, rank-out=80, num-samples-history=2000, update-period=4, alpha=4
component name=lstm2-backward.lstm_nonlin type=LstmNonlinearityComponent, input-dim=5120, output-dim=2048, learning-rate=0.00998258, max-change=0.75, cell-dim=1024, use-dropout=false, w_ic-rms=0.616, w_fc-rms=0.6067, w_oc-rms=0.6307, count=1.88e+05, i_t_sigmoid={ self-repair-lower-threshold=0.05, self-repair-scale=1e-05, self-repaired-proportion=0.00746858, value-avg=[percentiles(0,1,2,5 10,20,50,80,90 95,98,99,100)=(0.07,0.10,0.12,0.15 0.19,0.25,0.39,0.54,0.63 0.71,0.75,0.78,0.84), mean=0.401, stddev=0.164], deriv-avg=[percentiles(0,1,2,5 10,20,50,80,90 95,98,99,100)=(0.05,0.06,0.07,0.08 0.09,0.11,0.14,0.18,0.20 0.21,0.22,0.23,0.23), mean=0.145, stddev=0.0398] }, f_t_sigmoid={ self-repair-lower-threshold=0.05, self-repair-scale=1e-05, self-repaired-proportion=0.0095385, value-avg=[percentiles(0,1,2,5 10,20,50,80,90 95,98,99,100)=(0.08,0.12,0.13,0.17 0.22,0.29,0.45,0.61,0.71 0.78,0.86,0.90,0.94), mean=0.456, stddev=0.183], deriv-avg=[percentiles(0,1,2,5 10,20,50,80,90 95,98,99,100)=(0.05,0.06,0.07,0.09 0.10,0.12,0.16,0.20,0.21 0.22,0.23,0.23,0.24), mean=0.157, stddev=0.0421] }, c_t_tanh={ self-repair-lower-threshold=0.2, self-repair-scale=1e-05, self-repaired-proportion=0.102016, value-avg=[percentiles(0,1,2,5 10,20,50,80,90 95,98,99,100)=(-0.86,-0.79,-0.75,-0.66 -0.54,-0.38,0.01,0.41,0.57 0.67,0.75,0.78,0.85), mean=0.00978, stddev=0.411], deriv-avg=[percentiles(0,1,2,5 10,20,50,80,90 95,98,99,100)=(0.13,0.17,0.18,0.19 0.20,0.21,0.24,0.37,0.48 0.56,0.67,0.69,0.79), mean=0.296, stddev=0.121] }, o_t_sigmoid={ self-repair-lower-threshold=0.05, self-repair-scale=1e-05, self-repaired-proportion=0.00817087, value-avg=[percentiles(0,1,2,5 10,20,50,80,90 95,98,99,100)=(0.07,0.10,0.12,0.14 0.16,0.21,0.33,0.50,0.57 0.67,0.76,0.81,0.89), mean=0.356, stddev=0.161], deriv-avg=[percentiles(0,1,2,5 10,20,50,80,90 95,98,99,100)=(0.05,0.06,0.06,0.08 0.09,0.10,0.12,0.16,0.18 0.20,0.22,0.22,0.23), mean=0.13, stddev=0.0369] }, m_t_tanh={ self-repair-lower-threshold=0.2, self-repair-scale=1e-05, self-repaired-proportion=0.010093, value-avg=[percentiles(0,1,2,5 10,20,50,80,90 95,98,99,100)=(-0.86,-0.80,-0.72,-0.54 -0.40,-0.25,0.003,0.27,0.43 0.57,0.69,0.76,0.83), mean=0.00601, stddev=0.323], deriv-avg=[percentiles(0,1,2,5 10,20,50,80,90 95,98,99,100)=(0.18,0.24,0.27,0.37 0.48,0.59,0.75,0.88,0.92 0.95,0.97,0.98,0.99), mean=0.721, stddev=0.173] }
component name=lstm2-backward.cr_trunc type=BackpropTruncationComponent, dim=1152, scale=0.9, count=8.6e+05, recurrence-interval=2, clipping-threshold=30, clipped-proportion=0, zeroing-threshold=15, zeroing-interval=20, zeroed-proportion=0, count-zeroing-boundaries=86020
component name=lstm2-backward.W_rp type=NaturalGradientAffineComponent, input-dim=1024, output-dim=256, learning-rate=0.00998258, max-change=1.5, linear-params-rms=0.1088, linear-params-row-norms=[percentiles(0,1,2,5 10,20,50,80,90 95,98,99,100)=(2.9,3.0,3.1,3.1 3.2,3.3,3.5,3.6,3.7 3.8,3.9,3.9,4.0), mean=3.47, stddev=0.202], linear-params-col-norms=[percentiles(0,1,2,5 10,20,50,80,90 95,98,99,100)=(0.35,0.49,0.53,0.67 0.80,1.1,1.7,2.2,2.3 2.4,2.6,2.7,3.2), mean=1.65, stddev=0.552], bias-{mean,stddev}=0.03967,0.6565, rank-in=20, rank-out=80, num-samples-history=2000, update-period=4, alpha=4
component name=lstm3-forward.W_all type=NaturalGradientAffineComponent, input-dim=640, output-dim=4096, learning-rate=0.00998258, max-change=1.5, linear-params-rms=0.02368, linear-params-row-norms=[percentiles(0,1,2,5 10,20,50,80,90 95,98,99,100)=(0.53,0.56,0.56,0.57 0.58,0.58,0.60,0.61,0.62 0.63,0.63,0.64,0.66), mean=0.599, stddev=0.0167], linear-params-col-norms=[percentiles(0,1,2,5 10,20,50,80,90 95,98,99,100)=(1.5,1.5,1.5,1.5 1.5,1.5,1.5,1.5,1.5 1.5,1.5,1.6,1.6), mean=1.52, stddev=0.0168], bias-{mean,stddev}=0.004313,0.6013, rank-in=20, rank-out=80, num-samples-history=2000, update-period=4, alpha=4
component name=lstm3-forward.lstm_nonlin type=LstmNonlinearityComponent, input-dim=5120, output-dim=2048, learning-rate=0.00998258, max-change=0.75, cell-dim=1024, use-dropout=false, w_ic-rms=0.6154, w_fc-rms=0.6055, w_oc-rms=0.5745, i_t_sigmoid={ self-repair-lower-threshold=0.05, self-repair-scale=1e-05 }, f_t_sigmoid={ self-repair-lower-threshold=0.05, self-repair-scale=1e-05 }, c_t_tanh={ self-repair-lower-threshold=0.2, self-repair-scale=1e-05 }, o_t_sigmoid={ self-repair-lower-threshold=0.05, self-repair-scale=1e-05 }, m_t_tanh={ self-repair-lower-threshold=0.2, self-repair-scale=1e-05 }
component name=lstm3-forward.cr_trunc type=BackpropTruncationComponent, dim=1152, scale=0.85, count=0, recurrence-interval=3, clipping-threshold=30, clipped-proportion=0, zeroing-threshold=15, zeroing-interval=20, zeroed-proportion=0, count-zeroing-boundaries=0
component name=lstm3-forward.W_rp type=NaturalGradientAffineComponent, input-dim=1024, output-dim=256, learning-rate=0.00998258, max-change=1.5, linear-params-rms=0.01869, linear-params-row-norms=[percentiles(0,1,2,5 10,20,50,80,90 95,98,99,100)=(0.56,0.57,0.57,0.58 0.58,0.59,0.60,0.61,0.61 0.62,0.63,0.63,0.64), mean=0.598, stddev=0.0136], linear-params-col-norms=[percentiles(0,1,2,5 10,20,50,80,90 95,98,99,100)=(0.25,0.26,0.27,0.28 0.28,0.29,0.30,0.31,0.31 0.32,0.33,0.33,0.35), mean=0.299, stddev=0.013], bias-{mean,stddev}=0.0386,0.5463, rank-in=20, rank-out=80, num-samples-history=2000, update-period=4, alpha=4
component name=lstm3-backward.W_all type=NaturalGradientAffineComponent, input-dim=640, output-dim=4096, learning-rate=0.00998258, max-change=1.5, linear-params-rms=0.04772, linear-params-row-norms=[percentiles(0,1,2,5 10,20,50,80,90 95,98,99,100)=(0.58,0.67,0.71,0.80 0.87,0.98,1.2,1.4,1.5 1.6,1.7,1.8,2.1), mean=1.18, stddev=0.245], linear-params-col-norms=[percentiles(0,1,2,5 10,20,50,80,90 95,98,99,100)=(2.3,2.3,2.4,2.4 2.5,2.6,2.8,3.5,3.9 4.1,4.2,4.3,4.4), mean=3.01, stddev=0.529], bias-{mean,stddev}=0.002055,0.5991, rank-in=20, rank-out=80, num-samples-history=2000, update-period=4, alpha=4
component name=lstm3-backward.lstm_nonlin type=LstmNonlinearityComponent, input-dim=5120, output-dim=2048, learning-rate=0.00998258, max-change=0.75, cell-dim=1024, use-dropout=false, w_ic-rms=0.5869, w_fc-rms=0.5849, w_oc-rms=0.5908, count=1.88e+05, i_t_sigmoid={ self-repair-lower-threshold=0.05, self-repair-scale=1e-05, self-repaired-proportion=0.0104632, value-avg=[percentiles(0,1,2,5 10,20,50,80,90 95,98,99,100)=(0.11,0.16,0.18,0.21 0.24,0.28,0.39,0.49,0.56 0.61,0.66,0.69,0.77), mean=0.394, stddev=0.121], deriv-avg=[percentiles(0,1,2,5 10,20,50,80,90 95,98,99,100)=(0.05,0.06,0.06,0.07 0.08,0.09,0.11,0.13,0.14 0.15,0.16,0.17,0.21), mean=0.111, stddev=0.0254] }, f_t_sigmoid={ self-repair-lower-threshold=0.05, self-repair-scale=1e-05, self-repaired-proportion=0.00692655, value-avg=[percentiles(0,1,2,5 10,20,50,80,90 95,98,99,100)=(0.10,0.18,0.20,0.25 0.30,0.37,0.54,0.70,0.76 0.80,0.84,0.86,0.90), mean=0.538, stddev=0.172], deriv-avg=[percentiles(0,1,2,5 10,20,50,80,90 95,98,99,100)=(0.05,0.07,0.07,0.08 0.09,0.10,0.12,0.14,0.15 0.17,0.18,0.19,0.21), mean=0.124, stddev=0.0248] }, c_t_tanh={ self-repair-lower-threshold=0.2, self-repair-scale=1e-05, self-repaired-proportion=0.407377, value-avg=[percentiles(0,1,2,5 10,20,50,80,90 95,98,99,100)=(-0.76,-0.64,-0.59,-0.49 -0.37,-0.23,-0.001,0.22,0.34 0.46,0.57,0.63,0.78), mean=-0.00841, stddev=0.276], deriv-avg=[percentiles(0,1,2,5 10,20,50,80,90 95,98,99,100)=(0.11,0.14,0.15,0.16 0.17,0.19,0.20,0.22,0.23 0.27,0.31,0.34,0.46), mean=0.207, stddev=0.0345] }, o_t_sigmoid={ self-repair-lower-threshold=0.05, self-repair-scale=1e-05, self-repaired-proportion=0.00691982, value-avg=[percentiles(0,1,2,5 10,20,50,80,90 95,98,99,100)=(0.16,0.20,0.22,0.25 0.28,0.33,0.43,0.53,0.57 0.61,0.66,0.68,0.73), mean=0.43, stddev=0.109], deriv-avg=[percentiles(0,1,2,5 10,20,50,80,90 95,98,99,100)=(0.07,0.07,0.08,0.08 0.09,0.09,0.11,0.12,0.13 0.14,0.14,0.15,0.20), mean=0.108, stddev=0.0169] }, m_t_tanh={ self-repair-lower-threshold=0.2, self-repair-scale=1e-05, self-repaired-proportion=0.00691982, value-avg=[percentiles(0,1,2,5 10,20,50,80,90 95,98,99,100)=(-0.83,-0.61,-0.55,-0.43 -0.30,-0.18,-0.006,0.19,0.30 0.42,0.54,0.62,0.82), mean=-0.00254, stddev=0.247], deriv-avg=[percentiles(0,1,2,5 10,20,50,80,90 95,98,99,100)=(0.24,0.37,0.42,0.50 0.55,0.62,0.71,0.78,0.82 0.85,0.88,0.89,0.96), mean=0.697, stddev=0.108] }
component name=lstm3-backward.cr_trunc type=BackpropTruncationComponent, dim=1152, scale=0.85, count=8.45e+05, recurrence-interval=3, clipping-threshold=30, clipped-proportion=0, zeroing-threshold=15, zeroing-interval=20, zeroed-proportion=0, count-zeroing-boundaries=126795
component name=lstm3-backward.W_rp type=NaturalGradientAffineComponent, input-dim=1024, output-dim=256, learning-rate=0.00998258, max-change=1.5, linear-params-rms=0.1326, linear-params-row-norms=[percentiles(0,1,2,5 10,20,50,80,90 95,98,99,100)=(3.6,3.7,3.7,3.8 3.9,4.0,4.2,4.5,4.5 4.6,4.7,4.7,4.7), mean=4.24, stddev=0.242], linear-params-col-norms=[percentiles(0,1,2,5 10,20,50,80,90 95,98,99,100)=(0.74,1.1,1.3,1.6 1.8,1.9,2.1,2.3,2.4 2.6,2.7,2.8,3.1), mean=2.1, stddev=0.299], bias-{mean,stddev}=-0.0177,0.6077, rank-in=20, rank-out=80, num-samples-history=2000, update-period=4, alpha=4
component name=output.affine type=NaturalGradientAffineComponent, input-dim=256, output-dim=6232, learning-rate=0.00998258, max-change=1.5, linear-params-rms=0.0564, linear-params-row-norms=[percentiles(0,1,2,5 10,20,50,80,90 95,98,99,100)=(0.02,0.67,0.69,0.72 0.75,0.80,0.88,0.99,1.0 1.1,1.2,1.2,2.7), mean=0.895, stddev=0.119], linear-params-col-norms=[percentiles(0,1,2,5 10,20,50,80,90 95,98,99,100)=(3.7,3.8,3.9,4.0 4.1,4.2,4.4,4.7,4.8 4.8,5.0,5.0,5.1), mean=4.45, stddev=0.254], bias-{mean,stddev}=-2.614e-05,0.0211, rank-in=20, rank-out=80, num-samples-history=2000, update-period=4, alpha=4
component name=output.log-softmax type=LogSoftmaxComponent, dim=6232, oderiv-rms=[percentiles(0,1,2,5 10,20,50,80,90 95,98,99,100)=(0,0,0,0.004 0.005,0.006,0.009,0.01,0.02 0.02,0.03,0.03,0.23), mean=0.0102, stddev=0.00743], oderiv-count=228000
nnet3-show-progress --use-gpu=no exp/nnet3/lstm_sp/51.mdl exp/nnet3/lstm_sp/52.mdl 
WARNING (nnet3-show-progress[5.5.23-c81f5]:Check():nnet-nnet.cc:789) Node lstm3-forward.W_all is never used to compute any output.
WARNING (nnet3-show-progress[5.5.23-c81f5]:Check():nnet-nnet.cc:789) Node lstm3-forward.lstm_nonlin is never used to compute any output.
WARNING (nnet3-show-progress[5.5.23-c81f5]:Check():nnet-nnet.cc:789) Node lstm3-forward.c is never used to compute any output.
WARNING (nnet3-show-progress[5.5.23-c81f5]:Check():nnet-nnet.cc:789) Node lstm3-forward.m is never used to compute any output.
WARNING (nnet3-show-progress[5.5.23-c81f5]:Check():nnet-nnet.cc:789) Node lstm3-forward.rp is never used to compute any output.
WARNING (nnet3-show-progress[5.5.23-c81f5]:Check():nnet-nnet.cc:789) Node lstm3-forward.r is never used to compute any output.
WARNING (nnet3-show-progress[5.5.23-c81f5]:Check():nnet-nnet.cc:789) Node lstm3-forward.cr_trunc is never used to compute any output.
WARNING (nnet3-show-progress[5.5.23-c81f5]:Check():nnet-nnet.cc:789) Node lstm3-forward.c_trunc is never used to compute any output.
WARNING (nnet3-show-progress[5.5.23-c81f5]:Check():nnet-nnet.cc:789) Node lstm3-forward.r_trunc is never used to compute any output.
WARNING (nnet3-show-progress[5.5.23-c81f5]:Check():nnet-nnet.cc:789) Node lstm3-forward.W_all is never used to compute any output.
WARNING (nnet3-show-progress[5.5.23-c81f5]:Check():nnet-nnet.cc:789) Node lstm3-forward.lstm_nonlin is never used to compute any output.
WARNING (nnet3-show-progress[5.5.23-c81f5]:Check():nnet-nnet.cc:789) Node lstm3-forward.c is never used to compute any output.
WARNING (nnet3-show-progress[5.5.23-c81f5]:Check():nnet-nnet.cc:789) Node lstm3-forward.m is never used to compute any output.
WARNING (nnet3-show-progress[5.5.23-c81f5]:Check():nnet-nnet.cc:789) Node lstm3-forward.rp is never used to compute any output.
WARNING (nnet3-show-progress[5.5.23-c81f5]:Check():nnet-nnet.cc:789) Node lstm3-forward.r is never used to compute any output.
WARNING (nnet3-show-progress[5.5.23-c81f5]:Check():nnet-nnet.cc:789) Node lstm3-forward.cr_trunc is never used to compute any output.
WARNING (nnet3-show-progress[5.5.23-c81f5]:Check():nnet-nnet.cc:789) Node lstm3-forward.c_trunc is never used to compute any output.
WARNING (nnet3-show-progress[5.5.23-c81f5]:Check():nnet-nnet.cc:789) Node lstm3-forward.r_trunc is never used to compute any output.
WARNING (nnet3-show-progress[5.5.23-c81f5]:Check():nnet-nnet.cc:789) Node lstm3-forward.W_all is never used to compute any output.
WARNING (nnet3-show-progress[5.5.23-c81f5]:Check():nnet-nnet.cc:789) Node lstm3-forward.lstm_nonlin is never used to compute any output.
WARNING (nnet3-show-progress[5.5.23-c81f5]:Check():nnet-nnet.cc:789) Node lstm3-forward.c is never used to compute any output.
WARNING (nnet3-show-progress[5.5.23-c81f5]:Check():nnet-nnet.cc:789) Node lstm3-forward.m is never used to compute any output.
WARNING (nnet3-show-progress[5.5.23-c81f5]:Check():nnet-nnet.cc:789) Node lstm3-forward.rp is never used to compute any output.
WARNING (nnet3-show-progress[5.5.23-c81f5]:Check():nnet-nnet.cc:789) Node lstm3-forward.r is never used to compute any output.
WARNING (nnet3-show-progress[5.5.23-c81f5]:Check():nnet-nnet.cc:789) Node lstm3-forward.cr_trunc is never used to compute any output.
WARNING (nnet3-show-progress[5.5.23-c81f5]:Check():nnet-nnet.cc:789) Node lstm3-forward.c_trunc is never used to compute any output.
WARNING (nnet3-show-progress[5.5.23-c81f5]:Check():nnet-nnet.cc:789) Node lstm3-forward.r_trunc is never used to compute any output.
LOG (nnet3-show-progress[5.5.23-c81f5]:main():nnet3-show-progress.cc:143) Parameter differences per layer are [ lstm1-forward.W_all:12.2597 lstm1-forward.lstm_nonlin:1.10386 lstm1-forward.W_rp:10.2386 lstm1-backward.W_all:12.4011 lstm1-backward.lstm_nonlin:0.921015 lstm1-backward.W_rp:8.73193 lstm2-forward.W_all:12.3919 lstm2-forward.lstm_nonlin:1.11054 lstm2-forward.W_rp:11.3716 lstm2-backward.W_all:12.2584 lstm2-backward.lstm_nonlin:0.679539 lstm2-backward.W_rp:8.35842 lstm3-forward.W_all:0.548735 lstm3-forward.lstm_nonlin:0.335199 lstm3-forward.W_rp:0.131042 lstm3-backward.W_all:12.0159 lstm3-backward.lstm_nonlin:0.840417 lstm3-backward.W_rp:10.4934 output.affine:9.21065 ]
LOG (nnet3-show-progress[5.5.23-c81f5]:main():nnet3-show-progress.cc:153) Norms of parameter matrices from <new-nnet-in> are [ lstm1-forward.W_all:89.2764 lstm1-forward.lstm_nonlin:36.8308 lstm1-forward.W_rp:60.2456 lstm1-backward.W_all:89.9534 lstm1-backward.lstm_nonlin:36.692 lstm1-backward.W_rp:58.7649 lstm2-forward.W_all:87.7433 lstm2-forward.lstm_nonlin:36.1958 lstm2-forward.W_rp:60.8034 lstm2-backward.W_all:87.5454 lstm2-backward.lstm_nonlin:34.2442 lstm2-backward.W_rp:56.6728 lstm3-forward.W_all:54.3249 lstm3-forward.lstm_nonlin:33.1847 lstm3-forward.W_rp:12.9732 lstm3-backward.W_all:86.2464 lstm3-backward.lstm_nonlin:32.5643 lstm3-backward.W_rp:68.6057 output.affine:71.2614 ]
LOG (nnet3-show-progress[5.5.23-c81f5]:main():nnet3-show-progress.cc:157) Relative parameter differences per layer are [ lstm1-forward.W_all:0.137403 lstm1-forward.lstm_nonlin:0.0297238 lstm1-forward.W_rp:0.170446 lstm1-backward.W_all:0.137985 lstm1-backward.lstm_nonlin:0.0248783 lstm1-backward.W_rp:0.148623 lstm2-forward.W_all:0.141345 lstm2-forward.lstm_nonlin:0.0304349 lstm2-forward.W_rp:0.187838 lstm2-backward.W_all:0.140141 lstm2-backward.lstm_nonlin:0.0196602 lstm2-backward.W_rp:0.147465 lstm3-forward.W_all:0.00999999 lstm3-forward.lstm_nonlin:0.00999999 lstm3-forward.W_rp:0.00999999 lstm3-backward.W_all:0.139367 lstm3-backward.lstm_nonlin:0.0255874 lstm3-backward.W_rp:0.153445 output.affine:0.130123 ]
# Accounting: time=1 threads=1
# Ended (code 0) at Tue Jan 15 02:01:20 -02 2019, elapsed time 1 seconds
