# nnet3-train --use-gpu=no --read-cache=exp/nnet3/lstm_sp/cache.130 --write-cache=exp/nnet3/lstm_sp/cache.131 --print-interval=10 --momentum=0.5 --max-param-change=2.0 --backstitch-training-scale=0.0 --l2-regularize-factor=1.0 --backstitch-training-interval=1 --srand=130 --optimization.min-deriv-time=-10 --optimization.max-deriv-time-relative=10 "nnet3-copy --learning-rate=0.00251627318057 --scale=0.99 exp/nnet3/lstm_sp/130.mdl - |" "ark,bg:nnet3-copy-egs               ark:exp/nnet3/lstm_sp/egs/egs.21.ark ark:- |             nnet3-shuffle-egs --buffer-size=5000             --srand=130 ark:- ark:- |              nnet3-merge-egs --minibatch-size=100 ark:- ark:- |" exp/nnet3/lstm_sp/131.1.raw 
# Started at Thu Jan 17 11:30:34 -02 2019
#
nnet3-train --use-gpu=no --read-cache=exp/nnet3/lstm_sp/cache.130 --write-cache=exp/nnet3/lstm_sp/cache.131 --print-interval=10 --momentum=0.5 --max-param-change=2.0 --backstitch-training-scale=0.0 --l2-regularize-factor=1.0 --backstitch-training-interval=1 --srand=130 --optimization.min-deriv-time=-10 --optimization.max-deriv-time-relative=10 'nnet3-copy --learning-rate=0.00251627318057 --scale=0.99 exp/nnet3/lstm_sp/130.mdl - |' 'ark,bg:nnet3-copy-egs               ark:exp/nnet3/lstm_sp/egs/egs.21.ark ark:- |             nnet3-shuffle-egs --buffer-size=5000             --srand=130 ark:- ark:- |              nnet3-merge-egs --minibatch-size=100 ark:- ark:- |' exp/nnet3/lstm_sp/131.1.raw 
nnet3-copy --learning-rate=0.00251627318057 --scale=0.99 exp/nnet3/lstm_sp/130.mdl - 
WARNING (nnet3-copy[5.5.23-c81f5]:Check():nnet-nnet.cc:789) Node lstm3-forward.W_all is never used to compute any output.
WARNING (nnet3-copy[5.5.23-c81f5]:Check():nnet-nnet.cc:789) Node lstm3-forward.lstm_nonlin is never used to compute any output.
WARNING (nnet3-copy[5.5.23-c81f5]:Check():nnet-nnet.cc:789) Node lstm3-forward.c is never used to compute any output.
WARNING (nnet3-copy[5.5.23-c81f5]:Check():nnet-nnet.cc:789) Node lstm3-forward.m is never used to compute any output.
WARNING (nnet3-copy[5.5.23-c81f5]:Check():nnet-nnet.cc:789) Node lstm3-forward.rp is never used to compute any output.
WARNING (nnet3-copy[5.5.23-c81f5]:Check():nnet-nnet.cc:789) Node lstm3-forward.r is never used to compute any output.
WARNING (nnet3-copy[5.5.23-c81f5]:Check():nnet-nnet.cc:789) Node lstm3-forward.cr_trunc is never used to compute any output.
WARNING (nnet3-copy[5.5.23-c81f5]:Check():nnet-nnet.cc:789) Node lstm3-forward.c_trunc is never used to compute any output.
WARNING (nnet3-copy[5.5.23-c81f5]:Check():nnet-nnet.cc:789) Node lstm3-forward.r_trunc is never used to compute any output.
LOG (nnet3-copy[5.5.23-c81f5]:main():nnet3-copy.cc:114) Copied raw neural net from exp/nnet3/lstm_sp/130.mdl to -
WARNING (nnet3-train[5.5.23-c81f5]:Check():nnet-nnet.cc:789) Node lstm3-forward.W_all is never used to compute any output.
WARNING (nnet3-train[5.5.23-c81f5]:Check():nnet-nnet.cc:789) Node lstm3-forward.lstm_nonlin is never used to compute any output.
WARNING (nnet3-train[5.5.23-c81f5]:Check():nnet-nnet.cc:789) Node lstm3-forward.c is never used to compute any output.
WARNING (nnet3-train[5.5.23-c81f5]:Check():nnet-nnet.cc:789) Node lstm3-forward.m is never used to compute any output.
WARNING (nnet3-train[5.5.23-c81f5]:Check():nnet-nnet.cc:789) Node lstm3-forward.rp is never used to compute any output.
WARNING (nnet3-train[5.5.23-c81f5]:Check():nnet-nnet.cc:789) Node lstm3-forward.r is never used to compute any output.
WARNING (nnet3-train[5.5.23-c81f5]:Check():nnet-nnet.cc:789) Node lstm3-forward.cr_trunc is never used to compute any output.
WARNING (nnet3-train[5.5.23-c81f5]:Check():nnet-nnet.cc:789) Node lstm3-forward.c_trunc is never used to compute any output.
WARNING (nnet3-train[5.5.23-c81f5]:Check():nnet-nnet.cc:789) Node lstm3-forward.r_trunc is never used to compute any output.
WARNING (nnet3-train[5.5.23-c81f5]:Check():nnet-nnet.cc:789) Node lstm3-forward.W_all is never used to compute any output.
WARNING (nnet3-train[5.5.23-c81f5]:Check():nnet-nnet.cc:789) Node lstm3-forward.lstm_nonlin is never used to compute any output.
WARNING (nnet3-train[5.5.23-c81f5]:Check():nnet-nnet.cc:789) Node lstm3-forward.c is never used to compute any output.
WARNING (nnet3-train[5.5.23-c81f5]:Check():nnet-nnet.cc:789) Node lstm3-forward.m is never used to compute any output.
WARNING (nnet3-train[5.5.23-c81f5]:Check():nnet-nnet.cc:789) Node lstm3-forward.rp is never used to compute any output.
WARNING (nnet3-train[5.5.23-c81f5]:Check():nnet-nnet.cc:789) Node lstm3-forward.r is never used to compute any output.
WARNING (nnet3-train[5.5.23-c81f5]:Check():nnet-nnet.cc:789) Node lstm3-forward.cr_trunc is never used to compute any output.
WARNING (nnet3-train[5.5.23-c81f5]:Check():nnet-nnet.cc:789) Node lstm3-forward.c_trunc is never used to compute any output.
WARNING (nnet3-train[5.5.23-c81f5]:Check():nnet-nnet.cc:789) Node lstm3-forward.r_trunc is never used to compute any output.
LOG (nnet3-train[5.5.23-c81f5]:NnetTrainer():nnet-training.cc:50) Read computation cache from exp/nnet3/lstm_sp/cache.130
nnet3-shuffle-egs --buffer-size=5000 --srand=130 ark:- ark:- 
nnet3-copy-egs ark:exp/nnet3/lstm_sp/egs/egs.21.ark ark:- 
nnet3-merge-egs --minibatch-size=100 ark:- ark:- 
WARNING (nnet3-train[5.5.23-c81f5]:ReorthogonalizeXt1():natural-gradient-online.cc:240) Cholesky out of expected range, reorthogonalizing with Gram-Schmidt
WARNING (nnet3-train[5.5.23-c81f5]:ReorthogonalizeXt1():natural-gradient-online.cc:240) Cholesky out of expected range, reorthogonalizing with Gram-Schmidt
WARNING (nnet3-train[5.5.23-c81f5]:ReorthogonalizeXt1():natural-gradient-online.cc:240) Cholesky out of expected range, reorthogonalizing with Gram-Schmidt
WARNING (nnet3-train[5.5.23-c81f5]:ReorthogonalizeXt1():natural-gradient-online.cc:240) Cholesky out of expected range, reorthogonalizing with Gram-Schmidt
WARNING (nnet3-train[5.5.23-c81f5]:ReorthogonalizeXt1():natural-gradient-online.cc:240) Cholesky out of expected range, reorthogonalizing with Gram-Schmidt
LOG (nnet3-train[5.5.23-c81f5]:UpdateNnetWithMaxChange():nnet-utils.cc:2096) Global max-change factor was 0.917135 with max-change=2.
LOG (nnet3-train[5.5.23-c81f5]:PrintStatsForThisPhase():nnet-training.cc:309) Average objective function for 'output' for minibatches 0-9 is -0.282402 over 19973 frames.
LOG (nnet3-train[5.5.23-c81f5]:UpdateNnetWithMaxChange():nnet-utils.cc:2096) Global max-change factor was 0.969133 with max-change=2.
LOG (nnet3-train[5.5.23-c81f5]:PrintStatsForThisPhase():nnet-training.cc:309) Average objective function for 'output' for minibatches 10-19 is -0.298262 over 19964.5 frames.
LOG (nnet3-train[5.5.23-c81f5]:UpdateNnetWithMaxChange():nnet-utils.cc:2096) Global max-change factor was 0.746308 with max-change=2.
LOG (nnet3-train[5.5.23-c81f5]:UpdateNnetWithMaxChange():nnet-utils.cc:2096) Global max-change factor was 0.924663 with max-change=2.
LOG (nnet3-train[5.5.23-c81f5]:PrintStatsForThisPhase():nnet-training.cc:309) Average objective function for 'output' for minibatches 20-29 is -0.30494 over 19976 frames.
LOG (nnet3-train[5.5.23-c81f5]:PrintStatsForThisPhase():nnet-training.cc:309) Average objective function for 'output' for minibatches 30-39 is -0.283043 over 19980 frames.
LOG (nnet3-train[5.5.23-c81f5]:PrintStatsForThisPhase():nnet-training.cc:309) Average objective function for 'output' for minibatches 40-49 is -0.291181 over 19967 frames.
LOG (nnet3-train[5.5.23-c81f5]:PrintStatsForThisPhase():nnet-training.cc:309) Average objective function for 'output' for minibatches 50-59 is -0.279463 over 19965 frames.
LOG (nnet3-train[5.5.23-c81f5]:PrintStatsForThisPhase():nnet-training.cc:309) Average objective function for 'output' for minibatches 60-69 is -0.286093 over 19962.5 frames.
LOG (nnet3-train[5.5.23-c81f5]:PrintStatsForThisPhase():nnet-training.cc:309) Average objective function for 'output' for minibatches 70-79 is -0.291099 over 19976 frames.
LOG (nnet3-train[5.5.23-c81f5]:PrintStatsForThisPhase():nnet-training.cc:309) Average objective function for 'output' for minibatches 80-89 is -0.276342 over 19971 frames.
LOG (nnet3-copy-egs[5.5.23-c81f5]:main():nnet3-copy-egs.cc:431) Read 15085 neural-network training examples, wrote 15085, 0 examples had errors.
LOG (nnet3-train[5.5.23-c81f5]:PrintStatsForThisPhase():nnet-training.cc:309) Average objective function for 'output' for minibatches 90-99 is -0.296592 over 19967 frames.
LOG (nnet3-train[5.5.23-c81f5]:PrintStatsForThisPhase():nnet-training.cc:309) Average objective function for 'output' for minibatches 100-109 is -0.284456 over 19978.5 frames.
LOG (nnet3-train[5.5.23-c81f5]:PrintStatsForThisPhase():nnet-training.cc:309) Average objective function for 'output' for minibatches 110-119 is -0.284425 over 19976.5 frames.
LOG (nnet3-train[5.5.23-c81f5]:UpdateNnetWithMaxChange():nnet-utils.cc:2096) Global max-change factor was 0.945455 with max-change=2.
LOG (nnet3-train[5.5.23-c81f5]:PrintStatsForThisPhase():nnet-training.cc:309) Average objective function for 'output' for minibatches 120-129 is -0.28777 over 19958 frames.
LOG (nnet3-train[5.5.23-c81f5]:PrintStatsForThisPhase():nnet-training.cc:309) Average objective function for 'output' for minibatches 130-139 is -0.293871 over 19938 frames.
LOG (nnet3-shuffle-egs[5.5.23-c81f5]:main():nnet3-shuffle-egs.cc:103) Shuffled order of 15085 neural-network training examples using a buffer (partial randomization)
LOG (nnet3-merge-egs[5.5.23-c81f5]:PrintSpecificStats():nnet-example-utils.cc:1143) Merged specific eg types as follows [format: <eg-size1>={<mb-size1>-><num-minibatches1>,<mbsize2>-><num-minibatches2>.../d=<num-discarded>},<egs-size2>={...},... (note,egs-size == number of input frames including context).
LOG (nnet3-merge-egs[5.5.23-c81f5]:PrintSpecificStats():nnet-example-utils.cc:1173) 64={100->1,d=21},64={100->1,d=12},104={100->148,d=52}
LOG (nnet3-merge-egs[5.5.23-c81f5]:PrintAggregateStats():nnet-example-utils.cc:1139) Processed 15085 egs of avg. size 103.4 into 150 minibatches, discarding 0.5635% of egs.  Avg minibatch size was 100, #distinct types of egs/minibatches was 3/3
LOG (nnet3-train[5.5.23-c81f5]:PrintTotalStats():nnet-training.cc:348) Overall average objective function for 'output' is -0.288345 over 299522 frames.
LOG (nnet3-train[5.5.23-c81f5]:PrintTotalStats():nnet-training.cc:355) [this line is to be parsed by a script:] log-prob-per-frame=-0.288345
LOG (nnet3-train[5.5.23-c81f5]:PrintMaxChangeStats():nnet-training.cc:265) The global max-change was enforced 3.33333 % of the time.
LOG (nnet3-train[5.5.23-c81f5]:main():nnet3-train.cc:91) Wrote model to exp/nnet3/lstm_sp/131.1.raw
LOG (nnet3-train[5.5.23-c81f5]:~NnetTrainer():nnet-training.cc:365) Wrote computation cache to exp/nnet3/lstm_sp/cache.131
LOG (nnet3-train[5.5.23-c81f5]:~CachingOptimizingCompiler():nnet-optimize.cc:710) 0.00634 seconds taken in nnet3 compilation total (breakdown: 0 compilation, 0 optimization, 0 shortcut expansion, 0 checking, 0 computing indexes, 0.00634 misc.) + 1.12 I/O.
# Accounting: time=2686 threads=1
# Ended (code 0) at Thu Jan 17 12:15:20 -02 2019, elapsed time 2686 seconds
