# nnet3-train --use-gpu=no --read-cache=exp/nnet3/lstm_sp/cache.113 --write-cache=exp/nnet3/lstm_sp/cache.114 --print-interval=10 --momentum=0.5 --max-param-change=2.0 --backstitch-training-scale=0.0 --l2-regularize-factor=1.0 --backstitch-training-interval=1 --srand=113 --optimization.min-deriv-time=-10 --optimization.max-deriv-time-relative=10 "nnet3-copy --learning-rate=0.00338489863352 --scale=0.99 exp/nnet3/lstm_sp/113.mdl - |" "ark,bg:nnet3-copy-egs               ark:exp/nnet3/lstm_sp/egs/egs.4.ark ark:- |             nnet3-shuffle-egs --buffer-size=5000             --srand=113 ark:- ark:- |              nnet3-merge-egs --minibatch-size=100 ark:- ark:- |" exp/nnet3/lstm_sp/114.1.raw 
# Started at Wed Jan 16 22:59:29 -02 2019
#
nnet3-train --use-gpu=no --read-cache=exp/nnet3/lstm_sp/cache.113 --write-cache=exp/nnet3/lstm_sp/cache.114 --print-interval=10 --momentum=0.5 --max-param-change=2.0 --backstitch-training-scale=0.0 --l2-regularize-factor=1.0 --backstitch-training-interval=1 --srand=113 --optimization.min-deriv-time=-10 --optimization.max-deriv-time-relative=10 'nnet3-copy --learning-rate=0.00338489863352 --scale=0.99 exp/nnet3/lstm_sp/113.mdl - |' 'ark,bg:nnet3-copy-egs               ark:exp/nnet3/lstm_sp/egs/egs.4.ark ark:- |             nnet3-shuffle-egs --buffer-size=5000             --srand=113 ark:- ark:- |              nnet3-merge-egs --minibatch-size=100 ark:- ark:- |' exp/nnet3/lstm_sp/114.1.raw 
nnet3-copy --learning-rate=0.00338489863352 --scale=0.99 exp/nnet3/lstm_sp/113.mdl - 
WARNING (nnet3-copy[5.5.23-c81f5]:Check():nnet-nnet.cc:789) Node lstm3-forward.W_all is never used to compute any output.
WARNING (nnet3-copy[5.5.23-c81f5]:Check():nnet-nnet.cc:789) Node lstm3-forward.lstm_nonlin is never used to compute any output.
WARNING (nnet3-copy[5.5.23-c81f5]:Check():nnet-nnet.cc:789) Node lstm3-forward.c is never used to compute any output.
WARNING (nnet3-copy[5.5.23-c81f5]:Check():nnet-nnet.cc:789) Node lstm3-forward.m is never used to compute any output.
WARNING (nnet3-copy[5.5.23-c81f5]:Check():nnet-nnet.cc:789) Node lstm3-forward.rp is never used to compute any output.
WARNING (nnet3-copy[5.5.23-c81f5]:Check():nnet-nnet.cc:789) Node lstm3-forward.r is never used to compute any output.
WARNING (nnet3-copy[5.5.23-c81f5]:Check():nnet-nnet.cc:789) Node lstm3-forward.cr_trunc is never used to compute any output.
WARNING (nnet3-copy[5.5.23-c81f5]:Check():nnet-nnet.cc:789) Node lstm3-forward.c_trunc is never used to compute any output.
WARNING (nnet3-copy[5.5.23-c81f5]:Check():nnet-nnet.cc:789) Node lstm3-forward.r_trunc is never used to compute any output.
LOG (nnet3-copy[5.5.23-c81f5]:main():nnet3-copy.cc:114) Copied raw neural net from exp/nnet3/lstm_sp/113.mdl to -
WARNING (nnet3-train[5.5.23-c81f5]:Check():nnet-nnet.cc:789) Node lstm3-forward.W_all is never used to compute any output.
WARNING (nnet3-train[5.5.23-c81f5]:Check():nnet-nnet.cc:789) Node lstm3-forward.lstm_nonlin is never used to compute any output.
WARNING (nnet3-train[5.5.23-c81f5]:Check():nnet-nnet.cc:789) Node lstm3-forward.c is never used to compute any output.
WARNING (nnet3-train[5.5.23-c81f5]:Check():nnet-nnet.cc:789) Node lstm3-forward.m is never used to compute any output.
WARNING (nnet3-train[5.5.23-c81f5]:Check():nnet-nnet.cc:789) Node lstm3-forward.rp is never used to compute any output.
WARNING (nnet3-train[5.5.23-c81f5]:Check():nnet-nnet.cc:789) Node lstm3-forward.r is never used to compute any output.
WARNING (nnet3-train[5.5.23-c81f5]:Check():nnet-nnet.cc:789) Node lstm3-forward.cr_trunc is never used to compute any output.
WARNING (nnet3-train[5.5.23-c81f5]:Check():nnet-nnet.cc:789) Node lstm3-forward.c_trunc is never used to compute any output.
WARNING (nnet3-train[5.5.23-c81f5]:Check():nnet-nnet.cc:789) Node lstm3-forward.r_trunc is never used to compute any output.
WARNING (nnet3-train[5.5.23-c81f5]:Check():nnet-nnet.cc:789) Node lstm3-forward.W_all is never used to compute any output.
WARNING (nnet3-train[5.5.23-c81f5]:Check():nnet-nnet.cc:789) Node lstm3-forward.lstm_nonlin is never used to compute any output.
WARNING (nnet3-train[5.5.23-c81f5]:Check():nnet-nnet.cc:789) Node lstm3-forward.c is never used to compute any output.
WARNING (nnet3-train[5.5.23-c81f5]:Check():nnet-nnet.cc:789) Node lstm3-forward.m is never used to compute any output.
WARNING (nnet3-train[5.5.23-c81f5]:Check():nnet-nnet.cc:789) Node lstm3-forward.rp is never used to compute any output.
WARNING (nnet3-train[5.5.23-c81f5]:Check():nnet-nnet.cc:789) Node lstm3-forward.r is never used to compute any output.
WARNING (nnet3-train[5.5.23-c81f5]:Check():nnet-nnet.cc:789) Node lstm3-forward.cr_trunc is never used to compute any output.
WARNING (nnet3-train[5.5.23-c81f5]:Check():nnet-nnet.cc:789) Node lstm3-forward.c_trunc is never used to compute any output.
WARNING (nnet3-train[5.5.23-c81f5]:Check():nnet-nnet.cc:789) Node lstm3-forward.r_trunc is never used to compute any output.
LOG (nnet3-train[5.5.23-c81f5]:NnetTrainer():nnet-training.cc:50) Read computation cache from exp/nnet3/lstm_sp/cache.113
nnet3-copy-egs ark:exp/nnet3/lstm_sp/egs/egs.4.ark ark:- 
nnet3-merge-egs --minibatch-size=100 ark:- ark:- 
nnet3-shuffle-egs --buffer-size=5000 --srand=113 ark:- ark:- 
WARNING (nnet3-train[5.5.23-c81f5]:ReorthogonalizeXt1():natural-gradient-online.cc:240) Cholesky out of expected range, reorthogonalizing with Gram-Schmidt
WARNING (nnet3-train[5.5.23-c81f5]:ReorthogonalizeXt1():natural-gradient-online.cc:240) Cholesky out of expected range, reorthogonalizing with Gram-Schmidt
WARNING (nnet3-train[5.5.23-c81f5]:ReorthogonalizeXt1():natural-gradient-online.cc:240) Cholesky out of expected range, reorthogonalizing with Gram-Schmidt
WARNING (nnet3-train[5.5.23-c81f5]:ReorthogonalizeXt1():natural-gradient-online.cc:240) Cholesky out of expected range, reorthogonalizing with Gram-Schmidt
WARNING (nnet3-train[5.5.23-c81f5]:ReorthogonalizeXt1():natural-gradient-online.cc:240) Cholesky out of expected range, reorthogonalizing with Gram-Schmidt
LOG (nnet3-train[5.5.23-c81f5]:UpdateNnetWithMaxChange():nnet-utils.cc:2096) Global max-change factor was 0.759666 with max-change=2.
LOG (nnet3-train[5.5.23-c81f5]:UpdateNnetWithMaxChange():nnet-utils.cc:2096) Global max-change factor was 0.72356 with max-change=2.
LOG (nnet3-train[5.5.23-c81f5]:UpdateNnetWithMaxChange():nnet-utils.cc:2096) Global max-change factor was 0.808811 with max-change=2.
LOG (nnet3-train[5.5.23-c81f5]:UpdateNnetWithMaxChange():nnet-utils.cc:2096) Global max-change factor was 0.83674 with max-change=2.
LOG (nnet3-train[5.5.23-c81f5]:UpdateNnetWithMaxChange():nnet-utils.cc:2096) Global max-change factor was 0.892069 with max-change=2.
LOG (nnet3-train[5.5.23-c81f5]:UpdateNnetWithMaxChange():nnet-utils.cc:2096) Global max-change factor was 0.950749 with max-change=2.
LOG (nnet3-train[5.5.23-c81f5]:UpdateNnetWithMaxChange():nnet-utils.cc:2096) Global max-change factor was 0.780555 with max-change=2.
LOG (nnet3-train[5.5.23-c81f5]:UpdateNnetWithMaxChange():nnet-utils.cc:2096) Global max-change factor was 0.864243 with max-change=2.
LOG (nnet3-train[5.5.23-c81f5]:PrintStatsForThisPhase():nnet-training.cc:309) Average objective function for 'output' for minibatches 0-9 is -0.344159 over 19972.5 frames.
LOG (nnet3-train[5.5.23-c81f5]:UpdateNnetWithMaxChange():nnet-utils.cc:2096) Global max-change factor was 0.965973 with max-change=2.
LOG (nnet3-train[5.5.23-c81f5]:UpdateNnetWithMaxChange():nnet-utils.cc:2096) Global max-change factor was 0.94907 with max-change=2.
LOG (nnet3-train[5.5.23-c81f5]:UpdateNnetWithMaxChange():nnet-utils.cc:2096) Global max-change factor was 0.807412 with max-change=2.
LOG (nnet3-train[5.5.23-c81f5]:UpdateNnetWithMaxChange():nnet-utils.cc:2096) Global max-change factor was 0.873503 with max-change=2.
LOG (nnet3-train[5.5.23-c81f5]:UpdateNnetWithMaxChange():nnet-utils.cc:2096) Global max-change factor was 0.844213 with max-change=2.
LOG (nnet3-train[5.5.23-c81f5]:UpdateNnetWithMaxChange():nnet-utils.cc:2096) Global max-change factor was 0.948978 with max-change=2.
LOG (nnet3-train[5.5.23-c81f5]:UpdateNnetWithMaxChange():nnet-utils.cc:2096) Global max-change factor was 0.844304 with max-change=2.
LOG (nnet3-train[5.5.23-c81f5]:UpdateNnetWithMaxChange():nnet-utils.cc:2096) Global max-change factor was 0.920427 with max-change=2.
LOG (nnet3-train[5.5.23-c81f5]:UpdateNnetWithMaxChange():nnet-utils.cc:2096) Global max-change factor was 0.842982 with max-change=2.
LOG (nnet3-train[5.5.23-c81f5]:PrintStatsForThisPhase():nnet-training.cc:309) Average objective function for 'output' for minibatches 10-19 is -0.346935 over 19983.5 frames.
LOG (nnet3-train[5.5.23-c81f5]:UpdateNnetWithMaxChange():nnet-utils.cc:2096) Global max-change factor was 0.947896 with max-change=2.
LOG (nnet3-train[5.5.23-c81f5]:UpdateNnetWithMaxChange():nnet-utils.cc:2096) Global max-change factor was 0.891974 with max-change=2.
LOG (nnet3-train[5.5.23-c81f5]:UpdateNnetWithMaxChange():nnet-utils.cc:2096) Global max-change factor was 0.865491 with max-change=2.
LOG (nnet3-train[5.5.23-c81f5]:UpdateNnetWithMaxChange():nnet-utils.cc:2096) Global max-change factor was 0.852377 with max-change=2.
LOG (nnet3-train[5.5.23-c81f5]:UpdateNnetWithMaxChange():nnet-utils.cc:2096) Global max-change factor was 0.920476 with max-change=2.
LOG (nnet3-train[5.5.23-c81f5]:UpdateNnetWithMaxChange():nnet-utils.cc:2096) Global max-change factor was 0.698199 with max-change=2.
LOG (nnet3-train[5.5.23-c81f5]:UpdateNnetWithMaxChange():nnet-utils.cc:2096) Global max-change factor was 0.873534 with max-change=2.
LOG (nnet3-train[5.5.23-c81f5]:UpdateNnetWithMaxChange():nnet-utils.cc:2096) Global max-change factor was 0.917852 with max-change=2.
LOG (nnet3-train[5.5.23-c81f5]:UpdateNnetWithMaxChange():nnet-utils.cc:2096) Global max-change factor was 0.787541 with max-change=2.
LOG (nnet3-train[5.5.23-c81f5]:UpdateNnetWithMaxChange():nnet-utils.cc:2096) Global max-change factor was 0.761508 with max-change=2.
LOG (nnet3-train[5.5.23-c81f5]:PrintStatsForThisPhase():nnet-training.cc:309) Average objective function for 'output' for minibatches 20-29 is -0.357888 over 19973 frames.
LOG (nnet3-train[5.5.23-c81f5]:UpdateNnetWithMaxChange():nnet-utils.cc:2096) Global max-change factor was 0.923211 with max-change=2.
LOG (nnet3-train[5.5.23-c81f5]:UpdateNnetWithMaxChange():nnet-utils.cc:2096) Per-component max-change active on 1 / 19 Updatable Components. (Smallest factor=0.954026 on lstm2-forward.W_all with max-change=1.5). Global max-change factor was 0.666539 with max-change=2.
LOG (nnet3-train[5.5.23-c81f5]:UpdateNnetWithMaxChange():nnet-utils.cc:2096) Global max-change factor was 0.77904 with max-change=2.
LOG (nnet3-train[5.5.23-c81f5]:UpdateNnetWithMaxChange():nnet-utils.cc:2096) Global max-change factor was 0.927677 with max-change=2.
LOG (nnet3-train[5.5.23-c81f5]:UpdateNnetWithMaxChange():nnet-utils.cc:2096) Global max-change factor was 0.864832 with max-change=2.
LOG (nnet3-train[5.5.23-c81f5]:UpdateNnetWithMaxChange():nnet-utils.cc:2096) Global max-change factor was 0.770615 with max-change=2.
LOG (nnet3-train[5.5.23-c81f5]:UpdateNnetWithMaxChange():nnet-utils.cc:2096) Global max-change factor was 0.68271 with max-change=2.
LOG (nnet3-train[5.5.23-c81f5]:UpdateNnetWithMaxChange():nnet-utils.cc:2096) Global max-change factor was 0.689721 with max-change=2.
LOG (nnet3-train[5.5.23-c81f5]:UpdateNnetWithMaxChange():nnet-utils.cc:2096) Global max-change factor was 0.875744 with max-change=2.
LOG (nnet3-train[5.5.23-c81f5]:PrintStatsForThisPhase():nnet-training.cc:309) Average objective function for 'output' for minibatches 30-39 is -0.355858 over 19967.5 frames.
LOG (nnet3-train[5.5.23-c81f5]:UpdateNnetWithMaxChange():nnet-utils.cc:2096) Global max-change factor was 0.970191 with max-change=2.
LOG (nnet3-train[5.5.23-c81f5]:UpdateNnetWithMaxChange():nnet-utils.cc:2096) Global max-change factor was 0.964793 with max-change=2.
LOG (nnet3-train[5.5.23-c81f5]:UpdateNnetWithMaxChange():nnet-utils.cc:2096) Global max-change factor was 0.904973 with max-change=2.
LOG (nnet3-train[5.5.23-c81f5]:UpdateNnetWithMaxChange():nnet-utils.cc:2096) Global max-change factor was 0.839655 with max-change=2.
LOG (nnet3-train[5.5.23-c81f5]:UpdateNnetWithMaxChange():nnet-utils.cc:2096) Global max-change factor was 0.879751 with max-change=2.
LOG (nnet3-train[5.5.23-c81f5]:UpdateNnetWithMaxChange():nnet-utils.cc:2096) Global max-change factor was 0.981352 with max-change=2.
LOG (nnet3-train[5.5.23-c81f5]:UpdateNnetWithMaxChange():nnet-utils.cc:2096) Global max-change factor was 0.84834 with max-change=2.
LOG (nnet3-train[5.5.23-c81f5]:UpdateNnetWithMaxChange():nnet-utils.cc:2096) Global max-change factor was 0.809979 with max-change=2.
LOG (nnet3-train[5.5.23-c81f5]:UpdateNnetWithMaxChange():nnet-utils.cc:2096) Global max-change factor was 0.766289 with max-change=2.
LOG (nnet3-train[5.5.23-c81f5]:UpdateNnetWithMaxChange():nnet-utils.cc:2096) Global max-change factor was 0.788264 with max-change=2.
LOG (nnet3-train[5.5.23-c81f5]:PrintStatsForThisPhase():nnet-training.cc:309) Average objective function for 'output' for minibatches 40-49 is -0.361202 over 19968 frames.
LOG (nnet3-train[5.5.23-c81f5]:UpdateNnetWithMaxChange():nnet-utils.cc:2096) Global max-change factor was 0.727053 with max-change=2.
LOG (nnet3-train[5.5.23-c81f5]:UpdateNnetWithMaxChange():nnet-utils.cc:2096) Global max-change factor was 0.797836 with max-change=2.
LOG (nnet3-train[5.5.23-c81f5]:UpdateNnetWithMaxChange():nnet-utils.cc:2096) Global max-change factor was 0.82662 with max-change=2.
LOG (nnet3-train[5.5.23-c81f5]:UpdateNnetWithMaxChange():nnet-utils.cc:2096) Global max-change factor was 0.706481 with max-change=2.
LOG (nnet3-train[5.5.23-c81f5]:UpdateNnetWithMaxChange():nnet-utils.cc:2096) Global max-change factor was 0.818732 with max-change=2.
LOG (nnet3-train[5.5.23-c81f5]:UpdateNnetWithMaxChange():nnet-utils.cc:2096) Global max-change factor was 0.752662 with max-change=2.
LOG (nnet3-train[5.5.23-c81f5]:UpdateNnetWithMaxChange():nnet-utils.cc:2096) Global max-change factor was 0.86754 with max-change=2.
LOG (nnet3-train[5.5.23-c81f5]:UpdateNnetWithMaxChange():nnet-utils.cc:2096) Global max-change factor was 0.92337 with max-change=2.
LOG (nnet3-train[5.5.23-c81f5]:UpdateNnetWithMaxChange():nnet-utils.cc:2096) Global max-change factor was 0.837028 with max-change=2.
LOG (nnet3-train[5.5.23-c81f5]:UpdateNnetWithMaxChange():nnet-utils.cc:2096) Global max-change factor was 0.897761 with max-change=2.
LOG (nnet3-train[5.5.23-c81f5]:PrintStatsForThisPhase():nnet-training.cc:309) Average objective function for 'output' for minibatches 50-59 is -0.367701 over 19968 frames.
LOG (nnet3-train[5.5.23-c81f5]:UpdateNnetWithMaxChange():nnet-utils.cc:2096) Global max-change factor was 0.893008 with max-change=2.
LOG (nnet3-train[5.5.23-c81f5]:UpdateNnetWithMaxChange():nnet-utils.cc:2096) Global max-change factor was 0.728054 with max-change=2.
LOG (nnet3-train[5.5.23-c81f5]:UpdateNnetWithMaxChange():nnet-utils.cc:2096) Global max-change factor was 0.81819 with max-change=2.
LOG (nnet3-train[5.5.23-c81f5]:UpdateNnetWithMaxChange():nnet-utils.cc:2096) Global max-change factor was 0.79802 with max-change=2.
LOG (nnet3-train[5.5.23-c81f5]:UpdateNnetWithMaxChange():nnet-utils.cc:2096) Global max-change factor was 0.799899 with max-change=2.
LOG (nnet3-train[5.5.23-c81f5]:UpdateNnetWithMaxChange():nnet-utils.cc:2096) Global max-change factor was 0.680846 with max-change=2.
LOG (nnet3-train[5.5.23-c81f5]:UpdateNnetWithMaxChange():nnet-utils.cc:2096) Global max-change factor was 0.755123 with max-change=2.
LOG (nnet3-train[5.5.23-c81f5]:UpdateNnetWithMaxChange():nnet-utils.cc:2096) Global max-change factor was 0.848524 with max-change=2.
LOG (nnet3-train[5.5.23-c81f5]:UpdateNnetWithMaxChange():nnet-utils.cc:2096) Global max-change factor was 0.898937 with max-change=2.
LOG (nnet3-train[5.5.23-c81f5]:UpdateNnetWithMaxChange():nnet-utils.cc:2096) Global max-change factor was 0.878483 with max-change=2.
LOG (nnet3-train[5.5.23-c81f5]:PrintStatsForThisPhase():nnet-training.cc:309) Average objective function for 'output' for minibatches 60-69 is -0.340422 over 19967 frames.
LOG (nnet3-train[5.5.23-c81f5]:UpdateNnetWithMaxChange():nnet-utils.cc:2096) Per-component max-change active on 1 / 19 Updatable Components. (Smallest factor=0.949671 on lstm3-backward.W_all with max-change=1.5). Global max-change factor was 0.689217 with max-change=2.
LOG (nnet3-train[5.5.23-c81f5]:UpdateNnetWithMaxChange():nnet-utils.cc:2096) Global max-change factor was 0.786023 with max-change=2.
LOG (nnet3-train[5.5.23-c81f5]:UpdateNnetWithMaxChange():nnet-utils.cc:2096) Global max-change factor was 0.932254 with max-change=2.
LOG (nnet3-train[5.5.23-c81f5]:UpdateNnetWithMaxChange():nnet-utils.cc:2096) Global max-change factor was 0.709473 with max-change=2.
LOG (nnet3-train[5.5.23-c81f5]:UpdateNnetWithMaxChange():nnet-utils.cc:2096) Global max-change factor was 0.824639 with max-change=2.
LOG (nnet3-train[5.5.23-c81f5]:UpdateNnetWithMaxChange():nnet-utils.cc:2096) Global max-change factor was 0.809914 with max-change=2.
LOG (nnet3-train[5.5.23-c81f5]:UpdateNnetWithMaxChange():nnet-utils.cc:2096) Global max-change factor was 0.909093 with max-change=2.
LOG (nnet3-train[5.5.23-c81f5]:UpdateNnetWithMaxChange():nnet-utils.cc:2096) Global max-change factor was 0.969464 with max-change=2.
LOG (nnet3-train[5.5.23-c81f5]:UpdateNnetWithMaxChange():nnet-utils.cc:2096) Global max-change factor was 0.903184 with max-change=2.
LOG (nnet3-train[5.5.23-c81f5]:UpdateNnetWithMaxChange():nnet-utils.cc:2096) Global max-change factor was 0.755731 with max-change=2.
LOG (nnet3-train[5.5.23-c81f5]:PrintStatsForThisPhase():nnet-training.cc:309) Average objective function for 'output' for minibatches 70-79 is -0.343302 over 19966.5 frames.
LOG (nnet3-train[5.5.23-c81f5]:UpdateNnetWithMaxChange():nnet-utils.cc:2096) Per-component max-change active on 1 / 19 Updatable Components. (Smallest factor=0.979729 on lstm3-backward.W_all with max-change=1.5). Global max-change factor was 0.657915 with max-change=2.
LOG (nnet3-train[5.5.23-c81f5]:UpdateNnetWithMaxChange():nnet-utils.cc:2096) Global max-change factor was 0.850141 with max-change=2.
LOG (nnet3-train[5.5.23-c81f5]:UpdateNnetWithMaxChange():nnet-utils.cc:2096) Global max-change factor was 0.791562 with max-change=2.
LOG (nnet3-train[5.5.23-c81f5]:UpdateNnetWithMaxChange():nnet-utils.cc:2096) Global max-change factor was 0.727589 with max-change=2.
LOG (nnet3-train[5.5.23-c81f5]:UpdateNnetWithMaxChange():nnet-utils.cc:2096) Global max-change factor was 0.794742 with max-change=2.
LOG (nnet3-train[5.5.23-c81f5]:UpdateNnetWithMaxChange():nnet-utils.cc:2096) Global max-change factor was 0.782535 with max-change=2.
LOG (nnet3-train[5.5.23-c81f5]:UpdateNnetWithMaxChange():nnet-utils.cc:2096) Global max-change factor was 0.839824 with max-change=2.
LOG (nnet3-train[5.5.23-c81f5]:UpdateNnetWithMaxChange():nnet-utils.cc:2096) Global max-change factor was 0.870505 with max-change=2.
LOG (nnet3-train[5.5.23-c81f5]:UpdateNnetWithMaxChange():nnet-utils.cc:2096) Global max-change factor was 0.88198 with max-change=2.
LOG (nnet3-train[5.5.23-c81f5]:UpdateNnetWithMaxChange():nnet-utils.cc:2096) Global max-change factor was 0.954447 with max-change=2.
LOG (nnet3-train[5.5.23-c81f5]:PrintStatsForThisPhase():nnet-training.cc:309) Average objective function for 'output' for minibatches 80-89 is -0.361637 over 19973.5 frames.
LOG (nnet3-train[5.5.23-c81f5]:UpdateNnetWithMaxChange():nnet-utils.cc:2096) Global max-change factor was 0.895515 with max-change=2.
LOG (nnet3-train[5.5.23-c81f5]:UpdateNnetWithMaxChange():nnet-utils.cc:2096) Global max-change factor was 0.785528 with max-change=2.
LOG (nnet3-train[5.5.23-c81f5]:UpdateNnetWithMaxChange():nnet-utils.cc:2096) Global max-change factor was 0.911011 with max-change=2.
LOG (nnet3-train[5.5.23-c81f5]:UpdateNnetWithMaxChange():nnet-utils.cc:2096) Global max-change factor was 0.916818 with max-change=2.
LOG (nnet3-train[5.5.23-c81f5]:UpdateNnetWithMaxChange():nnet-utils.cc:2096) Global max-change factor was 0.903095 with max-change=2.
LOG (nnet3-train[5.5.23-c81f5]:UpdateNnetWithMaxChange():nnet-utils.cc:2096) Global max-change factor was 0.902504 with max-change=2.
LOG (nnet3-train[5.5.23-c81f5]:UpdateNnetWithMaxChange():nnet-utils.cc:2096) Global max-change factor was 0.693535 with max-change=2.
LOG (nnet3-copy-egs[5.5.23-c81f5]:main():nnet3-copy-egs.cc:431) Read 14823 neural-network training examples, wrote 14823, 0 examples had errors.
LOG (nnet3-train[5.5.23-c81f5]:UpdateNnetWithMaxChange():nnet-utils.cc:2096) Global max-change factor was 0.845363 with max-change=2.
LOG (nnet3-train[5.5.23-c81f5]:UpdateNnetWithMaxChange():nnet-utils.cc:2096) Global max-change factor was 0.751416 with max-change=2.
LOG (nnet3-train[5.5.23-c81f5]:UpdateNnetWithMaxChange():nnet-utils.cc:2096) Global max-change factor was 0.76485 with max-change=2.
LOG (nnet3-train[5.5.23-c81f5]:PrintStatsForThisPhase():nnet-training.cc:309) Average objective function for 'output' for minibatches 90-99 is -0.354463 over 19970.5 frames.
LOG (nnet3-train[5.5.23-c81f5]:UpdateNnetWithMaxChange():nnet-utils.cc:2096) Global max-change factor was 0.777385 with max-change=2.
LOG (nnet3-train[5.5.23-c81f5]:UpdateNnetWithMaxChange():nnet-utils.cc:2096) Global max-change factor was 0.9646 with max-change=2.
LOG (nnet3-train[5.5.23-c81f5]:UpdateNnetWithMaxChange():nnet-utils.cc:2096) Global max-change factor was 0.889019 with max-change=2.
LOG (nnet3-train[5.5.23-c81f5]:UpdateNnetWithMaxChange():nnet-utils.cc:2096) Global max-change factor was 0.860849 with max-change=2.
LOG (nnet3-train[5.5.23-c81f5]:UpdateNnetWithMaxChange():nnet-utils.cc:2096) Global max-change factor was 0.795893 with max-change=2.
LOG (nnet3-train[5.5.23-c81f5]:UpdateNnetWithMaxChange():nnet-utils.cc:2096) Global max-change factor was 0.882881 with max-change=2.
LOG (nnet3-train[5.5.23-c81f5]:UpdateNnetWithMaxChange():nnet-utils.cc:2096) Global max-change factor was 0.779161 with max-change=2.
LOG (nnet3-train[5.5.23-c81f5]:UpdateNnetWithMaxChange():nnet-utils.cc:2096) Global max-change factor was 0.747405 with max-change=2.
LOG (nnet3-train[5.5.23-c81f5]:UpdateNnetWithMaxChange():nnet-utils.cc:2096) Global max-change factor was 0.870978 with max-change=2.
LOG (nnet3-train[5.5.23-c81f5]:UpdateNnetWithMaxChange():nnet-utils.cc:2096) Global max-change factor was 0.828582 with max-change=2.
LOG (nnet3-train[5.5.23-c81f5]:PrintStatsForThisPhase():nnet-training.cc:309) Average objective function for 'output' for minibatches 100-109 is -0.34221 over 19977 frames.
LOG (nnet3-train[5.5.23-c81f5]:UpdateNnetWithMaxChange():nnet-utils.cc:2096) Global max-change factor was 0.809236 with max-change=2.
LOG (nnet3-train[5.5.23-c81f5]:UpdateNnetWithMaxChange():nnet-utils.cc:2096) Global max-change factor was 0.863021 with max-change=2.
LOG (nnet3-train[5.5.23-c81f5]:UpdateNnetWithMaxChange():nnet-utils.cc:2096) Global max-change factor was 0.88577 with max-change=2.
LOG (nnet3-train[5.5.23-c81f5]:UpdateNnetWithMaxChange():nnet-utils.cc:2096) Global max-change factor was 0.765841 with max-change=2.
LOG (nnet3-train[5.5.23-c81f5]:UpdateNnetWithMaxChange():nnet-utils.cc:2096) Global max-change factor was 0.942266 with max-change=2.
LOG (nnet3-train[5.5.23-c81f5]:UpdateNnetWithMaxChange():nnet-utils.cc:2096) Global max-change factor was 0.958824 with max-change=2.
LOG (nnet3-train[5.5.23-c81f5]:UpdateNnetWithMaxChange():nnet-utils.cc:2096) Global max-change factor was 0.840837 with max-change=2.
LOG (nnet3-train[5.5.23-c81f5]:UpdateNnetWithMaxChange():nnet-utils.cc:2096) Global max-change factor was 0.938834 with max-change=2.
LOG (nnet3-train[5.5.23-c81f5]:UpdateNnetWithMaxChange():nnet-utils.cc:2096) Global max-change factor was 0.918611 with max-change=2.
LOG (nnet3-train[5.5.23-c81f5]:PrintStatsForThisPhase():nnet-training.cc:309) Average objective function for 'output' for minibatches 110-119 is -0.350944 over 19966.5 frames.
LOG (nnet3-train[5.5.23-c81f5]:UpdateNnetWithMaxChange():nnet-utils.cc:2096) Global max-change factor was 0.860045 with max-change=2.
LOG (nnet3-train[5.5.23-c81f5]:UpdateNnetWithMaxChange():nnet-utils.cc:2096) Global max-change factor was 0.836287 with max-change=2.
LOG (nnet3-train[5.5.23-c81f5]:UpdateNnetWithMaxChange():nnet-utils.cc:2096) Global max-change factor was 0.808209 with max-change=2.
LOG (nnet3-train[5.5.23-c81f5]:UpdateNnetWithMaxChange():nnet-utils.cc:2096) Global max-change factor was 0.850737 with max-change=2.
LOG (nnet3-train[5.5.23-c81f5]:UpdateNnetWithMaxChange():nnet-utils.cc:2096) Global max-change factor was 0.942929 with max-change=2.
LOG (nnet3-train[5.5.23-c81f5]:UpdateNnetWithMaxChange():nnet-utils.cc:2096) Global max-change factor was 0.842401 with max-change=2.
LOG (nnet3-train[5.5.23-c81f5]:UpdateNnetWithMaxChange():nnet-utils.cc:2096) Global max-change factor was 0.800872 with max-change=2.
LOG (nnet3-train[5.5.23-c81f5]:UpdateNnetWithMaxChange():nnet-utils.cc:2096) Global max-change factor was 0.834242 with max-change=2.
LOG (nnet3-train[5.5.23-c81f5]:UpdateNnetWithMaxChange():nnet-utils.cc:2096) Global max-change factor was 0.87934 with max-change=2.
LOG (nnet3-train[5.5.23-c81f5]:UpdateNnetWithMaxChange():nnet-utils.cc:2096) Global max-change factor was 0.783353 with max-change=2.
LOG (nnet3-train[5.5.23-c81f5]:PrintStatsForThisPhase():nnet-training.cc:309) Average objective function for 'output' for minibatches 120-129 is -0.358694 over 19971 frames.
LOG (nnet3-train[5.5.23-c81f5]:UpdateNnetWithMaxChange():nnet-utils.cc:2096) Global max-change factor was 0.890225 with max-change=2.
LOG (nnet3-train[5.5.23-c81f5]:UpdateNnetWithMaxChange():nnet-utils.cc:2096) Global max-change factor was 0.977766 with max-change=2.
LOG (nnet3-train[5.5.23-c81f5]:UpdateNnetWithMaxChange():nnet-utils.cc:2096) Global max-change factor was 0.860089 with max-change=2.
LOG (nnet3-train[5.5.23-c81f5]:UpdateNnetWithMaxChange():nnet-utils.cc:2096) Global max-change factor was 0.929358 with max-change=2.
LOG (nnet3-train[5.5.23-c81f5]:UpdateNnetWithMaxChange():nnet-utils.cc:2096) Global max-change factor was 0.979322 with max-change=2.
LOG (nnet3-train[5.5.23-c81f5]:UpdateNnetWithMaxChange():nnet-utils.cc:2096) Global max-change factor was 0.73298 with max-change=2.
LOG (nnet3-train[5.5.23-c81f5]:UpdateNnetWithMaxChange():nnet-utils.cc:2096) Global max-change factor was 0.917143 with max-change=2.
LOG (nnet3-train[5.5.23-c81f5]:UpdateNnetWithMaxChange():nnet-utils.cc:2096) Global max-change factor was 0.770924 with max-change=2.
LOG (nnet3-train[5.5.23-c81f5]:UpdateNnetWithMaxChange():nnet-utils.cc:2096) Global max-change factor was 0.778918 with max-change=2.
LOG (nnet3-train[5.5.23-c81f5]:UpdateNnetWithMaxChange():nnet-utils.cc:2096) Global max-change factor was 0.814578 with max-change=2.
LOG (nnet3-train[5.5.23-c81f5]:PrintStatsForThisPhase():nnet-training.cc:309) Average objective function for 'output' for minibatches 130-139 is -0.358331 over 19974 frames.
LOG (nnet3-train[5.5.23-c81f5]:UpdateNnetWithMaxChange():nnet-utils.cc:2096) Global max-change factor was 0.859789 with max-change=2.
LOG (nnet3-train[5.5.23-c81f5]:UpdateNnetWithMaxChange():nnet-utils.cc:2096) Global max-change factor was 0.829019 with max-change=2.
LOG (nnet3-train[5.5.23-c81f5]:UpdateNnetWithMaxChange():nnet-utils.cc:2096) Global max-change factor was 0.89207 with max-change=2.
LOG (nnet3-train[5.5.23-c81f5]:UpdateNnetWithMaxChange():nnet-utils.cc:2096) Global max-change factor was 0.857093 with max-change=2.
LOG (nnet3-shuffle-egs[5.5.23-c81f5]:main():nnet3-shuffle-egs.cc:103) Shuffled order of 14823 neural-network training examples using a buffer (partial randomization)
LOG (nnet3-train[5.5.23-c81f5]:UpdateNnetWithMaxChange():nnet-utils.cc:2096) Global max-change factor was 0.969435 with max-change=2.
LOG (nnet3-merge-egs[5.5.23-c81f5]:PrintSpecificStats():nnet-example-utils.cc:1143) Merged specific eg types as follows [format: <eg-size1>={<mb-size1>-><num-minibatches1>,<mbsize2>-><num-minibatches2>.../d=<num-discarded>},<egs-size2>={...},... (note,egs-size == number of input frames including context).
LOG (nnet3-merge-egs[5.5.23-c81f5]:PrintSpecificStats():nnet-example-utils.cc:1173) 64={100->1,d=18},64={,d=99},104={100->146,d=6}
LOG (nnet3-merge-egs[5.5.23-c81f5]:PrintAggregateStats():nnet-example-utils.cc:1139) Processed 14823 egs of avg. size 103.4 into 147 minibatches, discarding 0.8298% of egs.  Avg minibatch size was 100, #distinct types of egs/minibatches was 3/2
LOG (nnet3-train[5.5.23-c81f5]:UpdateNnetWithMaxChange():nnet-utils.cc:2096) Global max-change factor was 0.78365 with max-change=2.
LOG (nnet3-train[5.5.23-c81f5]:UpdateNnetWithMaxChange():nnet-utils.cc:2096) Global max-change factor was 0.930193 with max-change=2.
LOG (nnet3-train[5.5.23-c81f5]:PrintTotalStats():nnet-training.cc:348) Overall average objective function for 'output' is -0.352541 over 293574 frames.
LOG (nnet3-train[5.5.23-c81f5]:PrintTotalStats():nnet-training.cc:355) [this line is to be parsed by a script:] log-prob-per-frame=-0.352541
LOG (nnet3-train[5.5.23-c81f5]:PrintMaxChangeStats():nnet-training.cc:254) For lstm2-forward.W_all, per-component max-change was enforced 0.680272 % of the time.
LOG (nnet3-train[5.5.23-c81f5]:PrintMaxChangeStats():nnet-training.cc:254) For lstm3-backward.W_all, per-component max-change was enforced 1.36054 % of the time.
LOG (nnet3-train[5.5.23-c81f5]:PrintMaxChangeStats():nnet-training.cc:265) The global max-change was enforced 96.5986 % of the time.
LOG (nnet3-train[5.5.23-c81f5]:main():nnet3-train.cc:91) Wrote model to exp/nnet3/lstm_sp/114.1.raw
LOG (nnet3-train[5.5.23-c81f5]:~NnetTrainer():nnet-training.cc:365) Wrote computation cache to exp/nnet3/lstm_sp/cache.114
LOG (nnet3-train[5.5.23-c81f5]:~CachingOptimizingCompiler():nnet-optimize.cc:710) 0.00581 seconds taken in nnet3 compilation total (breakdown: 0 compilation, 0 optimization, 0 shortcut expansion, 0 checking, 0 computing indexes, 0.00581 misc.) + 0.602 I/O.
# Accounting: time=2694 threads=1
# Ended (code 0) at Wed Jan 16 23:44:23 -02 2019, elapsed time 2694 seconds
